0,-184960.2
0,-184368.2
0,-184953.1
0,-185517.5
0,-184957
0,-184374.3
0,-183690.5
0,-184358
0,-185039.8
0,-185562.4
-0.003935183,-185690.6
-0.003935183,-186226.8
-0.003935183,-186982.4
-0.003935183,-187637.5
-0.003935183,-188332.3
-0.003935183,-189001
-0.003935183,-189617.6
-0.003935183,-190185.3
-0.003935183,-189478.8
-0.003935183,-188961.4
-0.003935183,-189637.3
-0.003935183,-190150.8
-0.005902776,-190483
-0.005902776,-191127
-0.005902776,-191711.1
-0.005902776,-192405.5
-0.005902776,-193150.4
-0.007870367,-193538.3
-0.007870367,-194336.3
-0.007870367,-195106.1
-0.007870367,-195814.8
-0.009837959,-196425.9
-0.009837959,-196977.9
-0.009837959,-197564.5
-0.01180555,-197898.2
-0.01180555,-198634.1
-0.01180555,-199482.7
-0.01377314,-200466.4
-0.01377314,-200993
-0.01377314,-201532.8
-0.01377314,-202071.3
-0.01574073,-202599.9
-0.01574073,-203127.1
-0.01574073,-203673.4
-0.01574073,-204255.7
-0.01574073,-204876.5
-0.01770833,-205525.5
-0.01770833,-206188.9
-0.01770833,-206854.6
-0.01770833,-207512.9
-0.01967592,-208155.4
-0.01967592,-208778.3
-0.01967592,-209382.1
-0.01967592,-209969.2
-0.02164351,-210547.4
-0.02164351,-211133.6
-0.02164351,-211741.4
-0.02164351,-212370
-0.0236111,-213009.6
-0.0236111,-213651.2
-0.0236111,-214288.9
-0.0236111,-214921.1
-0.02557869,-215550.6
-0.02557869,-216180.3
-0.02557869,-216809.6
-0.02557869,-217434.5
-0.02754628,-218051.4
-0.02754628,-218661.5
-0.02754628,-219268
-0.02951388,-219867.5
-0.02951388,-220454.2
-0.02951388,-221028.5
-0.02951388,-221594.4
-0.03148147,-222152.2
-0.03148147,-222699.5
-0.03148147,-223236.7
-0.03148147,-223770.4
-0.03148147,-224308.2
-0.03344906,-224851.7
-0.03344906,-225397.5
-0.03344906,-225945.4
-0.03344906,-226498.1
-0.03541665,-227055
-0.03541665,-227612.4
-0.03541665,-228167
-0.03541665,-228716.5
-0.03738425,-229259.5
-0.03738425,-229794
-0.03738425,-230316.7
-0.03738425,-231317
-0.03935184,-232264
-0.03935184,-233178.9
-0.03935184,-234022.5
-0.04131943,-234844.4
-0.04131943,-235682.7
-0.04131943,-236470
-0.04131943,-237196.4
-0.04328702,-237533.5
-0.04328702,-238132.5
-0.04328702,-238651.1
-0.04328702,-239369.5
-0.04525461,-239842.8
-0.04525461,-240440.7
-0.04525461,-240990.7
-0.0472222,-241551
-0.0472222,-242098.3
-0.0472222,-242721.2
-0.04918979,-242975.3
-0.04918979,-243542.5
-0.05115739,-243883.3
-0.05115739,-244456.9
-0.05115739,-245049.9
-0.05312498,-245405.2
-0.05312498,-245948.6
-0.05312498,-246491
-0.05509257,-246745.6
-0.05509257,-247359.9
-0.05509257,-248008.8
-0.05509257,-248582.1
-0.05706016,-248689.9
-0.05706016,-249223.4
-0.05902775,-249298.1
-0.05902775,-249876
-0.05902775,-250489
-0.06099534,-250827.8
-0.06099534,-251456
-0.06099534,-252187.2
-0.06099534,-252882.4
-0.06099534,-253438.5
-0.06296293,-253602
-0.06296293,-254181.9
-0.06493053,-254668.4
-0.06493053,-255208.7
-0.06493053,-255732.3
-0.06689812,-256004.7
-0.06689812,-256565.4
-0.06886571,-257096.8
-0.06886571,-257637.5
-0.06886571,-258253.5
-0.0708333,-258806.5
-0.0708333,-259359
-0.0708333,-259893.2
-0.0728009,-260158.3
-0.0728009,-260685.2
-0.0728009,-261277.5
-0.07476849,-261421.4
-0.07476849,-261964.4
-0.07476849,-262544.3
-0.07476849,-263080.8
-0.07476849,-263656.2
-0.07673608,-264012.9
-0.07673608,-264661.4
-0.07673608,-265198.3
-0.07870367,-265680.1
-0.07870367,-266191.9
-0.08067126,-266282.1
-0.08067126,-266824.1
-0.08263886,-267194.9
-0.08263886,-267912.1
-0.08263886,-268455.5
-0.08263886,-269001.5
-0.08460645,-269726.2
-0.08460645,-270396.5
-0.08460645,-271062.4
-0.08460645,-271619.8
-0.08657404,-271912.1
-0.08657404,-272454.8
-0.08657404,-273034.3
-0.08854163,-273384.7
-0.08854163,-273922.8
-0.09050922,-274389
-0.09050922,-274904.7
-0.09247681,-275274.8
-0.09247681,-275888.2
-0.09247681,-275019.7
-0.09247681,-274337.5
-0.09247681,-273501.2
-0.09444441,-272540.6
-0.09444441,-271480.5
-0.09444441,-270338.1
-0.09444441,-269132.5
-0.09444441,-267891.9
-0.09444441,-266642.5
-0.09444441,-265396.5
-0.09444441,-264162.2
-0.09444441,-262954.2
-0.09444441,-261786.8
-0.09444441,-260668.6
-0.09444441,-259607.1
-0.096412,-258614
-0.096412,-257700.3
-0.096412,-256868.1
-0.096412,-256110.7
-0.096412,-255420
-0.096412,-254788.8
-0.096412,-254211.4
-0.096412,-253686.1
-0.096412,-252818.1
-0.09837959,-252216.3
-0.09837959,-251661
-0.1003472,-251960.7
-0.1003472,-252471.7
-0.1003472,-253068.9
-0.1023148,-253227.1
-0.1023148,-253873.5
-0.1042824,-254321.4
-0.10625,-254765.8
-0.10625,-255294.1
-0.10625,-255867.7
-0.1082175,-256028.6
-0.1082175,-256620.1
-0.1082175,-257274.1
-0.1082175,-257816.4
-0.1101851,-258049.8
-0.1101851,-258654.4
-0.1121527,-258756.4
-0.1121527,-259267.8
-0.1121527,-259848.8
-0.1141203,-260209.5
-0.1141203,-260803.6
-0.1160879,-261373.6
-0.1160879,-261894.8
-0.1180555,-262422.6
-0.1180555,-263028.4
-0.1180555,-263538.8
-0.1200231,-263678.2
-0.1200231,-264279.6
-0.1219907,-264582.4
-0.1219907,-265155.2
-0.1239583,-265250.5
-0.1259259,-264699.2
-0.1259259,-264113.1
-0.1278935,-263712.8
-0.1278935,-263171.8
-0.1278935,-262618.1
-0.1298611,-262576.8
-0.1318286,-263118.7
-0.1337962,-262730
-0.1337962,-263281
-0.1357638,-263653.3
-0.1357638,-264181
-0.1377314,-264287.9
-0.1377314,-264808.9
-0.139699,-264999.5
-0.139699,-265520.5
-0.1416666,-265300.7
-0.1436342,-265824.1
-0.1436342,-266537.3
-0.1436342,-267187.9
-0.1456018,-267452
-0.1475694,-267263.6
-0.1475694,-267814.9
-0.149537,-268130
-0.1515046,-268593.9
-0.1515046,-269110.6
-0.1515046,-269704.7
-0.1534722,-270133.4
-0.1534722,-270719.4
-0.1554397,-271020.5
-0.1574073,-271267.6
-0.1574073,-271830.4
-0.1593749,-271907.8
-0.1613425,-271940
-0.1613425,-271225.7
-0.1613425,-270688.4
-0.1613425,-269919.7
-0.1613425,-268980
-0.1613425,-268468.1
-0.1633101,-267937.8
-0.1633101,-267387.6
-0.1633101,-266806.9
-0.1633101,-266191.7
-0.1633101,-265550.6
-0.1633101,-264893.2
-0.1633101,-264223.1
-0.1633101,-263542.6
-0.1633101,-262859.5
-0.1633101,-262188.5
-0.1633101,-261543.4
-0.1652777,-260932
-0.1652777,-260359
-0.1652777,-259828.3
-0.1652777,-258916.5
-0.1652777,-258264.7
-0.1652777,-257749.5
-0.1672453,-257763.4
-0.1692129,-257814.8
-0.1692129,-258329.3
-0.1692129,-258851
-0.1711805,-259221.6
-0.1731481,-259401.8
-0.1731481,-260000.7
-0.1751157,-260702.1
-0.1751157,-261288
-0.1751157,-261816.5
-0.1751157,-262478.8
-0.1770833,-262829.5
-0.1770833,-263357.3
-0.1790509,-263398
-0.1790509,-263957.8
-0.1810184,-264078.2
-0.1810184,-264653.7
-0.1810184,-265194.9
-0.1810184,-265706.3
-0.1829861,-265860.4
-0.1829861,-266379.7
-0.1849536,-266471.7
-0.1849536,-267043.1
-0.1869212,-267360.1
-0.1888888,-267560.9
-0.1888888,-268154.3
-0.1908564,-268691.5
-0.1908564,-269349.3
-0.1908564,-269950.5
-0.192824,-270419.3
-0.192824,-271086.9
-0.1947916,-271345.4
-0.1947916,-270717.9
-0.1947916,-270080.5
-0.1947916,-269247.5
-0.1947916,-268250.1
-0.1947916,-267706.3
-0.1947916,-267148.8
-0.1967592,-266587
-0.1967592,-266029.7
-0.1967592,-265482.3
-0.1967592,-264942.3
-0.1967592,-264406.1
-0.1967592,-263877.8
-0.1967592,-263367.4
-0.1967592,-262412.9
-0.1967592,-261529.8
-0.1967592,-260761.6
-0.1987268,-260426.4
-0.1987268,-259827.1
-0.1987268,-259315.9
-0.1987268,-258757
-0.2006944,-258432.7
-0.202662,-257957.6
-0.202662,-257382.8
-0.2046295,-256962.2
-0.2046295,-257537.1
-0.2046295,-258104.3
-0.2065971,-258273.7
-0.2065971,-258856.5
-0.2065971,-259554.4
-0.2065971,-260080.9
-0.2085647,-260331.4
-0.2105323,-260020.4
-0.2105323,-260576.6
-0.2105323,-261147.3
-0.2124999,-261432
-0.2144675,-261931.8
-0.2144675,-262513.8
-0.2144675,-263222.8
-0.2144675,-263843.3
-0.2164351,-264140
-0.2164351,-264706.2
-0.2184027,-264824.3
-0.2184027,-265469.2
-0.2203703,-265787.7
-0.2203703,-265122.1
-0.2223379,-265158.2
-0.2223379,-265692.2
-0.2223379,-266332.4
-0.2223379,-266981.8
-0.2223379,-267554.5
-0.2243055,-268280.2
-0.2243055,-268964.8
-0.2243055,-269493.7
-0.2262731,-270080
-0.2262731,-270589.4
-0.2282407,-270550.3
-0.2302082,-270832.9
-0.2302082,-271445.6
-0.2302082,-272010.7
-0.2302082,-272536.2
-0.2321758,-272805.6
-0.2321758,-273327.4
-0.2341434,-273702.2
-0.2341434,-273139.7
-0.236111,-272657.6
-0.2380786,-273167.9
-0.2380786,-273734.9
-0.2400462,-273953
-0.2400462,-274486.3
-0.2400462,-275084.6
-0.2420138,-275053.9
-0.2420138,-274444.8
-0.2420138,-273880.1
-0.2420138,-273281
-0.2420138,-272620.9
-0.2420138,-271978
-0.2439814,-271441
-0.2439814,-272064.1
-0.245949,-272200.4
-0.245949,-272734.9
-0.2479166,-273287.2
-0.2479166,-273809.9
-0.2479166,-274363.5
-0.2479166,-274906.6
-0.2498841,-274970.8
-0.2518517,-275078.9
-0.2538193,-275389.5
-0.2538193,-275949.4
-0.2538193,-276472
-0.2557869,-276895.7
-0.2557869,-277408.5
-0.2577545,-277566.5
-0.2577545,-278171.8
-0.2597221,-278679.3
-0.2616897,-278962.3
-0.2616897,-279500.1
-0.2616897,-280142.3
-0.2616897,-280864.8
-0.2636573,-281098.6
-0.2636573,-281685
-0.2656249,-281812.6
-0.2656249,-282441.9
-0.2675925,-282587.2
-0.2695601,-282415.5
-0.2695601,-283013
-0.2715277,-283568.2
-0.2715277,-284120.7
-0.2715277,-284735.3
-0.2734953,-285276.9
-0.2734953,-285815.6
-0.2754628,-286257.2
-0.2754628,-286796.9
-0.2774304,-286993.3
-0.2793981,-287314.9
-0.2813656,-287834
-0.2813656,-288365.3
-0.2833332,-288393
-0.2833332,-287703.2
-0.2833332,-287104.4
-0.2833332,-286562.5
-0.2853008,-286374.5
-0.2853008,-285750
-0.2853008,-285075.3
-0.2853008,-284466.3
-0.2872684,-284373.8
-0.289236,-284639
-0.2912036,-284613.2
-0.2912036,-284082.3
-0.2931712,-283853.6
-0.2951388,-283490.6
-0.2951388,-284044.7
-0.2971064,-284146.8
-0.299074,-284631.3
-0.299074,-284031.9
-0.3010415,-283815.4
-0.3010415,-283156.3
-0.3010415,-282597.3
-0.3030091,-282167.7
-0.3049767,-282052.1
-0.3069443,-281597.8
-0.3069443,-281059.6
-0.3089119,-280792.3
-0.3089119,-280265.6
-0.3108795,-279858.4
-0.3108795,-279201.6
-0.3128471,-278639.9
-0.3128471,-278071.4
-0.3128471,-277504.2
-0.3148147,-277134.4
-0.3167823,-277466.1
-0.3167823,-278036.8
-0.3187499,-278609.9
-0.3207175,-278962.6
-0.3207175,-279609.2
-0.322685,-280162.3
-0.322685,-280704.7
-0.3246527,-280850.5
-0.3246527,-281475
-0.3266203,-281841.4
-0.3266203,-282357.7
-0.3285878,-282409.4
-0.3305554,-282308.2
-0.332523,-281814.8
-0.332523,-281237.4
-0.332523,-280651.4
-0.3344906,-280274.4
-0.3344906,-279348.5
-0.3344906,-278827.6
-0.3344906,-278290.7
-0.3344906,-277746.7
-0.3344906,-277203.7
-0.3344906,-276674.3
-0.3344906,-275700.4
-0.3364582,-274862.6
-0.3364582,-274163.4
-0.3364582,-273645.6
-0.3364582,-273056.5
-0.3364582,-272478.6
-0.3384258,-271762.4
-0.3384258,-271068.6
-0.3403934,-271007.9
-0.3403934,-271608.4
-0.3403934,-272223.1
-0.342361,-272518
-0.3443286,-272502.9
-0.3443286,-273098.5
-0.3443286,-273658.6
-0.3462962,-273764.8
-0.3462962,-274311.9
-0.3462962,-274939.8
-0.3482637,-275530.9
-0.3502313,-275782.2
-0.3521989,-275643.3
-0.3521989,-276310.8
-0.3521989,-277048.1
-0.3521989,-277617.4
-0.3541665,-277922.9
-0.3541665,-278537.7
-0.3541665,-279086.7
-0.3541665,-279792.9
-0.3541665,-280391.4
-0.3561341,-280465
-0.3581017,-280481
-0.3581017,-281113.4
-0.3581017,-281673.9
-0.3600693,-281875.1
-0.3600693,-282387.6
-0.3620369,-282804.8
-0.3620369,-283325.3
-0.3620369,-283850.8
-0.3640045,-283905.3
-0.3659721,-284332.1
-0.3679397,-284473.7
-0.3699073,-284569.2
-0.3699073,-284048.9
-0.3718749,-283401.9
-0.3718749,-282753.5
-0.3718749,-282242.3
-0.3738424,-281869.6
-0.37581,-281338
-0.37581,-281890.3
-0.3777776,-281995.7
-0.3777776,-282587.1
-0.3777776,-283111.3
-0.3797452,-283217.8
-0.3797452,-283849
-0.3797452,-284475
-0.3817128,-284838
-0.3817128,-285454
-0.3817128,-286098.2
-0.3836804,-286730.1
-0.385648,-286927
-0.3876156,-287392.5
-0.3895831,-287862.5
-0.3895831,-288456.3
-0.3895831,-288979.7
-0.3915508,-289365.1
-0.3915508,-290001.6
-0.3915508,-290620.3
-0.3915508,-291159.1
-0.3935184,-291247.3
-0.3935184,-291800.3
-0.3954859,-291862.7
-0.3954859,-292474.5
-0.3974535,-292748.1
-0.3974535,-293326.3
-0.3974535,-293852.6
-0.3994211,-294086.9
-0.3994211,-294671.2
-0.4013887,-295157.3
-0.4013887,-295719.9
-0.4033563,-296268.8
-0.4033563,-296804.4
-0.4053239,-297188.7
-0.4072915,-297252
-0.4092591,-296757
-0.4092591,-296220.8
-0.4092591,-295662.5
-0.4112267,-295471.8
-0.4131942,-295226.8
-0.4131942,-294608.3
-0.4151618,-294128.5
-0.4151618,-293493.7
-0.4171295,-293914.9
-0.4171295,-294437.7
-0.4171295,-294968.6
-0.419097,-295194.3
-0.4210646,-295641.7
-0.4230323,-295708.4
-0.4230323,-296283.1
-0.4249998,-296811.5
-0.4249998,-297408
-0.4249998,-298105.8
-0.4249998,-298704.8
-0.4269674,-298999.6
-0.428935,-298674.6
-0.428935,-299254.4
-0.4309026,-299726.2
-0.4309026,-300290.5
-0.4328702,-300514.6
-0.4328702,-301079.8
-0.4328702,-301598
-0.4348378,-301628.8
-0.4368054,-302027.9
-0.4368054,-302555.5
-0.4368054,-303159.8
-0.4387729,-303346.5
-0.4387729,-303983
-0.4387729,-304624.4
-0.4387729,-305172.9
-0.4407406,-305581.8
-0.4427081,-305742.9
-0.4427081,-305102.6
-0.4427081,-304535.3
-0.4446757,-304326
-0.4446757,-303761.3
-0.4446757,-303221.8
-0.4466433,-303082
-0.4486109,-303019.2
-0.4486109,-302491.9
-0.4486109,-301766.2
-0.4486109,-301132
-0.4505785,-300809.4
-0.4505785,-300246.7
-0.4505785,-299676.8
-0.4505785,-299079.4
-0.4525461,-298891.6
-0.4525461,-298305.6
-0.4525461,-297549.7
-0.4525461,-296876.1
-0.4525461,-296204
-0.4545137,-295883.3
-0.4545137,-295298.2
-0.4545137,-294644.3
-0.4545137,-294089.7
-0.4564813,-293477.2
-0.4564813,-292869.7
-0.4564813,-292239.2
-0.4564813,-291645
-0.4564813,-291088.8
-0.4584489,-290716.9
-0.4584489,-290188.8
-0.4584489,-289574
-0.4584489,-288854
-0.4584489,-288274.8
-0.4604165,-287989
-0.4604165,-287474.1
-0.4604165,-286886.4
-0.4623841,-287162.8
-0.4623841,-287769.4
-0.4623841,-288525.4
-0.4623841,-289036.1
-0.4623841,-289716.3
-0.4643517,-290084.4
-0.4643517,-290688.7
-0.4643517,-291279.8
-0.4663192,-291526.6
-0.4663192,-290936.6
-0.4682868,-290852.2
-0.4682868,-291484.9
-0.4682868,-292186.3
-0.4702544,-292709
-0.4702544,-293457.2
-0.4702544,-294055.2
-0.4702544,-294567.9
-0.472222,-294743.5
-0.472222,-295386.3
-0.4741896,-295758
-0.4761572,-295316.1
-0.4761572,-295858.6
-0.4761572,-296423.9
-0.4781248,-296991.3
-0.4781248,-297621.6
-0.4781248,-298193.1
-0.4781248,-298820.4
-0.4781248,-299347.3
-0.4800924,-299471.5
-0.4800924,-298923.1
-0.48206,-298480.5
-0.48206,-299020.3
-0.48206,-299791.2
-0.4840276,-300347.1
-0.4840276,-301014.2
-0.4840276,-301588.5
-0.4859952,-301938.8
-0.4859952,-302468.1
-0.4859952,-303146.4
-0.4859952,-303784.9
-0.4879628,-303935.5
-0.4879628,-303426.1
-0.4879628,-302850.2
-0.4899304,-302271.8
-0.4899304,-301657.8
-0.4899304,-302244.2
-0.4918979,-302441.2
-0.4918979,-303193
-0.4918979,-303767.2
-0.4918979,-304351.6
-0.4918979,-304914.7
-0.4938655,-305629.5
-0.4938655,-306267.2
-0.4938655,-306813.2
-0.4958331,-307421
-0.4958331,-307988.8
-0.4978007,-308146.7
-0.4978007,-307637.4
-0.4997683,-307623.5
-0.5017359,-307520.6
-0.5017359,-306971.4
-0.5017359,-306368.7
-0.5037035,-305905.7
-0.5037035,-305395.3
-0.5037035,-304749
-0.5037035,-304187
-0.5056711,-303813.8
-0.5056711,-303243.7
-0.5076387,-303073.6
-0.5076387,-303669.5
-0.5076387,-304213
-0.5096063,-304465.4
-0.5115739,-304183.1
-0.5115739,-303630.9
-0.5135415,-303756.3
-0.515509,-304328.6
-0.515509,-304896.6
-0.5174766,-305458.2
-0.5194442,-305366.4
-0.5214118,-305558.3
-0.5214118,-306274.1
-0.5214118,-306858.2
-0.5233794,-307218
-0.5233794,-307767.6
-0.525347,-307950.4
-0.525347,-308567.3
-0.525347,-309131.1
-0.525347,-308491
-0.5273145,-308172.4
-0.5273145,-307453.3
-0.5273145,-306694.9
-0.5273145,-305999.9
-0.5273145,-305464.2
-0.5292822,-305082.9
-0.5292822,-305713.3
-0.5292822,-306297.4
-0.5312498,-306436.5
-0.5312498,-307013.9
-0.5312498,-307527.2
-0.5332174,-308018.9
-0.5332174,-308677.8
-0.535185,-309073.6
-0.535185,-308546.4
-0.535185,-307723.9
-0.535185,-306956.4
-0.535185,-306149.7
-0.5371525,-305413.6
-0.5371525,-304786.9
-0.5371525,-304256.1
-0.5371525,-303623.7
-0.5371525,-303046.8
-0.5391201,-302832.9
-0.5391201,-302241.5
-0.5391201,-301688.1
-0.5410877,-301663
-0.5410877,-302341.4
-0.5410877,-303036.9
-0.5410877,-303562
-0.5410877,-304095.6
-0.5430554,-304338.3
-0.5430554,-304922.8
-0.5430554,-305442.1
-0.5450229,-305538.9
-0.5469905,-305164.9
-0.5489581,-304903.8
-0.5489581,-305547.4
-0.5489581,-306201.8
-0.5489581,-306876.7
-0.5509257,-307218.5
-0.5528933,-307391.5
-0.5548609,-306815.4
-0.5568284,-306587.2
-0.5568284,-307203.3
-0.5568284,-307713.2
-0.5568284,-308462.8
-0.5587961,-309210.6
-0.5587961,-309835.2
-0.5607637,-310311.5
-0.5627312,-309655.8
-0.5627312,-308870.7
-0.5627312,-308256.4
-0.5627312,-307593.7
-0.5627312,-306979.5
-0.5646988,-306511.4
-0.5646988,-305995.7
-0.5666664,-305947.4
-0.568634,-305530.6
-0.568634,-304868.7
-0.5706016,-304607.8
-0.5706016,-303991.9
-0.5706016,-303307.5
-0.5706016,-302619.3
-0.5706016,-302030.1
-0.5706016,-301379.4
-0.5725692,-301233.9
-0.5745368,-301858.3
-0.5745368,-302371.3
-0.5765043,-302981.3
-0.5765043,-303505.3
-0.5765043,-304109.2
-0.578472,-304218.6
-0.578472,-303633.5
-0.5804396,-303379.7
-0.5824072,-303697.6
-0.5824072,-304362.7
-0.5824072,-305083
-0.5824072,-305648.2
-0.5824072,-306245.9
-0.5843747,-306537.9
-0.5843747,-307103
-0.5843747,-307674.7
-0.5843747,-308360.7
-0.5863424,-308698.5
-0.58831,-308799.2
-0.5902776,-308371
-0.5902776,-309051.4
-0.5902776,-309783.1
-0.5922451,-310049.1
-0.5922451,-310748.8
-0.5922451,-311311.6
-0.5942127,-311071.4
-0.5961803,-311269.8
-0.5981479,-310818.5
-0.5981479,-311462.4
-0.6001155,-311670.8
-0.6001155,-312288.8
-0.6001155,-312883.5
-0.6020831,-313155.9
-0.6040506,-312864.4
-0.6040506,-312311.6
-0.6060182,-312086.8
-0.6060182,-311563.3
-0.6079859,-311359
-0.6079859,-311877.8
-0.6099535,-312488
-0.6099535,-313016
-0.6119211,-312618.3
-0.6138886,-312993.5
-0.6158562,-312607.9
-0.6178238,-313179
-0.6197914,-313157.3
-0.621759,-312842.7
-0.621759,-312273.5
-0.6237266,-312198.4
-0.6237266,-311588.2
-0.6256942,-311187.8
-0.6256942,-310659.4
-0.6276618,-310621.1
-0.6296294,-310413.8
-0.6315969,-310218.2
-0.6335645,-310491
-0.6355321,-311106.9
-0.6355321,-311652.3
-0.6374997,-311831.6
-0.6374997,-312463.2
-0.6394674,-312695.3
-0.6414349,-313064.6
-0.6414349,-313581.1
-0.6434025,-313986.3
-0.6453701,-314226
-0.6473377,-314363.5
-0.6493053,-314234.5
-0.6493053,-314902.8
-0.6493053,-315552.5
-0.6493053,-316122.9
-0.651273,-316270.1
-0.6532405,-315912.9
-0.6532405,-315394.7
-0.655208,-315375.7
-0.6571757,-315347.2
-0.6571757,-316071.9
-0.6571757,-316776.4
-0.6571757,-317290.3
-0.6591433,-317406.5
-0.6591433,-317941.1
-0.6611109,-317936.5
-0.6611109,-317344.9
-0.6630785,-316687.6
-0.6630785,-315996.8
-0.6630785,-315389.5
-0.665046,-315042.8
-0.665046,-315591.3
-0.6670136,-315891.7
-0.6689812,-316273.6
-0.6709488,-316719.8
-0.6729164,-316529.2
-0.6729164,-317103.1
-0.674884,-317470.4
-0.674884,-318022.2
-0.674884,-318659.9
-0.6768516,-318980
-0.6788192,-318844.1
-0.6788192,-319354.7
-0.6807867,-319889.5
-0.6807867,-320446.4
-0.6827543,-320742.7
-0.6827543,-321388
-0.6827543,-322010.8
-0.6847219,-322228.5
-0.6847219,-322750
-0.6866896,-322934.3
-0.6886571,-323031.3
-0.6906247,-323359.5
-0.6906247,-323885.5
-0.6925923,-324133.8
-0.6925923,-324724.9
-0.6925923,-325353
-0.6945599,-325758.1
-0.6945599,-326300.3
-0.6965275,-326237.4
-0.6965275,-325658.5
-0.6984951,-325455.8
-0.6984951,-326046.5
-0.7004626,-326282.2
-0.7004626,-325737.6
-0.7004626,-325017.1
-0.7004626,-324455.9
-0.7024302,-324176.7
-0.7024302,-323464.9
-0.7024302,-322916.2
-0.7024302,-322238.3
-0.7043979,-322031.3
-0.7043979,-321518.3
-0.7043979,-320905
-0.7043979,-320227.1
-0.7043979,-319534.7
-0.7043979,-318855.6
-0.7043979,-318262.4
-0.7063655,-318009.4
-0.7063655,-317424.4
-0.7063655,-316909.5
-0.708333,-316470.2
-0.7103007,-316094.2
-0.7103007,-316610.5
-0.7122682,-316774.8
-0.7142358,-316372.7
-0.7162035,-316578.5
-0.7162035,-316049.8
-0.7181711,-316061.3
-0.7181711,-316628.4
-0.7201386,-316884.1
-0.7201386,-317469.9
-0.7221062,-318113.5
-0.7221062,-318743.8
-0.7221062,-319279.4
-0.7240738,-319671.3
-0.7240738,-320208.4
-0.7260414,-320242.9
-0.7260414,-319578.7
-0.7260414,-319047.6
-0.728009,-319057.3
-0.728009,-319643.8
-0.728009,-320218.3
-0.7299766,-320372.6
-0.7299766,-320928.3
-0.7319442,-321183
-0.7319442,-320658
-0.7339118,-320062.4
-0.7339118,-320665.8
-0.7358793,-321066.5
-0.7358793,-321735.8
-0.7358793,-322389.4
-0.7358793,-322992.9
-0.7378469,-323221.4
-0.7398145,-322613.6
-0.7398145,-321923.6
-0.7398145,-321372.1
-0.7417821,-320802.1
-0.7417821,-321332.1
-0.7437497,-321661.8
-0.7437497,-322287.9
-0.7437497,-322883.1
-0.7457173,-323100.2
-0.7457173,-323685.4
-0.7457173,-324285.1
-0.7457173,-324803.5
-0.7476848,-324962
-0.7496524,-324394.2
-0.7516201,-324426.5
-0.7516201,-324984.5
-0.7535877,-325511.3
-0.7555553,-325246
-0.7575228,-325253.5
-0.7575228,-324730.7
-0.7594904,-324265.8
-0.7594904,-324799.3
-0.7594904,-325354.9
-0.761458,-325673.2
-0.7634256,-325914.2
-0.7653932,-326392.8
-0.7653932,-325811
-0.7673607,-325195.6
-0.7673607,-324561.2
-0.7693284,-324500
-0.7693284,-325033.7
-0.7693284,-325603.2
-0.771296,-325755
-0.771296,-326347.9
-0.7732635,-326575.4
-0.7732635,-326045.9
-0.7752311,-325990.1
-0.7771988,-326468.4
-0.7771988,-327016
-0.7771988,-327544.8
-0.7791663,-327704.8
-0.7791663,-328316.1
-0.7791663,-328830.8
-0.7811339,-329295.2
-0.7831016,-328731.2
-0.7850691,-329104.2
-0.7850691,-329783
-0.7850691,-330336.1
-0.7870367,-330831.9
-0.7890043,-331438.4
-0.7909719,-331510.1
-0.7929395,-331005.6
-0.7929395,-331556
-0.7949071,-331622.1
-0.7949071,-332193.5
-0.7968747,-332505.4
-0.7968747,-331829.8
-0.7988423,-331205.3
-0.8008099,-330981.3
-0.8008099,-331615.3
-0.8008099,-332253.9
-0.8027774,-332431.2
-0.8027774,-333025.4
-0.8027774,-333697.4
-0.8027774,-334361.8
-0.804745,-334776.8
-0.804745,-335339.3
-0.804745,-335862.5
-0.8067126,-335916.1
-0.8086802,-335383.7
-0.8086802,-334861.4
-0.8086802,-334350.7
-0.8106478,-334182.1
-0.8106478,-334760.9
-0.8126154,-334837.6
-0.8126154,-335391
-0.8145829,-335697.9
-0.8145829,-335128.2
-0.8145829,-334449.5
-0.8165506,-333989.2
-0.8165506,-333458.3
-0.8165506,-332939.3
-0.8185182,-332629.1
-0.8204858,-332303.9
-0.8204858,-331755.2
-0.8224534,-331649.4
-0.8224534,-331060.6
-0.8244209,-330462
-0.8244209,-329918.8
-0.8244209,-329189
-0.8244209,-328615.7
-0.8244209,-328097
-0.8263885,-327520.6
-0.8283561,-327527.4
-0.8303237,-327511.2
-0.8303237,-326986.8
-0.8303237,-326331.8
-0.8303237,-325615.7
-0.8303237,-324703.9
-0.8303237,-323730.7
-0.8322913,-323238
-0.8322913,-322261.1
-0.8322913,-321273.6
-0.8322913,-320755.4
-0.8322913,-320216.9
-0.8322913,-319655.4
-0.8322913,-319067.4
-0.8322913,-318452.1
-0.8322913,-317809.8
-0.8322913,-317140.2
-0.8322913,-316443.4
-0.834259,-315721.8
,
,
,
,
,
,
,
,
,
,
,
,
,
,
,
,
,
,
Strain [Exten.] %,Stress MPa
0,-204546.5
0,-205192.3
0,-205710.3
0,-206228.3
0,-205613
0,-204922.9
0,-204213.8
0,-203687.3
0,-204266.7
0,-204858.9
0,-205435.9
0,-206030
-0.001967592,-206857.9
-0.001967592,-207652.8
-0.001967592,-208605.3
-0.001967592,-209128.2
-0.001967592,-209673.1
-0.001967592,-210219.7
-0.001967592,-210746.4
-0.001967592,-211682.2
-0.001967592,-212413
-0.001967592,-212927.6
-0.003935183,-213156.7
-0.003935183,-213744.5
-0.005902776,-214215.3
-0.005902776,-214985
-0.005902776,-215570.9
-0.005902776,-216196.7
-0.005902776,-216889
-0.005902776,-217596.3
-0.005902776,-218258.7
-0.005902776,-218892.9
-0.005902776,-219467.9
-0.007870367,-219700.2
-0.007870367,-220261.2
-0.007870367,-220797.7
-0.009837959,-221156.6
-0.009837959,-221707.5
-0.009837959,-222300.3
-0.009837959,-222866.9
-0.01180555,-223597
-0.01180555,-224257
-0.01180555,-225002.5
-0.01180555,-225751.5
-0.01180555,-226417.6
-0.01180555,-227117.1
-0.01180555,-227642.8
-0.01180555,-228164.5
-0.01180555,-228766.6
-0.01377314,-229054.5
-0.01377314,-228501.4
-0.01377314,-227978.7
-0.01377314,-227322
-0.01377314,-226679.1
-0.01377314,-226127.5
-0.01377314,-226793.2
-0.01377314,-227411.9
-0.01377314,-228091.9
-0.01377314,-228760.9
-0.01377314,-229392
-0.01377314,-229959.9
-0.01574073,-230623.5
-0.01574073,-231255.3
-0.01574073,-231959.9
-0.01770833,-232676.5
-0.01770833,-233322
-0.01770833,-233955.8
-0.01967592,-234367.7
-0.01967592,-234929.9
-0.01967592,-235517.2
-0.02164351,-235943
-0.02164351,-236690.7
-0.02164351,-237289.1
-0.02164351,-238002.9
-0.0236111,-238393
-0.0236111,-239220.1
-0.0236111,-240096.2
-0.0236111,-240967.1
-0.02557869,-241376.1
-0.02557869,-242126.2
-0.02557869,-242827.3
-0.02557869,-243486.2
-0.02754628,-244070.2
-0.02754628,-244613.8
-0.02754628,-245175.8
-0.02754628,-245700.3
-0.02951388,-246181.5
-0.02951388,-246752.4
-0.03148147,-247410.7
-0.03148147,-247986.3
-0.03344906,-248569.2
-0.03344906,-249323.4
-0.03344906,-249955.2
-0.03344906,-250555.9
-0.03541665,-250829.4
-0.03541665,-251350
-0.03541665,-252089.9
-0.03738425,-252738
-0.03738425,-253350.2
-0.03935184,-253593.3
-0.03935184,-254259.2
-0.03935184,-254974
-0.04131943,-255220.1
-0.04131943,-255732.3
-0.04131943,-256304.6
-0.04131943,-256901.2
-0.04328702,-257419.4
-0.04328702,-257964.9
-0.04525461,-258583.6
-0.04525461,-259106.6
-0.04525461,-259696.3
-0.0472222,-259884.3
-0.0472222,-260482.9
-0.0472222,-261084.9
-0.04918979,-261520.1
-0.04918979,-262229.8
-0.04918979,-262747.6
-0.04918979,-263283.5
-0.05115739,-263554.1
-0.05115739,-264101
-0.05115739,-264668.7
-0.05115739,-265268.1
-0.05115739,-265861.5
-0.05312498,-266136.7
-0.05312498,-266841.4
-0.05312498,-267458.8
-0.05509257,-267824.3
-0.05509257,-268370.3
-0.05509257,-268991.6
-0.05706016,-269230.6
-0.05706016,-269780.9
-0.05902775,-270407.9
-0.05902775,-271007.4
-0.05902775,-271613
-0.06099534,-272212.6
-0.06099534,-272785.8
-0.06099534,-273385.7
-0.06296293,-273829.6
-0.06296293,-274460.3
-0.06296293,-275013.3
-0.06296293,-275652.5
-0.06493053,-276104.7
-0.06493053,-276792
-0.06493053,-277370.7
-0.06689812,-277712.9
-0.06689812,-278268.5
-0.06886571,-278782.4
-0.06886571,-279324
-0.06886571,-279932.8
-0.0708333,-280094.1
-0.0708333,-280659.3
-0.0708333,-281319.2
-0.0708333,-282008.5
-0.0728009,-282460.9
-0.0728009,-283127.6
-0.0728009,-283677.1
-0.07476849,-284210.1
-0.07476849,-284769.4
-0.07476849,-285285.6
-0.07673608,-285418.3
-0.07673608,-286030.3
-0.07673608,-286691.5
-0.07870367,-286975.8
-0.07870367,-287591.7
-0.07870367,-288141.8
-0.08067126,-288838.1
-0.08067126,-289362
-0.08067126,-289893
-0.08067126,-290431.1
-0.08067126,-290964.7
-0.08263886,-291228.1
-0.08263886,-291742.3
-0.08263886,-292429.2
-0.08263886,-292973.3
-0.08460645,-293129.8
-0.08657404,-293037.1
-0.08657404,-293697.8
-0.08657404,-294271.3
-0.08854163,-294904.8
-0.08854163,-295423.9
-0.08854163,-296098.1
-0.09050922,-296879.9
-0.09050922,-297455.1
-0.09050922,-297989.5
-0.09050922,-298732.9
-0.09050922,-299292.6
-0.09247681,-299585.6
-0.09247681,-300158.8
-0.09444441,-300418.2
-0.09444441,-300964.7
-0.09444441,-301549.1
-0.096412,-301780.1
-0.096412,-302302.8
-0.096412,-302878.2
-0.096412,-303421
-0.09837959,-303743.8
-0.09837959,-304425.6
-0.09837959,-305043.2
-0.09837959,-305688.6
-0.1003472,-306124.4
-0.1003472,-306813.8
-0.1003472,-307421.9
-0.1023148,-307833.3
-0.1023148,-308472.8
-0.1042824,-308787.9
-0.1042824,-309326.5
-0.1042824,-309906.9
-0.1042824,-310443.3
-0.10625,-310889.3
-0.10625,-311407.7
-0.10625,-312041
-0.1082175,-312179.4
-0.1082175,-312781.3
-0.1082175,-313400.4
-0.1101851,-313882.7
-0.1101851,-314434.4
-0.1101851,-315038.1
-0.1121527,-315400.7
-0.1121527,-315923.1
-0.1121527,-316483.5
-0.1141203,-316699.6
-0.1141203,-317217.3
-0.1141203,-317862.4
-0.1160879,-318577.1
-0.1160879,-319311.3
-0.1160879,-320013.5
-0.1160879,-320528.5
-0.1180555,-320643.7
-0.1180555,-321248.8
-0.1200231,-321520.2
-0.1200231,-322117.1
-0.1219907,-322615.2
-0.1219907,-323217.4
-0.1219907,-323871.4
-0.1219907,-324422.4
-0.1239583,-324727.7
-0.1239583,-325388.9
-0.1239583,-326062.5
-0.1239583,-326652.7
-0.1239583,-327341.1
-0.1259259,-327631.7
-0.1259259,-328223
-0.1278935,-328555.3
-0.1278935,-329136
-0.1278935,-329678.9
-0.1298611,-329526.7
-0.1298611,-330209.6
-0.1318286,-330419.2
-0.1318286,-331124
-0.1318286,-331770.6
-0.1318286,-332287.1
-0.1337962,-332763
-0.1337962,-333434
-0.1337962,-334066.5
-0.1357638,-334488.8
-0.1357638,-335042.4
-0.1377314,-335376.1
-0.1377314,-336039.2
-0.1377314,-336678.3
-0.139699,-336903.2
-0.139699,-337598.4
-0.139699,-338240.4
-0.1416666,-338805.1
-0.1416666,-339325.5
-0.1416666,-339856
-0.1436342,-340367.5
-0.1436342,-340903.8
-0.1436342,-341488.5
-0.1436342,-342124.3
-0.1456018,-342290.5
-0.1456018,-342803.8
-0.1475694,-343402
-0.1475694,-343990.3
-0.1475694,-344592.4
-0.149537,-345126
-0.149537,-345686.6
-0.149537,-346286.8
-0.149537,-346841.7
-0.1515046,-347384.5
-0.1515046,-348016.4
-0.1534722,-348469.9
-0.1534722,-349103.2
-0.1554397,-349230.7
-0.1554397,-349850.1
-0.1554397,-350431
-0.1554397,-350967.2
-0.1574073,-351112
-0.1574073,-351716.6
-0.1574073,-352348
-0.1593749,-352687.3
-0.1593749,-353331.4
-0.1593749,-353902.6
-0.1613425,-354379.3
-0.1613425,-355009.4
-0.1613425,-355682.4
-0.1633101,-355877.7
-0.1633101,-356530.6
-0.1633101,-357154.7
-0.1633101,-357678.3
-0.1652777,-357819.2
-0.1652777,-358358.5
-0.1652777,-358945.1
-0.1672453,-359400.1
-0.1672453,-360009.4
-0.1672453,-360696.9
-0.1672453,-361345.7
-0.1692129,-361792.5
-0.1692129,-362500.3
-0.1692129,-363064.1
-0.1711805,-363436.1
-0.1711805,-364055
-0.1731481,-364549.9
-0.1731481,-365214.9
-0.1731481,-365764.1
-0.1751157,-366215.5
-0.1751157,-366774.2
-0.1751157,-367313.1
-0.1751157,-367895.9
-0.1770833,-368107.2
-0.1770833,-368726.4
-0.1770833,-369273.3
-0.1790509,-369829.4
-0.1790509,-370368.6
-0.1790509,-370940.2
-0.1810184,-371179.9
-0.1810184,-371736.3
-0.1829861,-372305
-0.1829861,-372835.8
-0.1829861,-373486.4
-0.1829861,-374045
-0.1849536,-374334.3
-0.1849536,-374892.9
-0.1849536,-375500.7
-0.1869212,-375992.4
-0.1869212,-376557.9
-0.1869212,-377161
-0.1869212,-377684.1
-0.1888888,-377759.8
-0.1908564,-377591.1
-0.1908564,-378112.8
-0.1908564,-378780.6
-0.1908564,-379498.9
-0.1908564,-380212.3
-0.1908564,-380866.7
-0.192824,-381433.2
-0.192824,-382148.7
-0.192824,-382787.6
-0.192824,-383332.6
-0.1947916,-383470.4
-0.1947916,-384059.8
-0.1967592,-384623.1
-0.1967592,-385260.6
-0.1987268,-385739.2
-0.1987268,-386364.5
-0.1987268,-386900.8
-0.2006944,-387140.8
-0.2006944,-387690.2
-0.2006944,-388218.5
-0.2006944,-388772.1
-0.202662,-389254.2
-0.202662,-389808.3
-0.202662,-390411.8
-0.2046295,-390969.4
-0.2046295,-391487
-0.2046295,-392035.8
-0.2065971,-392571.8
-0.2065971,-393161.5
-0.2065971,-393802.5
-0.2085647,-394268.1
-0.2085647,-394821.7
-0.2085647,-395452.5
-0.2085647,-395992.4
-0.2105323,-396476.4
-0.2105323,-396995.6
-0.2105323,-397587
-0.2105323,-398213.9
-0.2124999,-398344.8
-0.2124999,-398870
-0.2144675,-399208.5
-0.2144675,-399803.5
-0.2164351,-400472.9
-0.2164351,-401132
-0.2164351,-401652.2
-0.2164351,-402180.3
-0.2164351,-402862
-0.2184027,-403176.9
-0.2184027,-403776.8
-0.2184027,-404412.1
-0.2203703,-404582.5
-0.2203703,-405168.1
-0.2203703,-405737.3
-0.2223379,-405973.6
-0.2243055,-405881.6
-0.2243055,-406595.5
-0.2243055,-407282.1
-0.2243055,-407946.8
-0.2262731,-408565.9
-0.2262731,-409219.9
-0.2262731,-409882.6
-0.2262731,-410443.6
-0.2282407,-411011.9
-0.2282407,-411643.9
-0.2282407,-412174.4
-0.2302082,-412463.7
-0.2302082,-413017.7
-0.2302082,-413626.6
-0.2321758,-413980.4
-0.2321758,-414553.5
-0.2321758,-415231.5
-0.2321758,-415910.9
-0.2341434,-416135
-0.2341434,-416857
-0.2341434,-417398.1
-0.2341434,-417916.9
-0.2341434,-418492.1
-0.236111,-418696
-0.2380786,-418899.9
-0.2380786,-419513.7
-0.2400462,-419927.5
-0.2400462,-420499.5
-0.2400462,-421056
-0.2420138,-421758.6
-0.2420138,-422267.9
-0.2420138,-422809.3
-0.2420138,-423379.2
-0.2420138,-424073.1
-0.2439814,-424406.9
-0.245949,-424947.8
-0.245949,-425629.6
-0.245949,-426318.4
-0.245949,-426838.2
-0.2479166,-427096.3
-0.2479166,-427668.7
-0.2479166,-428312.3
-0.2498841,-428524.8
-0.2498841,-429046.2
-0.2498841,-429675
-0.2498841,-430345.1
-0.2498841,-430985.4
-0.2498841,-431517.5
-0.2518517,-431734.6
-0.2518517,-432323.9
-0.2538193,-432458.6
-0.2538193,-432990.9
-0.2557869,-433327.1
-0.2557869,-433896.3
-0.2557869,-434406.6
-0.2577545,-434751.6
-0.2577545,-435484.9
-0.2577545,-436021.4
-0.2577545,-436732.4
-0.2577545,-437366.9
-0.2597221,-437740.2
-0.2597221,-438296.1
-0.2597221,-438908.1
-0.2616897,-439247.2
-0.2616897,-439779.7
-0.2636573,-439910.8
-0.2636573,-440434
-0.2636573,-441012.6
-0.2636573,-441626.7
-0.2656249,-442024.6
-0.2656249,-442650.9
-0.2656249,-443206.2
-0.2675925,-443663.1
-0.2675925,-444204.1
-0.2675925,-444817.7
-0.2695601,-445261.5
-0.2695601,-445797
-0.2715277,-446029
-0.2715277,-446655.8
-0.2715277,-447281.1
-0.2715277,-447854.6
-0.2734953,-448229.2
-0.2734953,-448796.4
-0.2734953,-449460.4
-0.2754628,-450048.4
-0.2754628,-450592.6
-0.2754628,-451123.9
-0.2774304,-451511.1
-0.2774304,-452063
-0.2774304,-452587.8
-0.2793981,-452911.2
-0.2793981,-453431.4
-0.2793981,-454014.4
-0.2813656,-454433.3
-0.2813656,-455036.5
-0.2813656,-455696.1
-0.2813656,-456227.5
-0.2833332,-456720.5
-0.2833332,-457269.9
-0.2833332,-457942.3
-0.2853008,-458129
-0.2853008,-458680.6
-0.2853008,-459220
-0.2853008,-459801.9
-0.2872684,-459967.6
-0.2872684,-460562.3
-0.2872684,-461110.3
-0.289236,-461588.5
-0.289236,-462102.1
-0.289236,-462744.7
-0.2912036,-463180.9
-0.2912036,-463735.1
-0.2912036,-464334
-0.2931712,-464528.1
-0.2931712,-465118.9
-0.2931712,-465634.5
-0.2951388,-465930.5
-0.2951388,-466454.1
-0.2971064,-466898.9
-0.2971064,-467560.5
-0.2971064,-468141.1
-0.2971064,-468737.4
-0.299074,-468912.8
-0.299074,-469505.6
-0.299074,-470207.4
-0.299074,-470773.8
-0.3010415,-470953.1
-0.3010415,-471533.7
-0.3010415,-472190.8
-0.3010415,-472886.3
-0.3030091,-473105.4
-0.3030091,-473697.9
-0.3030091,-474290.9
-0.3049767,-474814.1
-0.3049767,-475447.5
-0.3069443,-475859.6
-0.3069443,-476498.6
-0.3069443,-477176.2
-0.3069443,-477796.3
-0.3089119,-478068.8
-0.3089119,-478626.5
-0.3108795,-478911.3
-0.3108795,-479592.2
-0.3108795,-480323.4
-0.3108795,-481014.7
-0.3128471,-481390.8
-0.3128471,-481900.5
-0.3148147,-481979.2
-0.3148147,-482661.7
-0.3148147,-483376.4
-0.3167823,-484152.2
-0.3167823,-484728.3
-0.3167823,-485272.3
-0.3167823,-485947.6
-0.3187499,-486461.7
-0.3187499,-487021.7
-0.3207175,-487436.3
-0.3207175,-487996.3
-0.322685,-488435.7
-0.322685,-489017.1
-0.322685,-489569.8
-0.3246527,-490208.1
-0.3246527,-490878.8
-0.3246527,-491438.4
-0.3246527,-491988.3
-0.3266203,-492587.8
-0.3266203,-493137.2
-0.3266203,-493809.3
-0.3266203,-494381.3
-0.3285878,-494869.3
-0.3285878,-495402.4
-0.3285878,-495975.8
-0.3305554,-496386.9
-0.3305554,-496951.1
-0.332523,-497154.4
-0.332523,-497766.4
-0.332523,-498384.9
-0.3344906,-498723.2
-0.3344906,-499380.8
-0.3344906,-499961.3
-0.3364582,-500302.4
-0.3364582,-500906.1
-0.3364582,-501539.2
-0.3384258,-501685
-0.3384258,-502205.8
-0.3384258,-502813.2
-0.3384258,-503349.6
-0.3403934,-503628.4
-0.3403934,-504170.9
-0.3403934,-504809.8
-0.342361,-505345.9
-0.342361,-505988.9
-0.342361,-506694.4
-0.342361,-507274.4
-0.3443286,-507693.9
-0.3443286,-508279.1
-0.3462962,-508750.9
-0.3462962,-509410.9
-0.3462962,-510047.6
-0.3482637,-510402.7
-0.3482637,-510978
-0.3482637,-511552.4
-0.3502313,-511697.9
-0.3502313,-512358.3
-0.3502313,-512999.8
-0.3521989,-513440.8
-0.3521989,-513975.9
-0.3521989,-514507.4
-0.3521989,-515047.9
-0.3541665,-515179.3
-0.3541665,-515767.9
-0.3541665,-516305
-0.3561341,-516906.7
-0.3561341,-517555.4
-0.3561341,-518106.6
-0.3561341,-518696.3
-0.3581017,-518805.6
-0.3581017,-519324.4
-0.3581017,-519844.6
-0.3600693,-520439.2
-0.3600693,-521022.3
-0.3620369,-521405
-0.3620369,-521995.5
-0.3640045,-522644.2
-0.3640045,-523183.5
-0.3640045,-523753.6
-0.3640045,-524372.8
-0.3659721,-524991
-0.3659721,-525639.5
-0.3659721,-526191.8
-0.3659721,-526783.7
-0.3679397,-527094.1
-0.3679397,-527656.2
-0.3679397,-528277.3
-0.3699073,-528455.4
-0.3699073,-529014.9
-0.3718749,-529516.9
-0.3718749,-530166.1
-0.3718749,-530772.4
-0.3718749,-531416.9
-0.3738424,-531629.4
-0.3738424,-532260.3
-0.3738424,-532831.3
-0.3738424,-533357.5
-0.37581,-533635.3
-0.37581,-534184.8
-0.37581,-534711.2
-0.3777776,-535022.9
-0.3777776,-535586.3
-0.3777776,-536152.9
-0.3797452,-536404.4
-0.3797452,-536944.3
-0.3797452,-537463.1
-0.3817128,-537846.8
-0.3817128,-538417.1
-0.3817128,-539022.1
-0.3817128,-539596.3
-0.3836804,-539727.8
-0.3836804,-540296.4
-0.3836804,-540815.1
-0.385648,-541124.5
-0.385648,-541728.6
-0.385648,-542249.5
-0.3876156,-542757.1
-0.3876156,-543422.2
-0.3876156,-543981.3
-0.3876156,-544548.6
-0.3895831,-544720.2
-0.3895831,-545353.8
-0.3895831,-545889.8
-0.3895831,-546438.1
-0.3915508,-546623.7
-0.3915508,-547254.6
-0.3915508,-547792.9
-0.3935184,-548130.1
-0.3935184,-548746.8
-0.3954859,-549446.1
-0.3954859,-549981.6
-0.3954859,-550515.8
-0.3974535,-551075.6
-0.3974535,-551685.5
-0.3994211,-551992.4
-0.3994211,-552637.8
-0.3994211,-553402.1
-0.3994211,-553933.4
-0.4013887,-554677.3
-0.4013887,-555309
-0.4013887,-555836.4
-0.4033563,-556024.6
-0.4033563,-556589.3
-0.4053239,-556947.3
-0.4053239,-557736.9
-0.4053239,-558276.9
-0.4053239,-558890.1
-0.4072915,-559237.1
-0.4072915,-559787.1
-0.4072915,-560310.6
-0.4092591,-560419.3
-0.4092591,-561059.6
-0.4092591,-561657.9
-0.4092591,-562239.4
-0.4112267,-562433
-0.4112267,-562994.6
-0.4112267,-563627.4
-0.4131942,-564146.8
-0.4131942,-564757.4
-0.4131942,-565361.1
-0.4151618,-565922.9
-0.4151618,-566492.6
-0.4151618,-567007.1
-0.4151618,-567655.7
-0.4171295,-567790.1
-0.4171295,-568311
-0.4171295,-568861.4
-0.419097,-568984.8
-0.419097,-569547.9
-0.419097,-570155.6
-0.4210646,-570612.7
-0.4210646,-571151.3
-0.4230323,-571513.5
-0.4230323,-572103.3
-0.4230323,-572703.9
-0.4249998,-573020.6
-0.4249998,-573575.9
-0.4249998,-574135.6
-0.4249998,-574715.1
-0.4269674,-575257.3
-0.4269674,-575946.9
-0.4269674,-576585.9
-0.4269674,-577164.1
-0.428935,-577283.3
-0.428935,-577838.3
-0.4309026,-578248.7
-0.4309026,-578860.9
-0.4309026,-579402.8
-0.4309026,-579961.7
-0.4328702,-580105.9
-0.4328702,-580788.7
-0.4328702,-581352.7
-0.4328702,-582090.5
-0.4348378,-582345.9
-0.4348378,-583097.3
-0.4348378,-583681.5
-0.4368054,-584219.4
-0.4368054,-584737.2
-0.4368054,-585304.6
-0.4387729,-585581.3
-0.4387729,-586100.9
-0.4407406,-586460.4
-0.4407406,-587122.9
-0.4407406,-587733.9
-0.4427081,-588357.3
-0.4427081,-588917.7
-0.4427081,-589430.6
-0.4427081,-590003.9
-0.4446757,-590277.8
-0.4446757,-590908.4
-0.4446757,-591545.8
-0.4466433,-591888.3
-0.4486109,-592265.1
-0.4486109,-592869.1
-0.4486109,-593592.8
-0.4486109,-594150.1
-0.4505785,-594693.3
-0.4505785,-595408.3
-0.4505785,-596035.9
-0.4505785,-596620.1
-0.4525461,-597011.8
-0.4525461,-597553.3
-0.4525461,-598123.1
-0.4525461,-598640.7
-0.4545137,-599160.6
-0.4545137,-599713.5
-0.4564813,-600206.6
-0.4564813,-600820.3
-0.4584489,-601313.4
-0.4584489,-601839.1
-0.4584489,-602497.1
-0.4604165,-602886.3
-0.4604165,-603426.9
-0.4604165,-604030.6
-0.4623841,-604456.8
-0.4623841,-605060.2
-0.4623841,-605720.9
-0.4643517,-606288.8
-0.4643517,-606814.3
-0.4643517,-607358.5
-0.4663192,-607534.3
-0.4663192,-608159.6
-0.4663192,-608674.9
-0.4682868,-609117.6
-0.4682868,-609861.3
-0.4682868,-610561.9
-0.4682868,-611105.4
-0.4702544,-611366.2
-0.4702544,-611887.4
-0.4702544,-612450.3
-0.4702544,-612984.3
-0.472222,-613161
-0.472222,-613743.4
-0.472222,-614278.3
-0.4741896,-614622.3
-0.4741896,-615224.1
-0.4741896,-615789.2
-0.4761572,-616417.6
-0.4761572,-617058.6
-0.4761572,-617657.8
-0.4781248,-617990.3
-0.4781248,-618643.2
-0.4781248,-619152.6
-0.4800924,-619654.6
-0.4800924,-620244.6
-0.4800924,-620825.8
-0.48206,-620939.3
-0.48206,-621461.3
-0.48206,-622122.9
-0.48206,-622699.8
-0.4840276,-623057.8
-0.4840276,-623684.8
-0.4840276,-624240.1
-0.4859952,-624403.1
-0.4859952,-625000.8
-0.4859952,-625537.5
-0.4859952,-626113.2
-0.4879628,-626218.9
-0.4879628,-626753.9
-0.4879628,-627325.4
-0.4899304,-627425.4
-0.4899304,-627936.1
-0.4899304,-628627.3
-0.4899304,-629198.9
-0.4899304,-629721.9
-0.4918979,-629955.6
-0.4918979,-630587.1
-0.4918979,-631167.4
-0.4918979,-631747.2
-0.4938655,-632090.9
-0.4938655,-632686.6
-0.4958331,-633191.1
-0.4958331,-633831.8
-0.4958331,-634379.3
-0.4978007,-634960.1
-0.4978007,-635513.4
-0.4997683,-635791.9
-0.4997683,-636350.5
-0.5017359,-636946.1
-0.5017359,-637601
-0.5017359,-638113.1
-0.5037035,-638218.7
-0.5037035,-638839.3
-0.5037035,-639445.5
-0.5037035,-640119.8
-0.5056711,-640587.4
-0.5056711,-641254.4
-0.5056711,-641787.4
-0.5056711,-642383.3
-0.5076387,-642467.6
-0.5076387,-643004.6
-0.5096063,-643658.3
-0.5096063,-644339.7
-0.5096063,-644987.6
-0.5096063,-645617.6
-0.5115739,-645961.6
-0.5115739,-646584.5
-0.5115739,-647156.2
-0.5135415,-647634.1
-0.5135415,-648167.4
-0.5135415,-648677
-0.5135415,-649234.5
-0.515509,-649392.1
-0.515509,-649910.4
-0.5174766,-650201.3
-0.5174766,-650779.4
-0.5174766,-651359.7
-0.5194442,-652046.9
-0.5194442,-652777.1
-0.5194442,-653320.8
-0.5214118,-653568.5
-0.5214118,-654183.6
-0.5233794,-654344.8
-0.5233794,-654912.4
-0.5233794,-655593.2
-0.5233794,-656220
-0.525347,-656589.6
-0.525347,-657254.8
-0.525347,-657955.9
-0.525347,-658570.2
-0.5273145,-659078.1
-0.5273145,-659686.8
-0.5273145,-660246.4
-0.5292822,-660336.1
-0.5292822,-660953
-0.5292822,-661594.1
-0.5312498,-662236.1
-0.5312498,-662791.8
-0.5332174,-663392.7
-0.5332174,-663999.7
-0.5332174,-664717.6
-0.5332174,-665445.1
-0.535185,-665865.4
-0.535185,-666443.1
-0.5371525,-666760.4
-0.5371525,-667278.8
-0.5371525,-667859.3
-0.5391201,-667964.9
-0.5410877,-668320.8
-0.5410877,-668943.9
-0.5410877,-669460.6
-0.5410877,-670024.7
-0.5410877,-670604.7
-0.5430554,-670889.8
-0.5430554,-671406.6
-0.5430554,-672076
-0.5430554,-672668.4
-0.5450229,-673144.2
-0.5450229,-673687.7
-0.5450229,-674227.5
-0.5469905,-674430.1
-0.5469905,-675043.1
-0.5469905,-675651.1
-0.5489581,-675968.5
-0.5489581,-676509.9
-0.5489581,-677043.1
-0.5489581,-677578.9
-0.5489581,-678157.8
-0.5509257,-678271.4
-0.5509257,-678895.8
-0.5509257,-679409.8
-0.5509257,-679993.5
-0.5528933,-680272.2
-0.5548609,-680598.3
-0.5548609,-681196.2
-0.5548609,-681817.1
-0.5548609,-682339.8
-0.5568284,-682488.8
-0.5568284,-683153.3
-0.5568284,-683808.3
-0.5568284,-684442.2
-0.5587961,-685007.9
-0.5587961,-685534.4
-0.5607637,-686041.3
-0.5607637,-686554.9
-0.5607637,-687186.3
-0.5627312,-687755.9
-0.5627312,-688268.8
-0.5627312,-688850
-0.5646988,-688987.3
-0.5646988,-689510.4
-0.5646988,-690089.3
-0.5666664,-690608.6
-0.5666664,-691151.2
-0.568634,-691525.5
-0.568634,-692220.8
-0.568634,-692947.6
-0.568634,-693558.3
-0.5706016,-693910.9
-0.5706016,-694501.4
-0.5706016,-695069.7
-0.5725692,-695684.1
-0.5725692,-696229.3
-0.5725692,-696826.4
-0.5745368,-697153.7
-0.5745368,-697743.4
-0.5745368,-698269.8
-0.5765043,-698778.3
-0.5765043,-699426.1
-0.5765043,-699967.8
-0.578472,-700051.1
-0.578472,-700653.5
-0.578472,-701300.3
-0.5804396,-701750.6
-0.5804396,-702347.3
-0.5804396,-702918.3
-0.5824072,-703177.3
-0.5824072,-703688.4
-0.5824072,-704242.5
-0.5824072,-704813.8
-0.5843747,-705328.3
-0.5843747,-705877.4
-0.5843747,-706543.6
-0.5843747,-707195.7
-0.5863424,-707554.8
-0.5863424,-708138
-0.58831,-708635.1
-0.58831,-709166.4
-0.58831,-709740.6
-0.5902776,-710169.1
-0.5902776,-710790.3
-0.5902776,-711343.8
-0.5922451,-711772.4
-0.5922451,-712316
-0.5922451,-712976.7
-0.5942127,-713155.3
-0.5942127,-713714.3
-0.5942127,-714301.9
-0.5942127,-714890.4
-0.5961803,-714991.5
-0.5981479,-715470.9
-0.5981479,-716134.6
-0.5981479,-716775.4
-0.5981479,-717412.4
-0.6001155,-717527.1
-0.6001155,-718059.1
-0.6001155,-718671.1
-0.6020831,-719218.5
-0.6020831,-719942.7
-0.6020831,-720459.5
-0.6020831,-721099.8
-0.6040506,-721456.1
-0.6040506,-721970.8
-0.6060182,-722325.2
-0.6060182,-722978.9
-0.6060182,-723585.3
-0.6060182,-724196.8
-0.6079859,-724601.6
-0.6079859,-725209.3
-0.6079859,-725774.3
-0.6099535,-726083.1
-0.6099535,-726686.4
-0.6099535,-727264.1
-0.6119211,-727419.3
-0.6119211,-727942.8
-0.6119211,-728566.7
-0.6138886,-729057.3
-0.6138886,-729583.4
-0.6138886,-730155.6
-0.6158562,-730318.4
-0.6158562,-730854
-0.6178238,-731510.9
-0.6178238,-732101.1
-0.6178238,-732750.9
-0.6178238,-733390.3
-0.6197914,-733716.9
-0.6197914,-734343.8
-0.6197914,-734927
-0.621759,-735087.8
-0.621759,-735621
-0.621759,-736312.8
-0.621759,-736931.8
-0.6237266,-737128.6
-0.6237266,-737696.8
-0.6256942,-737908.9
-0.6256942,-738444.2
-0.6256942,-739049.7
-0.6256942,-739643.5
-0.6276618,-739838.6
-0.6276618,-740460.7
-0.6276618,-741172.3
-0.6276618,-741881.9
-0.6296294,-742414
-0.6296294,-742983.7
-0.6296294,-743587.7
-0.6315969,-744037.7
-0.6315969,-744636.2
-0.6315969,-745151.4
-0.6335645,-745423.8
-0.6335645,-746007.9
-0.6355321,-746463.9
-0.6355321,-747054.8
-0.6374997,-747479.6
-0.6374997,-747991.6
-0.6374997,-748713.6
-0.6374997,-749251.1
-0.6374997,-749775
-0.6394674,-750016.4
-0.6394674,-750659.5
-0.6394674,-751251.4
-0.6414349,-751811.3
-0.6414349,-752404.9
-0.6434025,-752922.3
-0.6434025,-753516.1
-0.6453701,-754020.5
-0.6453701,-754629.3
-0.6453701,-755142.7
-0.6453701,-755690.5
-0.6473377,-755891.6
-0.6473377,-756474.9
-0.6473377,-756992.6
-0.6493053,-757622.1
-0.6493053,-758178.7
-0.6493053,-758739.9
-0.651273,-758865
-0.651273,-759418.2
-0.6532405,-760007.8
-0.6532405,-760739.8
-0.6532405,-761432.7
-0.6532405,-761994.6
-0.655208,-762298.8
-0.655208,-762974.4
-0.655208,-763560.7
-0.655208,-764293.9
-0.6571757,-764555.6
-0.6571757,-765090.3
-0.6571757,-765613.6
-0.6571757,-766141
-0.6591433,-766247.1
-0.6611109,-766670.4
-0.6611109,-767242.9
-0.6611109,-767781.1
-0.6611109,-768351.5
-0.6630785,-768456.1
-0.6630785,-769063.7
-0.6630785,-769668.9
-0.6630785,-770324.2
-0.665046,-770720.3
-0.665046,-771356.6
-0.665046,-771974.4
-0.665046,-772498.1
-0.6670136,-773029.4
-0.6670136,-773548.8
-0.6689812,-773329.4
-0.6689812,-773933.9
-0.6709488,-774306.1
-0.6709488,-774934.2
-0.6709488,-775600.1
-0.6709488,-776219.1
-0.6729164,-776626
-0.6729164,-777289.4
-0.6729164,-777889.2
-0.6729164,-778524.7
-0.674884,-778810.9
-0.674884,-779372.1
-0.674884,-779963.9
-0.6768516,-780293.8
-0.6768516,-780833.8
-0.6788192,-781108.8
-0.6788192,-781749.5
-0.6788192,-782354.3
-0.6788192,-782914.6
-0.6807867,-783244.1
-0.6807867,-783832.1
-0.6807867,-784395.3
-0.6827543,-784804.3
-0.6827543,-785327.6
-0.6827543,-785962.3
-0.6827543,-786554.6
-0.6847219,-786852.1
-0.6866896,-786594.6
-0.6866896,-787170.9
-0.6866896,-787742.8
-0.6866896,-788314.9
-0.6886571,-788499.4
-0.6886571,-789049.4
-0.6886571,-789595.4
-0.6886571,-790131.4
-0.6906247,-790708.5
-0.6906247,-791286.7
-0.6906247,-791840.6
-0.6906247,-792379.8
-0.6925923,-792668.5
-0.6925923,-793317.4
-0.6925923,-793885.6
-0.6925923,-794413.6
-0.6945599,-794542.3
-0.6945599,-795080.5
-0.6965275,-795558.6
-0.6965275,-796151.5
-0.6965275,-796661.3
-0.6965275,-797190.9
-0.6965275,-797744
-0.6984951,-798447.1
-0.6984951,-799002
-0.7004626,-799582.6
-0.7004626,-800230.6
-0.7004626,-800810.7
-0.7004626,-801373
-0.7024302,-801697.4
-0.7043979,-801867.6
-0.7043979,-802473.3
-0.7043979,-803029.4
-0.7043979,-803555.4
-0.7063655,-803713.7
-0.7063655,-804296.5
-0.7063655,-804879.3
-0.7063655,-805571.4
-0.708333,-806043.1
-0.708333,-806713.4
-0.708333,-807376.8
-0.708333,-807963.5
-0.7103007,-808058.6
-0.7122682,-808514.8
-0.7122682,-809120.6
-0.7122682,-809630.8
-0.7142358,-810177.5
-0.7142358,-810724
-0.7142358,-811373.1
-0.7142358,-812068.8
-0.7162035,-812757.3
-0.7162035,-813276.3
-0.7162035,-813853.9
-0.7181711,-814194.1
-0.7181711,-814768.9
-0.7201386,-815334
-0.7201386,-815866.5
-0.7221062,-816128.3
-0.7221062,-816804.2
-0.7221062,-817532
-0.7221062,-818226.7
-0.7240738,-818623.4
-0.7240738,-819261.1
-0.7240738,-819923.5
-0.7240738,-820498.5
-0.7260414,-820597.8
-0.7260414,-821166.7
-0.7260414,-821711.6
-0.728009,-821831.8
-0.728009,-822347.3
-0.728009,-823027.7
-0.7299766,-823695.1
-0.7299766,-824328.4
-0.7299766,-824848.8
-0.7299766,-825540.1
-0.7319442,-825737.9
-0.7319442,-826284.8
-0.7319442,-826825.6
-0.7319442,-827411.9
-0.7339118,-827943.5
-0.7358793,-827946.9
-0.7358793,-828466.7
-0.7358793,-829125.3
-0.7358793,-829849.5
-0.7378469,-830300.7
-0.7378469,-830945.8
-0.7378469,-831555.6
-0.7378469,-832161.3
-0.7398145,-832413.7
-0.7398145,-833028.5
-0.7398145,-833556.1
-0.7417821,-833827.3
-0.7417821,-834360.8
-0.7417821,-834872.9
-0.7437497,-835453.8
-0.7437497,-836009.7
-0.7457173,-836380.7
-0.7457173,-836896.1
-0.7457173,-837548.1
-0.7457173,-838207.6
-0.7476848,-838691.4
-0.7476848,-839297.6
-0.7476848,-839944.5
-0.7496524,-840276.6
-0.7496524,-840842.7
-0.7496524,-841436.4
-0.7496524,-842067.4
-0.7516201,-842254.8
-0.7516201,-842787.9
-0.7535877,-843335.1
-0.7535877,-843939.1
-0.7535877,-844609.8
-0.7535877,-845218.3
-0.7555553,-845358.9
-0.7555553,-845893.5
-0.7575228,-846461.4
-0.7575228,-846996.9
-0.7575228,-847717.6
-0.7575228,-848345
-0.7594904,-848728.9
-0.7594904,-849297.1
-0.761458,-849541.1
-0.761458,-850054.8
-0.761458,-850695.3
-0.761458,-851331.2
-0.7634256,-851934.4
-0.7634256,-852477.3
-0.7634256,-853085.3
-0.7634256,-853755.6
-0.7653932,-854391.1
-0.7653932,-854939.6
-0.7653932,-855449.3
-0.7673607,-855592.4
-0.7673607,-856123.4
-0.7693284,-856633.9
-0.7693284,-857154.5
-0.7693284,-857715.4
-0.771296,-858191.2
-0.771296,-858807.4
-0.771296,-859438.1
-0.771296,-860071
-0.7732635,-860677
-0.7732635,-861237.2
-0.7752311,-861657.1
-0.7752311,-862185.1
-0.7752311,-862789.4
-0.7771988,-863285
-0.7771988,-863861.6
-0.7791663,-864325.6
-0.7791663,-865009.4
-0.7791663,-865529.6
-0.7791663,-866046.3
-0.7811339,-866685.2
-0.7811339,-867236.9
-0.7811339,-867806.6
-0.7831016,-868004.9
-0.7831016,-868562.3
-0.7831016,-869172.3
-0.7850691,-869652.7
-0.7850691,-870238.5
-0.7850691,-870912
-0.7870367,-871308.9
-0.7870367,-871936.2
-0.7870367,-872520.6
-0.7870367,-873160.3
-0.7890043,-873486.6
-0.7890043,-874139.2
-0.7890043,-874803.3
-0.7909719,-875475.6
-0.7909719,-876023.8
-0.7909719,-876562.3
-0.7929395,-876618.2
-0.7929395,-877287.1
-0.7929395,-877934.9
-0.7949071,-878500.8
-0.7949071,-879110.6
-0.7949071,-879628.6
-0.7968747,-880126.5
-0.7968747,-880722.6
-0.7968747,-881279.7
-0.7968747,-881842.8
-0.7988423,-882189.5
-0.7988423,-882789.8
-0.7988423,-883364.1
-0.8008099,-883716.9
-0.8008099,-884291.5
-0.8027774,-884569.1
-0.8027774,-885202.8
-0.804745,-885839.8
-0.804745,-886402.3
-0.804745,-886985.6
-0.804745,-887511.9
-0.8067126,-887877.8
-0.8067126,-888417.9
-0.8067126,-889059.6
-0.8067126,-889715.4
-0.8086802,-889906.8
-0.8086802,-890517.1
-0.8086802,-891057.8
-0.8086802,-891718
-0.8106478,-892001.4
-0.8106478,-892549.2
-0.8106478,-893173.7
-0.8126154,-893318.2
-0.8126154,-893840.1
-0.8126154,-894416.7
-0.8145829,-895096.1
-0.8145829,-895640.9
-0.8145829,-896221
-0.8145829,-896804.8
-0.8165506,-897172.4
-0.8165506,-897807.8
-0.8165506,-898381.3
-0.8185182,-898672.2
-0.8185182,-899190.1
-0.8185182,-899740.4
-0.8204858,-899884.8
-0.8204858,-900484.1
-0.8224534,-900832.1
-0.8224534,-901379.1
-0.8224534,-902029.9
-0.8224534,-902768.4
-0.8244209,-903266.6
-0.8244209,-903945.9
-0.8244209,-904611.1
-0.8263885,-905175.3
-0.8263885,-905805.9
-0.8263885,-906504.1
-0.8283561,-906754.6
-0.8283561,-907493.2
-0.8283561,-908129.3
-0.8303237,-908678.3
-0.8303237,-909301.3
-0.8303237,-909971.1
-0.8322913,-910389.3
-0.8322913,-911098.1
-0.8322913,-911825.1
-0.8322913,-912360.4
-0.834259,-912599.5
,
,
,
,
,
,
,
,
,
,
,
,
,
,
,
,
,
,
Strain [Exten.] %,Stress MPa
0,-277671.5
0,-278509.9
0,-279309.1
0,-280037.4
0,-280650.1
0,-281260.8
0,-280456.5
0,-279758.8
0,-278955.6
0,-278088.9
0,-277217.8
0,-276430
0,-275797.4
0,-275253.9
0,-275977.3
0,-276755.4
0,-277731.3
0,-278277.9
0,-278857.6
0,-279469.8
0,-280114.8
0,-280785.9
0,-281469.9
0,-282155.4
0,-282841.3
-0.003935183,-283533.5
-0.003935183,-284231.3
-0.003935183,-284926.9
-0.003935183,-285615.8
-0.003935183,-286296
-0.003935183,-286954.6
-0.003935183,-287569.2
-0.003935183,-288121.8
-0.003935183,-289006.7
-0.003935183,-289561.6
-0.003935183,-288994.1
-0.003935183,-288413.5
-0.005902776,-288131.2
-0.005902776,-288870.1
-0.005902776,-289398.6
-0.005902776,-289955.1
-0.005902776,-290587.1
-0.005902776,-291311.7
-0.007870367,-292089.2
-0.007870367,-292874
-0.007870367,-293661.8
-0.007870367,-294512.2
-0.007870367,-295375.1
-0.007870367,-296120.6
-0.009837959,-296728.3
-0.009837959,-297457.3
-0.009837959,-298001.5
-0.01180555,-298507.8
-0.01180555,-299154.2
-0.01180555,-299823.3
-0.01377314,-300009.4
-0.01377314,-300614.1
-0.01377314,-301289.6
-0.01377314,-302026.2
-0.01574073,-302460.2
-0.01574073,-303103.8
-0.01574073,-303754.3
-0.01574073,-304403.6
-0.01770833,-304582.8
-0.01770833,-305106.5
-0.01770833,-305654.2
-0.01967592,-305882.7
-0.01967592,-306411.2
-0.02164351,-306990.1
-0.02164351,-307505.5
-0.02164351,-308063.3
-0.0236111,-308220.9
-0.0236111,-308860.6
-0.0236111,-309400.8
-0.0236111,-310005.8
-0.02557869,-310649.2
-0.02557869,-311284.1
-0.02557869,-311860.6
-0.02557869,-312475.6
-0.02754628,-312938.4
-0.02754628,-313468.8
-0.02951388,-313581.1
-0.02951388,-314148.4
-0.03148147,-314571.7
-0.03148147,-315154.1
-0.03148147,-315680.3
-0.03344906,-316252.3
-0.03344906,-316877.7
-0.03344906,-317593.3
-0.03344906,-318105.6
-0.03541665,-318629.1
-0.03541665,-319371.6
-0.03541665,-320037.1
-0.03541665,-320560.1
-0.03738425,-320801
-0.03738425,-321363.6
-0.03738425,-321909.3
-0.03935184,-321988.9
-0.03935184,-322586.3
-0.04131943,-323005
-0.04131943,-323561.7
-0.04131943,-324277
-0.04328702,-325022.5
-0.04328702,-325649.2
-0.04328702,-326205.8
-0.04525461,-326836
-0.04525461,-327395.7
-0.04525461,-327946.9
-0.0472222,-328587.8
-0.0472222,-329264.8
-0.0472222,-329815.2
-0.04918979,-330119.2
-0.04918979,-330698.1
-0.05115739,-331269.9
-0.05115739,-331830.4
-0.05115739,-332589.8
-0.05115739,-333146.6
-0.05312498,-333672.3
-0.05312498,-334184.1
-0.05312498,-334906.9
-0.05312498,-335472.4
-0.05509257,-335637.9
-0.05509257,-336253.8
-0.05509257,-336861.6
-0.05706016,-337501.7
-0.05706016,-338160.6
-0.05706016,-338735.2
-0.05902775,-339186
-0.05902775,-339783.5
-0.05902775,-340413
-0.05902775,-340998.4
-0.06099534,-341297.5
-0.06099534,-341838
-0.06296293,-342471.7
-0.06296293,-343131.6
-0.06296293,-343752.5
-0.06296293,-344332
-0.06493053,-344518
-0.06493053,-345138.7
-0.06493053,-345652
-0.06689812,-345941
-0.06689812,-346504.5
-0.06689812,-347036.9
-0.06689812,-347609.4
-0.06689812,-348263.6
-0.06886571,-348405.6
-0.0708333,-348856.8
-0.0708333,-349526.7
-0.0708333,-350228.8
-0.0728009,-350933.8
-0.0728009,-351649.5
-0.0728009,-352283.7
-0.0728009,-352886.2
-0.07476849,-353120.4
-0.07476849,-353753.6
-0.07476849,-354362
-0.07673608,-354973.8
-0.07673608,-355566.9
-0.07673608,-356116.2
-0.07870367,-356364
-0.07870367,-356911.4
-0.07870367,-357546
-0.08067126,-357970.1
-0.08067126,-358576.8
-0.08067126,-359165.7
-0.08263886,-359525.7
-0.08263886,-360116.8
-0.08263886,-360635.5
-0.08460645,-361120.1
-0.08460645,-361723
-0.08460645,-362322.9
-0.08657404,-362437.3
-0.08657404,-363112.7
-0.08657404,-363860.6
-0.08657404,-364424.1
-0.08854163,-364696.2
-0.08854163,-365415.8
-0.08854163,-366094.4
-0.08854163,-366656.2
-0.09050922,-366953.9
-0.09050922,-367538.2
-0.09050922,-368133
-0.09247681,-368823.9
-0.09247681,-369472.2
-0.09247681,-370118.3
-0.09444441,-370487.8
-0.09444441,-371022.8
-0.09444441,-371586.9
-0.09444441,-372126.3
-0.096412,-372403.3
-0.096412,-372966.8
-0.096412,-373612.7
-0.09837959,-373892
-0.09837959,-374536.1
-0.1003472,-375126
-0.1003472,-375791.9
-0.1003472,-376384.4
-0.1003472,-376920.1
-0.1023148,-377072.2
-0.1023148,-377649.9
-0.1023148,-378259.4
-0.1042824,-378543.1
-0.1042824,-379177.4
-0.1042824,-379766.6
-0.10625,-380277.3
-0.10625,-380832.2
-0.10625,-381436.8
-0.1082175,-381694
-0.1082175,-382216.7
-0.1082175,-382885.5
-0.1101851,-383452.4
-0.1101851,-383995.9
-0.1101851,-384552
-0.1121527,-385244.7
-0.1121527,-385974.8
-0.1121527,-386705
-0.1121527,-387412.1
-0.1141203,-387839.5
-0.1141203,-388447.6
-0.1160879,-389024.5
-0.1160879,-389661.7
-0.1160879,-390274.2
-0.1180555,-390609.4
-0.1180555,-391222.8
-0.1200231,-391792.9
-0.1200231,-392508.5
-0.1200231,-393082.4
-0.1200231,-393647.5
-0.1200231,-394365
-0.1219907,-394871
-0.1219907,-395422.4
-0.1239583,-395516.2
-0.1239583,-396034.7
-0.1239583,-396597.4
-0.1259259,-397037.7
-0.1259259,-397712.5
-0.1259259,-398379.7
-0.1278935,-399143.8
-0.1278935,-399730.3
-0.1278935,-400299.8
-0.1278935,-400950.8
-0.1298611,-401460
-0.1298611,-402072.9
-0.1298611,-402604.2
-0.1318286,-402990.2
-0.1318286,-403511.4
-0.1337962,-404044.3
-0.1337962,-404659.1
-0.1337962,-405326.9
-0.1337962,-405865.5
-0.1357638,-406335
-0.1357638,-406860.3
-0.1357638,-407433.1
-0.1377314,-407640.7
-0.1377314,-408365.3
-0.1377314,-409102.9
-0.1377314,-409678.7
-0.139699,-409847.7
-0.139699,-410509.2
-0.1416666,-411023.9
-0.1416666,-411689.8
-0.1416666,-412363.8
-0.1436342,-411966
-0.1436342,-411355.5
-0.1436342,-411904.7
-0.1436342,-412605.7
-0.1456018,-413454
-0.1456018,-414315.9
-0.1456018,-415077.6
-0.1456018,-415605.1
-0.1475694,-415670.1
-0.1475694,-416392.7
-0.149537,-416958.3
-0.149537,-417491.3
-0.149537,-418045.3
-0.1515046,-418104.8
-0.1515046,-418640.1
-0.1515046,-419184.7
-0.1515046,-419880.7
-0.1515046,-420624
-0.1534722,-421368.8
-0.1534722,-422099.2
-0.1534722,-422756.6
-0.1534722,-423320.3
-0.1534722,-423916.9
-0.1554397,-424141.7
-0.1554397,-424677
-0.1574073,-424926.8
-0.1574073,-425513.3
-0.1593749,-425640.8
-0.1593749,-426207.9
-0.1593749,-426754.6
-0.1593749,-427460.2
-0.1593749,-428191.4
-0.1613425,-428871.9
-0.1613425,-429484.5
-0.1613425,-430065.3
-0.1613425,-430627.3
-0.1613425,-431309.3
-0.1633101,-431613
-0.1633101,-432225.8
-0.1652777,-432313.8
-0.1652777,-431761.2
-0.1672453,-432208.1
-0.1672453,-432992.5
-0.1672453,-433638.3
-0.1672453,-434314.6
-0.1672453,-434924.4
-0.1692129,-435600.5
-0.1692129,-436181.1
-0.1692129,-436718.4
-0.1711805,-437150.9
-0.1711805,-437782.8
-0.1711805,-438302.9
-0.1731481,-437783.2
-0.1731481,-437157.4
-0.1751157,-437918.1
-0.1751157,-438528.2
-0.1751157,-439113.4
-0.1751157,-439665.1
-0.1751157,-440179.8
-0.1751157,-440922.6
-0.1770833,-441197.2
-0.1770833,-441821.2
-0.1770833,-442482
-0.1770833,-443154
-0.1770833,-443811.2
-0.1770833,-444406.1
-0.1790509,-445016.3
-0.1790509,-444444.5
-0.1810184,-444346.1
-0.1810184,-444940.4
-0.1810184,-445522.6
-0.1810184,-446103.6
-0.1829861,-446705.3
-0.1849536,-447412.4
-0.1849536,-448017.3
-0.1849536,-448778.6
-0.1849536,-449634.6
-0.1849536,-450447.3
-0.1849536,-451058
-0.1869212,-451257.1
-0.1888888,-451236.5
-0.1888888,-451748.7
-0.1888888,-452354.3
-0.1908564,-452735.4
-0.192824,-452418.2
-0.192824,-453078.7
-0.192824,-453798.9
-0.192824,-454621
-0.192824,-455481.9
-0.1947916,-456339.8
-0.1947916,-457100.4
-0.1947916,-457717.7
-0.1947916,-458412.8
-0.1947916,-458985.3
-0.1967592,-459319.9
-0.1967592,-459896.8
-0.1967592,-460647.7
-0.1967592,-461209.8
-0.1967592,-461829.6
-0.1987268,-461960
-0.1987268,-461311.8
-0.1987268,-460797.1
-0.1987268,-460268.9
-0.2006944,-459919.5
-0.2006944,-460690.3
-0.2006944,-461434.3
-0.2006944,-462224.4
-0.2006944,-462937
-0.202662,-463262.3
-0.202662,-463890.3
-0.202662,-464487.9
-0.202662,-465020.7
-0.202662,-465703.5
-0.2046295,-466205.9
-0.2046295,-466800.6
-0.2046295,-467438.7
-0.2046295,-468030.2
-0.2046295,-468667.9
-0.2065971,-468866.5
-0.2065971,-468145.5
-0.2065971,-467497.3
-0.2065971,-466798.6
-0.2065971,-466214.2
-0.2085647,-465953
-0.2085647,-466654.6
-0.2085647,-467386.8
-0.2085647,-468203.3
-0.2085647,-469065.6
-0.2105323,-469504.9
-0.2105323,-470332.9
-0.2105323,-471070.5
-0.2105323,-471715.2
-0.2105323,-472288.9
-0.2105323,-472840
-0.2105323,-473390.2
-0.2124999,-473660.6
-0.2124999,-474187.5
-0.2124999,-474871.1
-0.2144675,-475343
-0.2144675,-475899.4
-0.2164351,-476068.8
-0.2164351,-476698
-0.2164351,-477267.4
-0.2184027,-477707.7
-0.2184027,-478327.8
-0.2184027,-479054.5
-0.2184027,-479800
-0.2203703,-480209.6
-0.2203703,-480966.1
-0.2203703,-481497.1
-0.2223379,-480727.8
-0.2223379,-480092.6
-0.2223379,-480935.4
-0.2223379,-481757.6
-0.2243055,-482149.8
-0.2243055,-482697.5
-0.2243055,-481913
-0.2243055,-481319.2
-0.2243055,-480627.8
-0.2243055,-479874.2
-0.2243055,-479101.3
-0.2262731,-478371.7
-0.2262731,-477762.6
-0.2262731,-477139.2
-0.2262731,-477762.1
-0.2262731,-478285.3
-0.2262731,-478916.3
-0.2262731,-479624.4
-0.2262731,-480375.3
-0.2262731,-481134.5
-0.2262731,-481869.7
-0.2282407,-482551.3
-0.2282407,-483154.3
-0.2282407,-484037.5
-0.2302082,-483576
-0.2302082,-484425.8
-0.2302082,-485411.5
-0.2302082,-485950.7
-0.2302082,-486499.8
-0.2302082,-487039.2
-0.2321758,-487977.9
-0.2321758,-488561.1
-0.2321758,-487767.9
-0.2321758,-486810.4
-0.2341434,-485902.9
-0.2341434,-485352.4
-0.2341434,-486040.9
-0.2341434,-487143.7
-0.2341434,-487823.8
-0.2341434,-488548.1
-0.2341434,-489287.4
-0.236111,-490021.6
-0.236111,-490734.8
-0.236111,-491413.3
-0.236111,-492045.8
-0.236111,-492622.6
-0.236111,-493132
-0.236111,-493886.9
-0.236111,-494404.7
-0.2380786,-494538.2
-0.2380786,-495156.3
-0.2380786,-495722.5
-0.2380786,-496340.9
-0.2380786,-496983.9
-0.2380786,-497608.5
-0.2400462,-497887.8
-0.2400462,-498461.8
-0.2400462,-497740.8
-0.2400462,-497068.8
-0.2420138,-496947.9
-0.2420138,-497518
-0.2420138,-498146.8
-0.2420138,-498820.4
-0.2420138,-499456.2
-0.2439814,-500007.8
-0.2439814,-500690.3
-0.2439814,-501270.4
-0.2439814,-502000.5
-0.245949,-502605.2
-0.245949,-503255.1
-0.245949,-503891.3
-0.245949,-504535.4
-0.245949,-503899.6
-0.2479166,-503465.6
-0.2479166,-502418.8
-0.2479166,-501881.1
-0.2479166,-500958.4
-0.2479166,-500441.9
-0.2498841,-501263.3
-0.2498841,-502102.8
-0.2498841,-502924.7
-0.2498841,-503613
-0.2518517,-503990.7
-0.2518517,-504744.4
-0.2518517,-505584.8
-0.2518517,-506629.9
-0.2518517,-507187.3
-0.2538193,-507745.1
-0.2538193,-508292.5
-0.2538193,-508815.8
-0.2538193,-509693.1
-0.2538193,-510283
-0.2538193,-509459.9
-0.2557869,-509043.7
-0.2557869,-508147.1
-0.2557869,-507407.1
-0.2577545,-508102.9
-0.2577545,-508977
-0.2577545,-509877.4
-0.2577545,-510718.1
-0.2577545,-511393.5
-0.2597221,-511794
-0.2597221,-512481.7
-0.2597221,-513023.6
-0.2597221,-513652.3
-0.2616897,-514021.9
-0.2616897,-514902.4
-0.2616897,-515915.4
-0.2616897,-516822.1
-0.2616897,-517374.6
-0.2636573,-517363.9
-0.2636573,-516747.6
-0.2636573,-516228.9
-0.2656249,-516756.6
-0.2656249,-517462.6
-0.2656249,-518220.9
-0.2656249,-518854.9
-0.2675925,-518743.2
-0.2675925,-518219.5
-0.2675925,-518895.6
-0.2695601,-519889.5
-0.2695601,-520453.2
-0.2695601,-521037.7
-0.2695601,-521617.3
-0.2695601,-522161.2
-0.2695601,-523048.2
-0.2695601,-523644.7
-0.2715277,-524002.8
-0.2734953,-524293.1
-0.2734953,-525021.2
-0.2734953,-525561.6
-0.2734953,-526274.4
-0.2754628,-526828
-0.2754628,-527430.4
-0.2754628,-528111.5
-0.2754628,-528710.8
-0.2774304,-529053.8
-0.2774304,-529799.7
-0.2774304,-530554.9
-0.2774304,-531258.4
-0.2774304,-531889.1
-0.2774304,-532439.8
-0.2793981,-533128.1
-0.2793981,-533671.8
-0.2813656,-533958.6
-0.2833332,-534200.5
-0.2833332,-534734.7
-0.2833332,-535310.9
-0.2853008,-535989
-0.2853008,-536726.9
-0.2853008,-537387.5
-0.2853008,-537960.7
-0.2872684,-538516.3
-0.2872684,-539046.3
-0.2872684,-539663.4
-0.2872684,-540307.3
-0.289236,-540636.1
-0.2912036,-540992.3
-0.2912036,-541623.4
-0.2912036,-542347.4
-0.2912036,-542861.4
-0.2931712,-543394.3
-0.2931712,-544098.8
-0.2931712,-544667.2
-0.2931712,-545229.3
-0.2951388,-545381.9
-0.2951388,-546058.4
-0.2951388,-546706.4
-0.2951388,-547391.1
-0.2971064,-547602.8
-0.2971064,-548120.7
-0.299074,-547688.6
-0.299074,-548277.4
-0.3010415,-548536.3
-0.3010415,-549087.9
-0.3010415,-549612.9
-0.3010415,-550141.9
-0.3010415,-550651.3
-0.3030091,-551046.1
-0.3030091,-551616
-0.3030091,-552365.3
-0.3030091,-553207.5
-0.3030091,-554009.3
-0.3030091,-554582.9
-0.3049767,-554746.6
-0.3049767,-553907.5
-0.3049767,-553233.9
-0.3069443,-552792.8
-0.3069443,-553522.6
-0.3069443,-554255.2
-0.3069443,-554883.2
-0.3089119,-554936.6
-0.3089119,-554163.3
-0.3089119,-553639.3
-0.3089119,-553079.8
-0.3089119,-552537.4
-0.3089119,-551715
-0.3089119,-552268.8
-0.3108795,-552794.1
-0.3108795,-553411.4
-0.3108795,-554100.1
-0.3108795,-554841.1
-0.3108795,-555606.9
-0.3108795,-556360.3
-0.3108795,-557061.3
-0.3108795,-557676.9
-0.3108795,-558553.1
-0.3128471,-558914.1
-0.3128471,-559482.8
-0.3148147,-560099.2
-0.3148147,-560807.2
-0.3148147,-561438.6
-0.3167823,-561298.8
-0.3167823,-560685.2
-0.3167823,-561437.3
-0.3167823,-562222.9
-0.3187499,-563123.3
-0.3187499,-564119.1
-0.3187499,-564635.5
-0.3187499,-565149
-0.3187499,-566113.6
-0.3187499,-566864
-0.3187499,-567396.2
-0.3207175,-567440
-0.3207175,-568156.9
-0.322685,-568714.3
-0.322685,-569286.9
-0.322685,-569960.4
-0.3246527,-569622.4
-0.3246527,-569021.8
-0.3246527,-568483.3
-0.3266203,-569299.8
-0.3266203,-570210.8
-0.3266203,-571175.4
-0.3266203,-572072.8
-0.3266203,-572831.9
-0.3266203,-573396.8
-0.3285878,-573611.4
-0.3285878,-574161.8
-0.3285878,-574821.6
-0.3285878,-575476.8
-0.3285878,-576212.9
-0.3305554,-576847.7
-0.3305554,-577461.2
-0.3305554,-576812.9
-0.332523,-576395
-0.332523,-575436.3
-0.332523,-574544.1
-0.332523,-573990.7
-0.332523,-574558.9
-0.3344906,-575322.7
-0.3344906,-576189.1
-0.3344906,-577036.9
-0.3344906,-577805.3
-0.3344906,-578559.7
-0.3344906,-579324.3
-0.3364582,-579690.8
-0.3364582,-580403
-0.3364582,-581107.3
-0.3364582,-581817.9
-0.3364582,-582538.3
-0.3364582,-583177.4
-0.3384258,-583753.8
-0.3384258,-583162
-0.3384258,-582625.8
-0.3403934,-582083
-0.3403934,-582924.4
-0.3403934,-583718.7
-0.3403934,-584510.1
-0.342361,-585184.6
-0.342361,-585736.3
-0.342361,-585196.6
-0.3443286,-585166.3
-0.3443286,-585678.8
-0.3443286,-586280.8
-0.3443286,-587069.5
-0.3443286,-587983
-0.3462962,-588942.1
-0.3462962,-589783
-0.3462962,-590352.4
-0.3482637,-589841.6
-0.3482637,-589265.6
-0.3482637,-589999.2
-0.3482637,-590747.6
-0.3482637,-591523.4
-0.3502313,-591848.9
-0.3502313,-591192.8
-0.3502313,-590675.7
-0.3502313,-590126.1
-0.3502313,-589604.4
-0.3521989,-589164.1
-0.3521989,-589940.9
-0.3521989,-590519.6
-0.3521989,-591158.9
-0.3521989,-591841.1
-0.3521989,-592541.4
-0.3541665,-593229.8
-0.3541665,-593882
-0.3541665,-594485.3
-0.3541665,-595027.5
-0.3541665,-595858.4
-0.3541665,-596494.9
-0.3561341,-596828.6
-0.3561341,-597524.4
-0.3561341,-598273.8
-0.3561341,-598917.2
-0.3581017,-599213.2
-0.3581017,-598486.8
-0.3581017,-597694.1
-0.3581017,-596808.3
-0.3581017,-596051.9
-0.3600693,-595678.3
-0.3600693,-596422.9
-0.3600693,-597345.4
-0.3600693,-597898.7
-0.3600693,-598493.7
-0.3600693,-599106.6
-0.3600693,-599709.1
-0.3600693,-600282.6
-0.3620369,-600825.5
-0.3620369,-601339.9
-0.3620369,-602253.8
-0.3620369,-602989.2
-0.3620369,-603609.3
-0.3620369,-604161.4
-0.3640045,-604901.1
-0.3640045,-605596.1
-0.3640045,-606172.8
-0.3659721,-605886.4
-0.3659721,-605374.1
-0.3659721,-604749.8
-0.3679397,-605147
-0.3679397,-605670.9
-0.3679397,-606277
-0.3679397,-606912.9
-0.3679397,-607517.2
-0.3679397,-608093.5
-0.3679397,-608625
-0.3699073,-608886.9
-0.3699073,-609471.1
-0.3699073,-610155.3
-0.3699073,-610897.9
-0.3699073,-611583.2
-0.3699073,-612155.2
-0.3718749,-612396.4
-0.3718749,-611562.4
-0.3718749,-611031.8
-0.3718749,-610456.9
-0.3718749,-609862.6
-0.3718749,-609284.3
-0.3738424,-608759.6
-0.3738424,-607992.9
-0.3738424,-608572.8
-0.37581,-609337.6
-0.37581,-610159
-0.37581,-610958.8
-0.37581,-611715.8
-0.37581,-612443.3
-0.37581,-613164.5
-0.37581,-613932.6
-0.3777776,-614349.1
-0.3777776,-615249.8
-0.3777776,-616204.9
-0.3777776,-617135
-0.3777776,-617970.3
-0.3777776,-618626.1
-0.3797452,-618971.7
-0.3797452,-618349.4
-0.3797452,-617408.2
-0.3797452,-616833
-0.3797452,-616232.3
-0.3797452,-615634.6
-0.3797452,-615067.3
-0.3817128,-614135.3
-0.3817128,-613613.6
-0.3817128,-614344.6
-0.3817128,-615113
-0.3817128,-615961.6
-0.3836804,-616841.1
-0.3836804,-617694.4
-0.3836804,-618504.3
-0.3836804,-619257.7
-0.3836804,-619971.3
-0.3836804,-620653.6
-0.385648,-621363
-0.385648,-622128.9
-0.385648,-622960.9
-0.385648,-623819.6
-0.385648,-624629.3
-0.385648,-625314.3
-0.3876156,-625819.4
-0.3876156,-625166.4
-0.3876156,-624637.6
-0.3895831,-624196.2
-0.3895831,-624718.7
-0.3915508,-624917.1
-0.3915508,-625801.3
-0.3935184,-626245
-0.3935184,-627298.1
-0.3935184,-627873.3
-0.3935184,-628451.2
-0.3935184,-629009.4
-0.3935184,-629524.6
-0.3935184,-630362.6
-0.3935184,-630909.9
-0.3954859,-631070
-0.3954859,-631591.3
-0.3954859,-632250.4
-0.3974535,-632435.4
-0.3974535,-633007.5
-0.3974535,-632408.4
-0.3994211,-632227.8
-0.3994211,-632788.9
-0.4013887,-633578.3
-0.4013887,-634501.8
-0.4013887,-635452.1
-0.4013887,-636326.4
-0.4013887,-637030.4
-0.4013887,-637569.1
-0.4033563,-638035.1
-0.4033563,-638613.4
-0.4033563,-639198.9
-0.4053239,-639826.3
-0.4072915,-640290.9
-0.4072915,-640875.3
-0.4072915,-641414.9
-0.4092591,-642066.1
-0.4092591,-642776.4
-0.4092591,-643461.9
-0.4092591,-643996.2
-0.4112267,-644253.4
-0.4112267,-644789.4
-0.4112267,-645340.9
-0.4112267,-645931.4
-0.4131942,-646113.7
-0.4131942,-646714.5
-0.4151618,-646628.4
-0.4151618,-647276.7
-0.4151618,-648016.8
-0.4171295,-648586.6
-0.4171295,-649165.8
-0.4171295,-649726.9
-0.4171295,-650245.4
-0.4171295,-650900.2
-0.419097,-651097.8
-0.419097,-651691.4
-0.419097,-652368.4
-0.419097,-652903.3
-0.4210646,-652971.9
-0.4230323,-652980.7
-0.4230323,-653657.7
-0.4230323,-654257.3
-0.4230323,-654885.1
-0.4230323,-655475.7
-0.4230323,-656010.1
-0.4249998,-656248
-0.4249998,-656911.1
-0.4249998,-657583.3
-0.4249998,-658235.9
-0.4269674,-658681.3
-0.4269674,-659350.5
-0.4269674,-659962.3
-0.428935,-659776.6
-0.428935,-659206.6
-0.4309026,-659779.8
-0.4309026,-660350
-0.4309026,-660930.9
-0.4309026,-661547.1
-0.4309026,-662082
-0.4328702,-662493.4
-0.4328702,-663018.6
-0.4328702,-663590.3
-0.4348378,-664108.9
-0.4348378,-664746.9
-0.4348378,-665299.6
-0.4348378,-665851.6
-0.4368054,-666328.1
-0.4368054,-666855.7
-0.4387729,-667138
-0.4387729,-667804.4
-0.4387729,-668426.6
-0.4387729,-669092.8
-0.4407406,-669297.1
-0.4407406,-669969.4
-0.4407406,-670490.1
-0.4407406,-671217.2
-0.4427081,-671825.3
-0.4427081,-672468.6
-0.4427081,-673027.1
-0.4446757,-673446.7
-0.4446757,-674029.4
-0.4466433,-674404
-0.4466433,-674919.6
-0.4466433,-675489.3
-0.4486109,-676049.9
-0.4486109,-676633.6
-0.4486109,-677281.3
-0.4505785,-677831.1
-0.4505785,-678472.6
-0.4505785,-679123.2
-0.4505785,-679699.8
-0.4525461,-679795.4
-0.4525461,-680324.1
-0.4545137,-680826.3
-0.4545137,-681390.6
-0.4545137,-682017.4
-0.4545137,-682610.6
-0.4564813,-682799.6
-0.4564813,-683398.8
-0.4564813,-683972.1
-0.4564813,-684515.4
-0.4584489,-684710.6
-0.4584489,-685372.3
-0.4584489,-685941.2
-0.4604165,-686383.4
-0.4604165,-686955.8
-0.4604165,-687539.7
-0.4623841,-687670.8
-0.4623841,-688252.1
-0.4623841,-688844.4
-0.4643517,-689092.9
-0.4643517,-689759.4
-0.4643517,-690352.2
-0.4643517,-691068
-0.4663192,-691323.2
-0.4663192,-692011.2
-0.4663192,-692553.4
-0.4663192,-693111.4
-0.4682868,-693173.1
-0.4682868,-693725.8
-0.4682868,-694269.9
-0.4702544,-694899.2
-0.4702544,-695418.8
-0.4702544,-696016.2
-0.472222,-696116.8
-0.472222,-696693.8
-0.472222,-697427.6
-0.472222,-697958.6
-0.4741896,-698395.3
-0.4761572,-698833.6
-0.4761572,-699535.5
-0.4761572,-700191.4
-0.4761572,-700760.3
-0.4781248,-700922.9
-0.4781248,-701547.6
-0.4781248,-702220.9
-0.4781248,-702788.1
-0.4800924,-703018.1
-0.4800924,-703534.1
-0.4800924,-704061.8
-0.4800924,-704767.4
-0.4800924,-705321.7
-0.48206,-705524.4
-0.48206,-706170
-0.48206,-706684.4
-0.4840276,-707015.9
-0.4840276,-707608.8
-0.4859952,-708222.6
-0.4859952,-708825.9
-0.4859952,-709493.7
-0.4859952,-710016.9
-0.4879628,-710181.8
-0.4879628,-710760.4
-0.4879628,-711306.9
-0.4899304,-711630.1
-0.4899304,-712144.5
-0.4899304,-712684.3
-0.4899304,-713255.2
-0.4918979,-713447.3
-0.4918979,-714045.4
-0.4918979,-714640.3
-0.4918979,-715191.1
-0.4938655,-715624.5
-0.4938655,-716171.3
-0.4938655,-716850.7
-0.4958331,-717463.8
-0.4958331,-718127.9
-0.4958331,-718661.8
-0.4978007,-718802.8
-0.4978007,-719373.5
-0.4978007,-719985.8
-0.4997683,-720539.6
-0.4997683,-721098
-0.4997683,-721833.1
-0.4997683,-722458.5
-0.4997683,-723062.6
-0.5017359,-723228.1
-0.5017359,-723766.6
-0.5017359,-724371.3
-0.5037035,-724691.3
-0.5037035,-725204.9
-0.5037035,-725714.7
-0.5056711,-725825.9
-0.5056711,-726401.6
-0.5056711,-726934.9
-0.5056711,-727544.8
-0.5056711,-728061.6
-0.5076387,-728214.7
-0.5076387,-728750.4
-0.5096063,-729272.2
-0.5096063,-729855.3
-0.5096063,-730487.5
-0.5096063,-731193.8
-0.5115739,-731624.5
-0.5115739,-732146.1
-0.5135415,-732343.7
-0.5135415,-732995.5
-0.515509,-733594
-0.515509,-734307.3
-0.515509,-734821.6
-0.515509,-735390.8
-0.515509,-735974.6
-0.515509,-736510.9
-0.5174766,-736760.2
-0.5174766,-737465.8
-0.5174766,-738110.9
-0.5174766,-738634.2
-0.5194442,-739027.3
-0.5214118,-739546
-0.5214118,-740105.1
-0.5233794,-740278.8
-0.5233794,-741000.3
-0.5233794,-741591.1
-0.5233794,-742206.4
-0.5233794,-742810
-0.525347,-743420
-0.525347,-744027.3
-0.525347,-744562.7
-0.525347,-745131.9
-0.5273145,-745694.6
-0.5292822,-745832.8
-0.5292822,-746362.7
-0.5312498,-747087.7
-0.5312498,-747684.3
-0.5312498,-748330.1
-0.5312498,-749010.3
-0.5312498,-749691.6
-0.5312498,-750270.9
-0.5332174,-750509.3
-0.5332174,-751060.3
-0.5332174,-751632.4
-0.535185,-752031.9
-0.535185,-752637.2
-0.535185,-753278
-0.5371525,-753594.8
-0.5371525,-754152.9
-0.5391201,-754695.6
-0.5391201,-755217.7
-0.5391201,-755810.6
-0.5410877,-756592.3
-0.5410877,-757148.2
-0.5410877,-757668.4
-0.5410877,-758392.4
-0.5430554,-759090.3
-0.5430554,-759773.4
-0.5430554,-760400.9
-0.5430554,-760932.1
-0.5450229,-761290.3
-0.5469905,-760885.1
-0.5489581,-761374.8
-0.5489581,-761943.7
-0.5489581,-762565.5
-0.5489581,-763194.8
-0.5489581,-763807
-0.5489581,-764423.4
-0.5489581,-765047.8
-0.5509257,-765647.7
-0.5509257,-766182.7
-0.5509257,-766902.6
-0.5509257,-767489.4
-0.5528933,-768012.8
-0.5548609,-767746.1
-0.5548609,-768285.3
-0.5548609,-768918.1
-0.5548609,-769672.8
-0.5568284,-770216.4
-0.5568284,-770732.8
-0.5568284,-771457.6
-0.5568284,-772110.2
-0.5568284,-772710.9
-0.5587961,-772989.8
-0.5587961,-773520.6
-0.5607637,-773976.8
-0.5627312,-774250.4
-0.5627312,-774943.3
-0.5627312,-775707.9
-0.5627312,-776441.3
-0.5646988,-776865.2
-0.5646988,-777386.6
-0.5646988,-778040.8
-0.5646988,-778661.3
-0.5646988,-779181.4
-0.5646988,-779716.3
-0.5666664,-779846.2
-0.5666664,-780358.6
-0.5666664,-780896.5
-0.568634,-780972.3
-0.568634,-781484.6
-0.5706016,-781897.9
-0.5706016,-782438
-0.5706016,-782983.9
-0.5706016,-783495.1
-0.5725692,-783794.9
-0.5725692,-784466.1
-0.5725692,-785163
-0.5725692,-785834.3
-0.5725692,-786398.2
-0.5725692,-786990.9
-0.5745368,-787105.3
-0.5765043,-787646.4
-0.5765043,-788168.4
-0.5765043,-788692.8
-0.5765043,-789256.3
-0.578472,-789638.8
-0.578472,-790242.9
-0.578472,-790794.8
-0.578472,-791309.3
-0.5804396,-791489.2
-0.5804396,-792105.6
-0.5804396,-792809.8
-0.5804396,-793538.7
-0.5824072,-793986.4
-0.5824072,-794561.1
-0.5824072,-795129
-0.5843747,-795235.3
-0.5843747,-795807.3
-0.5863424,-796168.9
-0.5863424,-796811.1
-0.5863424,-797362.9
-0.5863424,-797934.4
-0.58831,-798119.8
-0.58831,-798754.3
-0.58831,-799364.8
-0.58831,-799938.3
-0.58831,-800668.4
-0.5902776,-800926.1
-0.5902776,-801588.6
-0.5902776,-802139.3
-0.5922451,-802512.5
-0.5942127,-802910.9
-0.5942127,-803544.6
-0.5942127,-804150.1
-0.5961803,-804670.2
-0.5961803,-805218.8
-0.5961803,-805821
-0.5961803,-806547.6
-0.5981479,-807274
-0.5981479,-807971.4
-0.5981479,-808523.9
-0.6001155,-808958.1
-0.6001155,-809526.9
-0.6020831,-809677.9
-0.6020831,-810246
-0.6020831,-810946.5
-0.6020831,-811525.6
-0.6040506,-811828.6
-0.6040506,-812348.1
-0.6040506,-812968.6
-0.6040506,-813609
-0.6060182,-814081.6
-0.6060182,-814775.3
-0.6060182,-815346
-0.6079859,-815766.3
-0.6079859,-816302.4
-0.6079859,-816880.9
-0.6099535,-817217.6
-0.6099535,-817847.1
-0.6099535,-818517.4
-0.6099535,-819067.9
-0.6119211,-819604.5
-0.6119211,-820246.2
-0.6119211,-820797.7
-0.6119211,-821309.1
-0.6138886,-821501
-0.6138886,-822085
-0.6138886,-822600.3
-0.6158562,-823027.2
-0.6158562,-823624.8
-0.6178238,-823936.9
-0.6178238,-824517.8
-0.6178238,-825171.6
-0.6178238,-825740.6
-0.6197914,-826137.7
-0.6197914,-826724
-0.6197914,-827275.1
-0.621759,-827639
-0.621759,-828279.5
-0.621759,-829040.9
-0.621759,-829764.8
-0.6237266,-830161.3
-0.6237266,-830733.3
-0.6256942,-831020.5
-0.6256942,-831543
-0.6276618,-832174.8
-0.6276618,-832736.7
-0.6276618,-833388.7
-0.6276618,-834160.9
-0.6276618,-834717.3
-0.6296294,-835265.4
-0.6296294,-836011.9
-0.6296294,-836764
-0.6296294,-837510.7
-0.6315969,-837963.3
-0.6315969,-838532.2
-0.6315969,-839068.4
-0.6335645,-839197.6
-0.6355321,-838784.3
-0.6355321,-839449.9
-0.6355321,-840151.5
-0.6355321,-840699
-0.6374997,-840962.6
-0.6374997,-841628.6
-0.6374997,-842195.4
-0.6374997,-842772.7
-0.6394674,-843267.9
-0.6394674,-843893.1
-0.6394674,-844464.6
-0.6394674,-844998.3
-0.6414349,-845085.2
-0.6414349,-845679.1
-0.6434025,-846109.1
-0.6434025,-846665.3
-0.6434025,-847324.1
-0.6434025,-847974.1
-0.6453701,-848428.1
-0.6453701,-849178.8
-0.6453701,-849734.6
-0.6453701,-850278
-0.6453701,-850998.7
-0.6473377,-851229.8
-0.6473377,-851858.4
-0.6473377,-852404.9
-0.6493053,-852698.5
-0.6493053,-853289
-0.651273,-853763.8
-0.651273,-854312.6
-0.6532405,-854938.6
-0.6532405,-855455.7
-0.6532405,-856085.1
-0.6532405,-856726.8
-0.655208,-857308.7
-0.655208,-857871
-0.655208,-858431.1
-0.655208,-858948
-0.6571757,-859487.9
-0.6571757,-860080.9
-0.6571757,-860623.1
-0.6591433,-861161.2
-0.6611109,-861774.4
-0.6611109,-862311.6
-0.6611109,-862998.6
-0.6611109,-863508.2
-0.6630785,-864250.5
-0.6630785,-864855.6
-0.6630785,-865379
-0.665046,-865612.4
-0.665046,-866358.9
-0.665046,-866906.7
-0.665046,-867628.9
-0.6670136,-868066.9
-0.6670136,-868708.4
-0.6689812,-869292.1
-0.6689812,-869898.1
-0.6689812,-870549.6
-0.6689812,-871080.5
-0.6709488,-871267
-0.6709488,-871878.6
-0.6709488,-872472.4
-0.6729164,-872725.3
-0.6729164,-873273
-0.6729164,-873963.1
-0.674884,-874160.4
-0.674884,-874782.5
-0.674884,-875408.2
-0.674884,-875920.6
-0.6768516,-876034.8
-0.6768516,-876637.3
-0.6768516,-877287.4
-0.6788192,-877563.1
-0.6788192,-878241.9
-0.6788192,-878902.1
-0.6788192,-879559.6
-0.6807867,-879769.4
-0.6807867,-880393.2
-0.6807867,-881040.9
-0.6807867,-881619.4
-0.6827543,-881963.3
-0.6827543,-882496.7
-0.6847219,-882869.7
-0.6847219,-883415.2
-0.6847219,-884055.3
-0.6847219,-884566.3
-0.6866896,-885084
-0.6866896,-885736.1
-0.6866896,-886329.3
-0.6886571,-886870
-0.6886571,-887559.7
-0.6886571,-888155.1
-0.6886571,-888682.1
-0.6906247,-889099.1
-0.6925923,-889571.9
-0.6925923,-890263.2
-0.6925923,-890843
-0.6925923,-891369.2
-0.6945599,-891542.3
-0.6945599,-892073.2
-0.6945599,-892599.9
-0.6945599,-893162.6
-0.6965275,-893323.9
-0.6965275,-894000.3
-0.6965275,-894678.7
-0.6965275,-895278.6
-0.6984951,-895643.3
-0.6984951,-896187.1
-0.6984951,-896736.4
-0.7004626,-897169
-0.7004626,-897822.3
-0.7004626,-898339.4
-0.7004626,-899024.3
-0.7024302,-899206.1
-0.7024302,-899733.1
-0.7024302,-900373.7
-0.7043979,-900867.3
-0.7043979,-901380.3
-0.7043979,-901919.5
-0.7063655,-902013.3
-0.7063655,-902591.9
-0.7063655,-903258.7
-0.708333,-903730.1
-0.7103007,-904384.3
-0.7103007,-904940.8
-0.7103007,-905572.6
-0.7103007,-906167.6
-0.7103007,-906832.3
-0.7122682,-907060.8
-0.7122682,-907619.9
-0.7142358,-908105.4
-0.7142358,-908827.1
-0.7142358,-909432.5
-0.7162035,-909330.1
-0.7162035,-909981.9
-0.7162035,-910551.4
-0.7162035,-911193.6
-0.7162035,-911803.1
-0.7181711,-912083
-0.7181711,-912774.4
-0.7201386,-912865.3
-0.7201386,-913384.9
-0.7201386,-914142.7
-0.7201386,-914733.1
-0.7201386,-915298.6
-0.7221062,-915558.4
-0.7221062,-916175.3
-0.7221062,-916766.8
-0.7240738,-917362.3
-0.7240738,-918033.6
-0.7240738,-918741.5
-0.7240738,-919407.1
-0.7260414,-919749.3
-0.7260414,-920327.9
-0.7260414,-920911.9
-0.728009,-921297.9
-0.728009,-922019.1
-0.728009,-922648.5
-0.7299766,-923032.3
-0.7299766,-923690.9
-0.7319442,-923872.2
-0.7319442,-924499.6
-0.7319442,-925130.9
-0.7319442,-925664.4
-0.7339118,-925801.9
-0.7339118,-926325.1
-0.7339118,-927021
-0.7339118,-927625.3
-0.7358793,-928210.4
-0.7358793,-928750.6
-0.7378469,-929115.1
-0.7378469,-929671
-0.7378469,-930305
-0.7378469,-930835
-0.7398145,-931165.3
-0.7398145,-931801.8
-0.7398145,-932382.2
-0.7417821,-932800.4
-0.7417821,-933316.1
-0.7417821,-933830.9
-0.7417821,-934385.3
-0.7437497,-934697
-0.7437497,-935246.6
-0.7457173,-935488.4
-0.7457173,-936210.6
-0.7457173,-936826.6
-0.7457173,-937460.8
-0.7457173,-938060.2
-0.7476848,-938360.9
-0.7476848,-938882.4
-0.7496524,-938625.6
-0.7496524,-939299.8
-0.7496524,-939977.1
-0.7516201,-940334.8
-0.7516201,-941025.6
-0.7516201,-941605.6
-0.7516201,-942156.7
-0.7535877,-942518.1
-0.7535877,-943054.5
-0.7535877,-943738.9
-0.7535877,-944293.4
-0.7535877,-944860.4
-0.7555553,-945409.4
-0.7555553,-946021.1
-0.7575228,-946387.4
-0.7575228,-946975.6
-0.7575228,-947678.8
-0.7594904,-948120.3
-0.7594904,-948774
-0.7594904,-949318.3
-0.7594904,-949972.5
-0.761458,-950351.2
-0.761458,-951036.3
-0.761458,-951771.3
-0.761458,-952464.1
-0.7634256,-952826
-0.7634256,-953345.9
-0.7653932,-953723.3
-0.7653932,-954267.2
-0.7653932,-954951.8
-0.7653932,-955563.2
-0.7673607,-955822.5
-0.7693284,-956078.1
-0.7693284,-956804
-0.7693284,-957394.6
-0.7693284,-958060
-0.7693284,-958692.9
-0.771296,-959206.1
-0.7732635,-959372.6
-0.7732635,-959911.7
-0.7732635,-960585.9
-0.7752311,-961094.1
-0.7752311,-961604.8
-0.7752311,-962124.9
-0.7752311,-962639.4
-0.7752311,-963335.6
-0.7771988,-963536.3
-0.7771988,-964166.8
-0.7771988,-964698.7
-0.7771988,-965431.8
-0.7791663,-965890.2
-0.7791663,-966457.8
-0.7791663,-967098.3
-0.7811339,-967344.8
-0.7811339,-967912.7
-0.7811339,-968538.8
-0.7831016,-968776.2
-0.7831016,-969506.8
-0.7831016,-970196.1
-0.7831016,-970830.2
-0.7850691,-971273
-0.7850691,-971883
-0.7850691,-972411.6
-0.7850691,-973053.6
-0.7870367,-973212.9
-0.7870367,-973832.6
-0.7870367,-974353.2
-0.7890043,-974667.4
-0.7890043,-975190.7
-0.7890043,-975769.7
-0.7909719,-976359.8
-0.7909719,-976934.8
-0.7929395,-977419.8
-0.7929395,-978078.2
-0.7929395,-978612.8
-0.7949071,-979242.8
-0.7949071,-979909.4
-0.7949071,-980566.8
-0.7949071,-981253.3
-0.7968747,-981494.6
-0.7968747,-982176.5
-0.7968747,-982851.6
-0.7968747,-983373.8
-0.7988423,-983616.4
-0.7988423,-984185.2
-0.8008099,-984756.9
-0.8008099,-985274.8
-0.8008099,-985869.5
-0.8027774,-986149.1
-0.8027774,-986760
-0.8027774,-987323.9
-0.8027774,-987888.6
-0.804745,-988206.9
-0.804745,-988772.6
-0.8067126,-989269.1
-0.8067126,-989847.1
-0.8067126,-990560.8
-0.8067126,-991087.4
-0.8086802,-991346.9
-0.8086802,-992004.6
-0.8086802,-992597.8
-0.8106478,-992855.4
-0.8106478,-993509.9
-0.8106478,-994117
-0.8126154,-994809.7
-0.8126154,-995336.1
-0.8126154,-995872.7
-0.8126154,-996587.3
-0.8126154,-997145.2
-0.8145829,-997192.6
-0.8145829,-997756.4
-0.8145829,-998294.9
-0.8165506,-998589.1
-0.8165506,-999103.1
-0.8185182,-999235.9
-0.8185182,-999746.6
-0.8185182,-1000459
-0.8185182,-1000970
-0.8185182,-1001666
-0.8185182,-1002256
-0.8204858,-1002424
-0.8204858,-1003005
-0.8204858,-1003627
-0.8224534,-1004153
-0.8224534,-1004708
-0.8244209,-1005299
-0.8244209,-1005876
-0.8244209,-1006416
-0.8244209,-1007074
-0.8263885,-1007536
-0.8263885,-1008061
-0.8263885,-1008593
-0.8263885,-1009188
-0.8283561,-1009400
-0.8283561,-1009953
-0.8303237,-1010516
-0.8303237,-1011158
-0.8303237,-1011709
-0.8322913,-1011905
-0.8322913,-1012455
-0.8322913,-1013000
-0.8322913,-1013575
-0.834259,-1014209
