0.0,-256119.9
0.0,-255581.9
0.0,-254810.4
0.0,-254290.2
0.0,-253709.5
0.0,-254278.8
0.0,-254850.2
0.0,-255502.5
0.0,-256231.2
0.0,-256815.4
0.0,-257437.8
0.0,-257980.5
0.0,-257342.4
0.0,-256781.2
0.0,-256186.4
0.0,-255651.0
0.0,-255025.5
0.0,-254491.0
-0.001967592,-254611.1
-0.001967592,-255365.3
-0.001967592,-255966.8
-0.001967592,-256668.1
-0.001967592,-257380.0
-0.001967592,-258076.3
-0.001967592,-258774.8
-0.001967592,-259454.9
-0.001967592,-260057.7
-0.001967592,-260611.4
-0.001967592,-259995.4
-0.001967592,-259296.7
-0.001967592,-258415.3
-0.001967592,-257529.1
-0.001967592,-256744.7
-0.001967592,-256187.4
-0.001967592,-256822.9
-0.001967592,-257381.0
-0.001967592,-257904.3
-0.003935183,-257954.7
-0.003935183,-258580.6
-0.003935183,-259178.9
-0.003935183,-259916.4
-0.003935183,-260695.7
-0.005902775999999999,-261086.7
-0.005902775999999999,-261818.0
-0.005902775999999999,-262452.3
-0.005902775999999999,-263037.7
-0.007870367,-263587.1
-0.007870367,-264122.1
-0.007870367,-264700.8
-0.009837959,-265349.8
-0.009837959,-266017.0
-0.009837959,-266678.2
-0.01180555,-267307.8
-0.01180555,-267946.2
-0.01180555,-268668.1
-0.01377314,-269436.9
-0.01377314,-270196.2
-0.01377314,-270937.4
-0.01574073,-271298.7
-0.01574073,-272031.5
-0.01574073,-272825.0
-0.01770833,-273232.9
-0.01770833,-274028.7
-0.01770833,-274738.8
-0.01967592,-275065.2
-0.01967592,-275665.0
-0.02164351,-276383.6
-0.02164351,-277078.7
-0.0236111,-277340.4
-0.0236111,-277906.2
-0.0236111,-278453.2
-0.02557869,-278717.4
-0.02557869,-279240.9
-0.02557869,-279764.4
-0.02754628,-280030.9
-0.02754628,-280543.7
-0.02754628,-281247.7
-0.02951388,-281464.0
-0.02951388,-282071.1
-0.03148147,-282265.0
-0.03148147,-282845.9
-0.03148147,-283473.0
-0.03344906,-283673.6
-0.03344906,-284304.9
-0.03541665,-284840.1
-0.03541665,-285427.0
-0.03541665,-285960.0
-0.03541665,-286601.6
-0.03738425,-286948.7
-0.03738425,-287505.5
-0.03935184,-287566.7
-0.03935184,-288163.1
-0.04131943,-288632.7
-0.04131943,-289203.9
-0.04328702,-289852.0
-0.04328702,-290536.6
-0.04328702,-291064.4
-0.04328702,-291584.9
-0.04525461,-291737.7
-0.0472222,-292126.0
-0.0472222,-292697.0
-0.04918979,-293052.9
-0.04918979,-293584.3
-0.04918979,-294228.1
-0.04918979,-294859.6
-0.05115739,-295018.0
-0.05115739,-295551.8
-0.05115739,-296075.1
-0.05312498,-296302.1
-0.05312498,-296816.9
-0.05509257,-297090.8
-0.05509257,-297612.3
-0.05706016,-297450.4
-0.05706016,-298114.8
-0.05902775,-298577.7
-0.05902775,-299333.1
-0.05902775,-300053.0
-0.05902775,-300645.1
-0.06099534,-300999.1
-0.06099534,-301546.2
-0.06296293,-302017.3
-0.06296293,-302528.7
-0.06493053,-302587.3
-0.06493053,-303123.3
-0.06689812,-303566.1
-0.06689812,-304150.1
-0.06689812,-304769.3
-0.06886571,-304931.5
-0.06886571,-305473.6
-0.06886571,-306097.3
-0.06886571,-306742.5
-0.0708333,-307161.0
-0.0708333,-307678.8
-0.0708333,-308218.4
-0.07280089999999999,-308385.8
-0.07280089999999999,-308981.0
-0.07476849,-309392.2
-0.07673608,-309600.6
-0.07673608,-310207.4
-0.07673608,-310867.4
-0.07870367,-311191.8
-0.07870367,-311721.4
-0.08067126,-312009.5
-0.08067126,-312581.2
-0.08263886,-312777.8
-0.08263886,-313323.6
-0.08460645,-313898.3
-0.08460645,-314463.2
-0.08460645,-315094.9
-0.08657404,-315764.9
-0.08657404,-316394.4
-0.08657404,-316928.5
-0.08854163,-317187.0
-0.08854163,-317751.7
-0.09050922,-318065.5
-0.09050922,-318581.2
-0.09247681,-318921.4
-0.09247681,-319448.8
-0.09247681,-319984.9
-0.09247681,-320562.3
-0.09444441,-320702.2
-0.09444441,-321230.1
-0.09444441,-321756.4
-0.096412,-321890.6
-0.096412,-322436.8
-0.09837959,-322522.5
-0.09837959,-323052.8
-0.1003472,-323635.4
-0.1003472,-324159.0
-0.1023148,-324509.6
-0.1023148,-325089.0
-0.1023148,-325719.7
-0.10428239999999998,-326356.4
-0.10428239999999998,-326878.2
-0.10625,-327435.1
-0.10625,-328012.7
-0.1082175,-328466.6
-0.1082175,-329011.8
-0.11018510000000001,-329441.6
-0.11018510000000001,-330072.8
-0.11018510000000001,-330712.7
-0.11215270000000001,-331184.2
-0.11215270000000001,-331785.3
-0.1141203,-332320.3
-0.1141203,-332838.6
-0.1160879,-332866.8
-0.1160879,-333380.3
-0.11805550000000001,-333456.8
-0.11805550000000001,-334091.7
-0.11805550000000001,-334741.7
-0.1200231,-334898.8
-0.1200231,-335471.1
-0.1200231,-336009.7
-0.1219907,-336204.0
-0.1219907,-336883.4
-0.1219907,-337464.5
-0.1219907,-337982.7
-0.12395830000000001,-338117.5
-0.1259259,-338633.8
-0.1259259,-339205.1
-0.1259259,-339738.7
-0.1278935,-340161.9
-0.1278935,-340763.0
-0.1278935,-341328.3
-0.1278935,-341858.3
-0.1298611,-341936.8
-0.1298611,-342446.8
-0.13182860000000002,-342761.5
-0.13379620000000003,-342862.7
-0.1357638,-343502.0
-0.1357638,-344124.0
-0.1357638,-344792.8
-0.13773139999999998,-345351.4
-0.13773139999999998,-345902.0
-0.13773139999999998,-346459.6
-0.139699,-346614.3
-0.139699,-347143.6
-0.1416666,-347489.3
-0.1416666,-348021.6
-0.1416666,-348684.6
-0.14363420000000002,-349129.6
-0.14363420000000002,-349685.1
-0.14363420000000002,-350229.4
-0.14560179999999998,-350352.8
-0.14560179999999998,-350931.6
-0.1475694,-351456.1
-0.1475694,-352069.8
-0.14953699999999998,-352448.6
-0.14953699999999998,-352961.9
-0.15150460000000002,-353153.5
-0.15150460000000002,-353708.1
-0.15347220000000003,-353842.2
-0.15347220000000003,-354413.9
-0.15347220000000003,-354965.7
-0.15347220000000003,-355492.2
-0.15543970000000001,-356081.2
-0.15543970000000001,-356636.5
-0.1574073,-357041.6
-0.1574073,-357566.9
-0.1593749,-357637.4
-0.1593749,-358180.3
-0.1613425,-358565.3
-0.1613425,-359131.9
-0.1613425,-359749.8
-0.1613425,-360291.1
-0.1633101,-360380.0
-0.1633101,-360972.4
-0.1652777,-361520.5
-0.1652777,-362103.3
-0.1652777,-362618.6
-0.16724529999999999,-362918.0
-0.16724529999999999,-363492.5
-0.1692129,-364082.9
-0.1692129,-364662.8
-0.1692129,-365251.7
-0.1692129,-365781.4
-0.1711805,-365960.5
-0.1731481,-366256.9
-0.1751157,-366819.6
-0.1751157,-367425.4
-0.1770833,-367993.5
-0.1770833,-368565.3
-0.1770833,-369182.7
-0.1790509,-369459.4
-0.1790509,-370070.7
-0.1790509,-370727.4
-0.1810184,-371059.9
-0.1810184,-371686.8
-0.1829861,-372072.3
-0.1829861,-372653.3
-0.1829861,-373268.7
-0.1849536,-373466.2
-0.1849536,-374058.7
-0.1849536,-374616.5
-0.1869212,-375087.0
-0.1869212,-375662.5
-0.1869212,-376172.8
-0.1888888,-376324.6
-0.1888888,-376884.2
-0.19085639999999998,-376616.8
-0.19085639999999998,-377276.0
-0.19085639999999998,-377869.4
-0.192824,-377976.1
-0.192824,-378581.7
-0.192824,-379182.4
-0.1947916,-379347.8
-0.1947916,-380014.1
-0.1947916,-380527.4
-0.19675920000000002,-380277.8
-0.19872679999999998,-380443.8
-0.19872679999999998,-381082.1
-0.19872679999999998,-381622.3
-0.19872679999999998,-382152.0
-0.2006944,-382571.1
-0.2006944,-383196.0
-0.2006944,-383715.4
-0.2006944,-384236.3
-0.20266199999999998,-384389.5
-0.20266199999999998,-384902.0
-0.20462950000000002,-385367.9
-0.20462950000000002,-385980.2
-0.20462950000000002,-386601.3
-0.2065971,-387054.4
-0.2065971,-387610.4
-0.2085647,-387765.5
-0.2085647,-388422.7
-0.2085647,-389028.9
-0.21053229999999998,-389187.4
-0.2124999,-389788.5
-0.2124999,-390336.6
-0.2144675,-390856.5
-0.21643510000000002,-391398.8
-0.21643510000000002,-392036.7
-0.21643510000000002,-392700.1
-0.2184027,-393192.5
-0.2184027,-393850.6
-0.2184027,-394404.8
-0.2184027,-394932.1
-0.2203703,-395239.2
-0.2203703,-395768.7
-0.2203703,-396311.4
-0.22233789999999998,-396524.7
-0.2243055,-396817.6
-0.22627310000000003,-397268.6
-0.22627310000000003,-397925.0
-0.22627310000000003,-398437.5
-0.22627310000000003,-399002.1
-0.22824070000000002,-399102.9
-0.22824070000000002,-399683.1
-0.23020820000000003,-400135.3
-0.23020820000000003,-400802.1
-0.23020820000000003,-401334.9
-0.2321758,-401936.7
-0.2321758,-402513.2
-0.2321758,-403094.1
-0.23414339999999997,-403246.9
-0.23414339999999997,-403940.1
-0.23414339999999997,-404507.4
-0.23414339999999997,-405117.5
-0.23611100000000002,-405236.0
-0.2380786,-405665.6
-0.2400462,-406203.0
-0.2420138,-406730.5
-0.2420138,-407286.4
-0.2420138,-407829.7
-0.2439814,-408427.1
-0.2439814,-408981.2
-0.2439814,-409548.0
-0.24594899999999997,-409763.2
-0.24594899999999997,-410333.5
-0.24594899999999997,-410954.3
-0.24791660000000001,-411249.2
-0.24791660000000001,-411818.0
-0.2498841,-412205.2
-0.2498841,-412740.4
-0.2498841,-413258.8
-0.2518517,-413469.8
-0.2518517,-414033.4
-0.2518517,-414604.6
-0.25381929999999997,-414717.2
-0.25381929999999997,-415276.2
-0.25578690000000004,-415882.0
-0.25578690000000004,-416519.7
-0.25578690000000004,-417075.3
-0.2577545,-417201.3
-0.2577545,-417755.2
-0.2597221,-417868.2
-0.2597221,-418444.3
-0.2597221,-419049.1
-0.26168969999999997,-419288.8
-0.2636573,-419669.9
-0.2636573,-420392.3
-0.2636573,-421113.6
-0.2636573,-421731.3
-0.26562490000000005,-422166.8
-0.2675925,-422379.6
-0.2675925,-423012.3
-0.2675925,-423626.4
-0.2675925,-424285.4
-0.26956009999999997,-424455.5
-0.2715277,-424582.0
-0.2715277,-425180.7
-0.2715277,-425721.5
-0.2734953,-426007.7
-0.2734953,-426613.3
-0.27546279999999995,-427116.0
-0.27546279999999995,-427685.3
-0.27546279999999995,-428357.6
-0.2774304,-428661.3
-0.2774304,-429178.5
-0.2793981,-429651.7
-0.2793981,-430207.0
-0.2813656,-430401.9
-0.2813656,-430993.2
-0.2813656,-431598.1
-0.2833332,-431872.1
-0.2833332,-432386.8
-0.28530079999999997,-432881.8
-0.28530079999999997,-433425.1
-0.28530079999999997,-433984.1
-0.28726840000000003,-434122.9
-0.28726840000000003,-434656.3
-0.28726840000000003,-435305.6
-0.28726840000000003,-435850.6
-0.289236,-436185.7
-0.29120359999999995,-436688.8
-0.29120359999999995,-437346.8
-0.29120359999999995,-437958.3
-0.2931712,-437931.1
-0.2931712,-437382.2
-0.2951388,-437939.3
-0.2951388,-438589.9
-0.2951388,-439173.2
-0.2951388,-439741.9
-0.29710640000000005,-439837.1
-0.29710640000000005,-440432.8
-0.29907399999999995,-440773.7
-0.29907399999999995,-441341.0
-0.29907399999999995,-441904.6
-0.29907399999999995,-442471.9
-0.3010415,-442713.1
-0.3010415,-443253.4
-0.3010415,-443818.8
-0.3030091,-444100.4
-0.3030091,-444770.3
-0.3030091,-445393.2
-0.30497670000000004,-445698.4
-0.3069443,-446253.4
-0.3069443,-446785.7
-0.3089119,-446926.8
-0.3089119,-447465.0
-0.3089119,-447993.7
-0.31087950000000003,-448507.5
-0.31087950000000003,-449044.8
-0.31087950000000003,-449558.8
-0.31284709999999993,-450067.3
-0.31284709999999993,-450585.5
-0.3148147,-451168.5
-0.3148147,-451710.3
-0.31678229999999996,-451922.6
-0.31678229999999996,-452492.4
-0.31874990000000003,-452994.6
-0.31874990000000003,-453652.4
-0.31874990000000003,-454166.2
-0.32071750000000004,-454494.9
-0.32071750000000004,-455005.6
-0.322685,-455199.3
-0.322685,-455759.1
-0.3246527,-456305.4
-0.3246527,-456886.0
-0.3246527,-457417.0
-0.3246527,-458008.0
-0.3266203,-458401.1
-0.3266203,-458973.3
-0.3285878,-459494.3
-0.3285878,-460029.8
-0.3285878,-460600.8
-0.3305554,-460810.4
-0.332523,-461099.4
-0.332523,-461664.1
-0.332523,-462249.8
-0.332523,-462762.7
-0.33449059999999997,-462898.0
-0.33449059999999997,-463438.0
-0.33645820000000004,-463884.6
-0.33645820000000004,-464404.0
-0.3384258,-464461.3
-0.3384258,-464987.1
-0.3384258,-465679.2
-0.3403934,-465883.4
-0.3403934,-466528.8
-0.3403934,-467129.5
-0.3403934,-467656.5
-0.342361,-467968.5
-0.342361,-468575.2
-0.3443286,-468983.6
-0.3443286,-469582.1
-0.3462962,-469864.6
-0.3482637,-470463.6
-0.3482637,-471001.6
-0.3482637,-471540.5
-0.3502313,-471823.7
-0.3502313,-472403.0
-0.3502313,-473044.4
-0.3521989,-473261.6
-0.3521989,-473864.4
-0.3541665,-473239.9
-0.3541665,-473986.8
-0.3561341,-474260.1
-0.3561341,-474801.8
-0.3561341,-475484.4
-0.3561341,-476023.1
-0.3581017,-476161.2
-0.3581017,-476683.2
-0.3581017,-477210.2
-0.3600693,-477372.6
-0.3600693,-478007.9
-0.3600693,-478533.5
-0.3620369,-478537.3
-0.3620369,-479090.0
-0.3640045,-479615.2
-0.3640045,-480323.3
-0.3640045,-481001.9
-0.3640045,-481568.3
-0.36597209999999997,-481691.9
-0.36597209999999997,-482336.0
-0.36597209999999997,-482882.4
-0.3679397,-483346.1
-0.3679397,-483870.9
-0.3699073,-483932.1
-0.3699073,-484555.2
-0.3718749,-485116.6
-0.3718749,-485661.5
-0.3738424,-485743.3
-0.3738424,-486256.7
-0.37581,-486377.3
-0.37581,-486980.0
-0.37581,-487498.9
-0.3777776,-488004.4
-0.3777776,-488555.1
-0.3777776,-489090.1
-0.3797452,-489193.9
-0.3797452,-489720.4
-0.3797452,-490231.5
-0.38171279999999996,-490550.3
-0.38171279999999996,-491089.1
-0.38171279999999996,-491665.8
-0.38368040000000003,-492000.3
-0.38368040000000003,-492544.7
-0.385648,-493185.0
-0.385648,-493760.0
-0.385648,-494347.8
-0.3876156,-494732.9
-0.3876156,-495252.3
-0.38958309999999996,-495315.8
-0.38958309999999996,-495904.2
-0.38958309999999996,-496437.1
-0.3915508,-496573.0
-0.3915508,-497115.8
-0.3915508,-497630.2
-0.39351840000000005,-497829.8
-0.39351840000000005,-498419.7
-0.39351840000000005,-498967.8
-0.39548590000000006,-499084.3
-0.39548590000000006,-499652.8
-0.39745349999999996,-499936.6
-0.39745349999999996,-500459.0
-0.3994211,-500827.6
-0.3994211,-501437.5
-0.3994211,-501965.3
-0.40138870000000004,-502151.0
-0.40138870000000004,-502677.4
-0.40138870000000004,-503222.6
-0.4033563,-503300.2
-0.4033563,-503868.9
-0.4033563,-504383.1
-0.4053239,-504601.7
-0.4053239,-505142.3
-0.4053239,-505731.4
-0.4072915,-506114.1
-0.4072915,-506719.1
-0.4072915,-507335.6
-0.4092591,-507647.2
-0.4092591,-508220.8
-0.4112267,-508596.0
-0.4112267,-509121.0
-0.4131942,-509159.5
-0.41516179999999997,-509632.6
-0.41516179999999997,-510164.8
-0.41516179999999997,-510774.7
-0.4171295,-511048.1
-0.4171295,-511649.4
-0.4171295,-512271.5
-0.41909700000000005,-512687.3
-0.41909700000000005,-513248.0
-0.41909700000000005,-513848.8
-0.42106459999999996,-514155.6
-0.42106459999999996,-514727.3
-0.4230323,-515250.5
-0.4230323,-515848.3
-0.4230323,-516438.3
-0.4249998,-516853.7
-0.4249998,-517387.2
-0.4269674,-517845.4
-0.4269674,-518434.1
-0.4269674,-519038.5
-0.428935,-519174.1
-0.428935,-519752.9
-0.43090259999999997,-519883.1
-0.43287020000000004,-520290.8
-0.43287020000000004,-520830.9
-0.43287020000000004,-521463.0
-0.43287020000000004,-521980.6
-0.4348378,-522147.3
-0.4348378,-522672.4
-0.4348378,-523217.5
-0.4368054,-523393.0
-0.4368054,-523904.8
-0.4387729,-524446.9
-0.4387729,-525005.6
-0.4407406,-525394.1
-0.4407406,-525961.7
-0.4427081,-526211.6
-0.4427081,-526759.7
-0.4427081,-527409.9
-0.44467570000000006,-527955.8
-0.44467570000000006,-528469.1
-0.4466433,-528887.0
-0.4466433,-529449.5
-0.4466433,-530054.1
-0.44861090000000003,-530210.8
-0.44861090000000003,-530732.9
-0.4505785,-531219.4
-0.4505785,-531774.2
-0.45254609999999995,-532174.3
-0.45254609999999995,-532774.9
-0.45254609999999995,-533292.4
-0.45451369999999996,-533384.3
-0.45648130000000003,-533952.1
-0.45648130000000003,-534492.6
-0.45648130000000003,-535111.6
-0.45844890000000005,-535279.0
-0.45844890000000005,-535810.8
-0.45844890000000005,-536440.4
-0.4604165,-536909.9
-0.4604165,-537510.7
-0.4604165,-538104.6
-0.46238409999999996,-538527.8
-0.4643517,-538861.3
-0.4643517,-539380.8
-0.4643517,-539901.9
-0.4663192,-540377.8
-0.46828679999999995,-540957.9
-0.46828679999999995,-541525.8
-0.47025439999999996,-541905.4
-0.47025439999999996,-542464.0
-0.47222200000000003,-542800.6
-0.47222200000000003,-543390.2
-0.47222200000000003,-543904.9
-0.4741896,-544294.0
-0.4741896,-544970.3
-0.4741896,-545534.8
-0.4761572,-545734.3
-0.4761572,-546320.5
-0.4761572,-546839.0
-0.47812479999999996,-546973.6
-0.47812479999999996,-547542.1
-0.4800924,-547956.9
-0.4800924,-548570.8
-0.48206000000000004,-549005.4
-0.48206000000000004,-549621.8
-0.4840276,-549744.9
-0.4840276,-550260.2
-0.4840276,-550826.9
-0.4859952,-551167.8
-0.4859952,-551689.6
-0.4859952,-552281.8
-0.4879628,-552393.1
-0.4879628,-552948.1
-0.4879628,-553537.1
-0.4899304,-553990.6
-0.4899304,-554547.9
-0.49189790000000005,-554892.2
-0.49189790000000005,-555484.1
-0.49386549999999996,-555794.8
-0.49386549999999996,-556307.3
-0.4958331,-556793.0
-0.4958331,-557337.5
-0.49780070000000004,-557692.8
-0.49780070000000004,-558216.9
-0.4997683,-558534.1
-0.4997683,-559077.1
-0.5017359,-559506.3
-0.5017359,-560063.9
-0.5037035,-560288.4
-0.5037035,-560857.0
-0.5056710999999999,-561029.9
-0.5056710999999999,-561662.6
-0.5056710999999999,-562174.9
-0.5076387,-562713.9
-0.5076387,-563328.1
-0.5076387,-563918.9
-0.5076387,-564445.1
-0.5096063,-564618.2
-0.5096063,-565225.9
-0.5096063,-565795.7
-0.5115739,-566145.0
-0.5115739,-566667.3
-0.5135415,-566736.4
-0.5135415,-567321.1
-0.5135415,-567848.1
-0.515509,-568019.0
-0.515509,-568537.4
-0.515509,-569060.4
-0.515509,-569575.1
-0.5174766,-569639.4
-0.5174766,-570166.8
-0.5194442,-570562.0
-0.5214118,-571126.1
-0.5214118,-571718.3
-0.5214118,-572341.8
-0.5233793999999999,-572452.1
-0.5233793999999999,-573035.9
-0.525347,-573320.5
-0.525347,-573863.5
-0.525347,-574386.4
-0.5273145,-574557.9
-0.5273145,-575105.7
-0.5273145,-575700.0
-0.5292821999999999,-575855.5
-0.5292821999999999,-576390.1
-0.5292821999999999,-577012.6
-0.5312498000000001,-577578.1
-0.5312498000000001,-578143.4
-0.5332174,-578527.2
-0.5332174,-579153.9
-0.535185,-579744.5
-0.535185,-580273.6
-0.5371524999999999,-580590.9
-0.5371524999999999,-581100.8
-0.5371524999999999,-581612.1
-0.5391201,-581755.8
-0.5391201,-582348.3
-0.5391201,-582884.1
-0.5410877,-582901.6
-0.5430554,-583332.8
-0.5430554,-583952.4
-0.5450229,-584562.4
-0.5450229,-585151.6
-0.5450229,-585717.8
-0.5469904999999999,-586100.6
-0.5469904999999999,-586630.3
-0.5469904999999999,-587245.7
-0.5489581,-587468.9
-0.5489581,-588047.1
-0.5509257,-588391.0
-0.5509257,-588959.4
-0.5509257,-589473.3
-0.5528933000000001,-589676.9
-0.5528933000000001,-590196.3
-0.5548609,-590670.0
-0.5548609,-591198.4
-0.5568284,-591549.2
-0.5568284,-592119.4
-0.5568284,-592676.3
-0.5587960999999999,-592767.1
-0.5587960999999999,-593356.3
-0.5607637,-593636.2
-0.5607637,-594155.3
-0.5627312,-594417.1
-0.5627312,-595001.4
-0.5627312,-595580.4
-0.5646988000000001,-596018.8
-0.5646988000000001,-596540.4
-0.5666664,-596647.0
-0.5666664,-597259.6
-0.5666664,-597891.7
-0.5666664,-598439.0
-0.568634,-598723.4
-0.5706015999999999,-599039.3
-0.5706015999999999,-599661.6
-0.5706015999999999,-600232.4
-0.5706015999999999,-600815.7
-0.5725691999999999,-600975.9
-0.5725691999999999,-601540.6
-0.5725691999999999,-602073.2
-0.5745368000000001,-602414.3
-0.5765043000000001,-602895.3
-0.578472,-603278.7
-0.578472,-603814.6
-0.5804395999999999,-604426.0
-0.5804395999999999,-605036.0
-0.5804395999999999,-605552.2
-0.5824071999999999,-606014.9
-0.5824071999999999,-606617.3
-0.5824071999999999,-607133.0
-0.5843746999999999,-607476.9
-0.5843746999999999,-608023.9
-0.5863424,-608330.9
-0.5863424,-608924.4
-0.5863424,-609498.6
-0.58831,-609609.5
-0.58831,-610188.4
-0.58831,-610770.1
-0.5902776,-611395.6
-0.5902776,-611981.9
-0.5922451,-612473.8
-0.5922451,-613031.4
-0.5942126999999999,-613098.0
-0.5942126999999999,-613625.1
-0.5942126999999999,-614161.6
-0.5961803000000001,-614386.4
-0.5961803000000001,-614919.5
-0.5981479000000001,-615252.9
-0.5981479000000001,-615798.1
-0.6001155,-616333.3
-0.6001155,-616878.9
-0.6001155,-617505.1
-0.6020831,-617800.4
-0.6020831,-618347.5
-0.6020831,-619016.4
-0.6040506,-619489.9
-0.6040506,-620087.6
-0.6040506,-620628.1
-0.6060182,-620795.7
-0.6060182,-621340.3
-0.6079859000000001,-621696.9
-0.6079859000000001,-622252.9
-0.6079859000000001,-622770.3
-0.6099535,-622943.1
-0.6099535,-623571.2
-0.6099535,-624133.7
-0.6099535,-624672.2
-0.6119210999999999,-624789.1
-0.6119210999999999,-625325.5
-0.6138886,-625378.6
-0.6158562,-625787.6
-0.6158562,-626379.3
-0.6158562,-627054.4
-0.6158562,-627642.6
-0.6178238,-627922.8
-0.6178238,-628471.9
-0.6178238,-629060.2
-0.6197914000000001,-629230.3
-0.6197914000000001,-629771.6
-0.6217590000000001,-630341.7
-0.6217590000000001,-630905.0
-0.6237265999999999,-631048.0
-0.6237265999999999,-631616.9
-0.6237265999999999,-632290.1
-0.6256941999999999,-632785.9
-0.6256941999999999,-633311.2
-0.6256941999999999,-633851.8
-0.6276618,-634062.3
-0.6276618,-634706.3
-0.6276618,-635309.2
-0.6296294,-635598.4
-0.6296294,-636220.3
-0.6315969,-636270.8
-0.6335645000000001,-636708.9
-0.6335645000000001,-637312.6
-0.6335645000000001,-637839.2
-0.6355321,-638199.6
-0.6355321,-638847.9
-0.6355321,-639397.1
-0.6355321,-639927.1
-0.6374996999999999,-640299.9
-0.6374996999999999,-640853.7
-0.6394674,-640947.8
-0.6394674,-641510.5
-0.6414349,-642125.6
-0.6414349,-642681.6
-0.6434025,-643207.1
-0.6434025,-643867.7
-0.6434025,-644424.1
-0.6453701000000001,-644903.6
-0.6453701000000001,-645515.2
-0.6453701000000001,-646115.5
-0.6473376999999999,-646748.8
-0.6473376999999999,-647320.9
-0.6493053000000001,-647219.9
-0.6493053000000001,-647777.6
-0.6493053000000001,-648288.6
-0.651273,-648459.9
-0.651273,-649023.6
-0.651273,-649618.9
-0.6532405,-649742.8
-0.6532405,-650256.9
-0.6532405,-650805.7
-0.655208,-651057.9
-0.655208,-651644.3
-0.6571756999999999,-651924.3
-0.6571756999999999,-652481.1
-0.6591433000000001,-653064.3
-0.6591433000000001,-653691.3
-0.6591433000000001,-654354.9
-0.6611109000000001,-654761.3
-0.6611109000000001,-655317.1
-0.6611109000000001,-655863.6
-0.6630785,-655992.9
-0.6630785,-656510.2
-0.6630785,-657084.2
-0.665046,-657236.9
-0.665046,-657857.4
-0.665046,-658427.7
-0.6670136,-658684.3
-0.6670136,-659265.8
-0.6670136,-659857.0
-0.6689811999999999,-660072.4
-0.6689811999999999,-660597.3
-0.6709488,-661126.0
-0.6709488,-661774.7
-0.6709488,-662322.8
-0.6729164000000001,-662420.0
-0.6729164000000001,-662994.6
-0.674884,-663278.5
-0.674884,-663803.3
-0.6768516,-663883.9
-0.6768516,-664553.7
-0.6768516,-665068.7
-0.6768516,-665719.7
-0.6788192,-665892.9
-0.6788192,-666428.0
-0.6788192,-666958.2
-0.6807867,-667119.0
-0.6807867,-667695.2
-0.6807867,-668295.5
-0.6827543,-668490.4
-0.6827543,-669069.2
-0.6827543,-669646.3
-0.6847219,-669912.7
-0.6847219,-670472.9
-0.6866896,-670755.9
-0.6866896,-671283.6
-0.6886571,-671817.5
-0.6886571,-672418.9
-0.6886571,-672992.8
-0.6906247,-673464.4
-0.6906247,-674029.4
-0.6925923,-674412.8
-0.6925923,-675005.8
-0.6945599,-675369.5
-0.6945599,-675914.2
-0.6965275,-676392.4
-0.6965275,-677114.9
-0.6965275,-677813.9
-0.6965275,-678477.1
-0.6984951,-678668.1
-0.6984951,-679241.4
-0.7004626,-679403.8
-0.7004626,-679963.6
-0.7024302,-680388.7
-0.7024302,-680995.8
-0.7024302,-681538.9
-0.7043979,-681873.0
-0.7043979,-682426.3
-0.7063655,-683037.3
-0.7063655,-683618.0
-0.7063655,-684149.0
-0.708333,-684698.9
-0.708333,-685313.1
-0.708333,-685870.1
-0.7103007,-685979.8
-0.7103007,-686511.7
-0.7122682,-686720.4
-0.7122682,-687298.5
-0.7122682,-687865.4
-0.7142358,-688056.9
-0.7142358,-688605.2
-0.7142358,-689143.6
-0.7162035,-689451.2
-0.7162035,-690083.1
-0.7162035,-690624.3
-0.7181711,-690949.4
-0.7201386,-691274.2
-0.7201386,-691911.3
-0.7201386,-692491.2
-0.7201386,-693117.4
-0.7221062,-693219.6
-0.7221062,-693739.9
-0.7240738,-693828.8
-0.7240738,-694338.6
-0.7240738,-694955.3
-0.7260414000000001,-695444.7
-0.728009,-696012.6
-0.728009,-696636.0
-0.728009,-697310.4
-0.7299766,-697761.4
-0.7299766,-698312.3
-0.7299766,-698871.6
-0.7319441999999999,-699323.3
-0.7319441999999999,-699909.2
-0.7319441999999999,-700460.3
-0.7339118,-700635.3
-0.7339118,-701186.5
-0.7358793,-701547.5
-0.7358793,-702103.1
-0.7378469,-702185.1
-0.7378469,-702738.2
-0.7378469,-703337.4
-0.7398145,-703462.5
-0.7398145,-704019.2
-0.7417821,-704440.9
-0.7417821,-705088.4
-0.7417821,-705742.2
-0.7437497,-706106.4
-0.7457173,-706527.0
-0.7457173,-707184.9
-0.7457173,-707873.8
-0.7476848,-708330.0
-0.7476848,-709035.9
-0.7476848,-709715.5
-0.7476848,-710331.9
-0.7496524,-710445.3
-0.7496524,-710965.3
-0.7496524,-711589.7
-0.7516201,-711921.4
-0.7516201,-712468.3
-0.7516201,-713033.8
-0.7535877,-713451.6
-0.7555553,-713608.1
-0.7555553,-714190.1
-0.7555553,-714729.9
-0.7575228,-715084.3
-0.7575228,-715611.8
-0.7575228,-716234.9
-0.7594904,-716774.7
-0.7594904,-717395.7
-0.7594904,-717966.0
-0.7594904,-718607.9
-0.761458,-718728.1
-0.7634255999999999,-719238.2
-0.7634255999999999,-719796.9
-0.7653932,-720114.8
-0.7653932,-720670.4
-0.7653932,-721225.1
-0.7673607,-721577.1
-0.7673607,-722192.8
-0.7673607,-722775.1
-0.7673607,-723321.9
-0.7693284,-723345.0
-0.771296,-723709.2
-0.771296,-724300.4
-0.771296,-724954.5
-0.771296,-725472.9
-0.7732635,-725518.4
-0.7732635,-726069.3
-0.7752311,-726451.6
-0.7752311,-727113.9
-0.7771988000000001,-727600.9
-0.7771988000000001,-728153.5
-0.7771988000000001,-728707.4
-0.7791663000000001,-729187.6
-0.7791663000000001,-729711.0
-0.7811339,-730019.6
-0.7811339,-730623.6
-0.7811339,-731222.4
-0.7831016,-731352.9
-0.7831016,-731913.6
-0.7831016,-732508.6
-0.7850691,-732729.1
-0.7850691,-733271.6
-0.7850691,-733823.9
-0.7870366999999999,-734095.8
-0.7870366999999999,-734687.1
-0.7870366999999999,-735233.3
-0.7890043000000001,-735434.8
-0.7890043000000001,-735983.2
-0.7890043000000001,-736561.4
-0.7909719,-736874.9
-0.7909719,-737414.2
-0.7929395,-737826.7
-0.7929395,-738426.3
-0.7949071,-738877.7
-0.7949071,-739500.2
-0.7949071,-740056.8
-0.7968746999999999,-740227.2
-0.7968746999999999,-740776.0
-0.7988423000000001,-741103.1
-0.7988423000000001,-741749.9
-0.7988423000000001,-742320.1
-0.8008099,-742636.7
-0.8008099,-743298.1
-0.8008099,-743846.3
-0.8027774000000001,-744028.9
-0.8047449999999999,-744392.9
-0.8047449999999999,-744937.6
-0.8067126,-745506.3
-0.8067126,-746100.8
-0.8067126,-746667.6
-0.8086802,-747244.1
-0.8086802,-747806.4
-0.8086802,-748335.4
-0.8106478,-748740.1
-0.8126154000000001,-748968.9
-0.8126154000000001,-749528.4
-0.8126154000000001,-750234.4
-0.8145829000000001,-750750.4
-0.8145829000000001,-751362.3
-0.8165505999999999,-751682.8
-0.8165505999999999,-752248.1
-0.8185182,-752649.4
-0.8185182,-753166.2
-0.8185182,-753742.4
-0.8204858,-754101.5
-0.8204858,-754700.9
-0.8204858,-755271.5
-0.8204858,-755796.0
-0.8224534,-756128.8
-0.8224534,-756752.5
-0.8244209000000001,-757192.3
-0.8244209000000001,-757761.8
-0.8244209000000001,-758280.3
-0.8263885,-758455.7
-0.8263885,-759041.7
-0.8283560999999999,-759393.0
-0.8283560999999999,-759972.9
-0.8283560999999999,-760575.6
-0.8303236999999999,-761072.1
-0.8303236999999999,-761638.4
-0.8303236999999999,-762161.4
-0.8322913000000001,-762268.8
-0.8322913000000001,-762821.9
-0.834259,-762977.6
