0.0,-284354.9
0.0,-284930.6
0.0,-285465.1
0.0,-286064.1
0.0,-286619.6
-0.001967592,-286708.7
-0.001967592,-286145.2
-0.001967592,-285635.4
-0.001967592,-286327.9
-0.001967592,-287080.1
-0.001967592,-287633.8
-0.001967592,-288223.3
-0.001967592,-288829.9
-0.003935183,-289378.8
-0.003935183,-290028.7
-0.003935183,-290551.6
-0.003935183,-291122.1
-0.003935183,-291800.5
-0.003935183,-292316.9
-0.003935183,-292862.0
-0.003935183,-293535.9
-0.003935183,-294049.7
-0.005902775999999999,-294119.2
-0.005902775999999999,-294801.2
-0.005902775999999999,-295396.9
-0.005902775999999999,-295974.6
-0.007870367,-296412.3
-0.007870367,-297117.2
-0.007870367,-297873.9
-0.007870367,-298779.4
-0.007870367,-299793.6
-0.007870367,-300339.0
-0.007870367,-300900.6
-0.007870367,-301457.7
-0.007870367,-301980.3
-0.007870367,-302839.8
-0.009837959,-303406.8
-0.009837959,-303944.1
-0.01180555,-304506.8
-0.01180555,-305262.8
-0.01180555,-305805.1
-0.01180555,-306316.9
-0.01180555,-306882.4
-0.01180555,-307528.8
-0.01180555,-308128.7
-0.01377314,-308852.3
-0.01377314,-309688.9
-0.01377314,-310578.9
-0.01377314,-311482.8
-0.01377314,-312319.6
-0.01377314,-313007.5
-0.01377314,-313584.8
-0.01377314,-314168.5
-0.01377314,-314750.8
-0.01574073,-315018.0
-0.01574073,-315688.4
-0.01574073,-316244.5
-0.01574073,-316894.9
-0.01770833,-317216.6
-0.01770833,-317765.3
-0.01770833,-318355.0
-0.01770833,-319066.8
-0.01770833,-319620.8
-0.01770833,-320177.9
-0.01770833,-320750.4
-0.01770833,-321369.6
-0.01770833,-322055.1
-0.01770833,-322809.5
-0.01967592,-323197.3
-0.01967592,-323911.8
-0.01967592,-324503.9
-0.01967592,-325157.2
-0.02164351,-325247.6
-0.02164351,-325865.4
-0.0236111,-326417.0
-0.0236111,-327109.9
-0.0236111,-327915.2
-0.0236111,-328772.3
-0.0236111,-329619.6
-0.02557869,-330047.1
-0.02557869,-330930.8
-0.02557869,-331881.0
-0.02557869,-332914.1
-0.02754628,-333459.1
-0.02754628,-334022.5
-0.02754628,-334604.6
-0.02754628,-335205.8
-0.02754628,-335827.8
-0.02754628,-336470.8
-0.02754628,-337129.2
-0.02754628,-337794.4
-0.02951388,-338462.6
-0.02951388,-339135.3
-0.02951388,-339811.3
-0.02951388,-340486.3
-0.02951388,-341159.8
-0.02951388,-341832.8
-0.02951388,-342502.5
-0.02951388,-343162.1
-0.03148147,-343808.3
-0.03148147,-344443.7
-0.03148147,-345072.3
-0.03148147,-345698.3
-0.03148147,-346323.5
-0.03148147,-346945.3
-0.03148147,-347557.8
-0.03344906,-348154.8
-0.03344906,-348730.3
-0.03344906,-349280.6
-0.03344906,-349804.0
-0.03344906,-350773.1
-0.03344906,-351671.2
-0.03541665,-352104.5
-0.03541665,-352925.1
-0.03541665,-353693.6
-0.03738425,-354431.6
-0.03738425,-355178.5
-0.03738425,-356047.7
-0.03738425,-357103.5
-0.03738425,-357686.7
-0.03935184,-358288.9
-0.03935184,-358890.5
-0.03935184,-359473.9
-0.03935184,-360034.6
-0.03935184,-360580.4
-0.03935184,-361120.8
-0.03935184,-361657.6
-0.04131943,-362183.5
-0.04131943,-363175.8
-0.04131943,-364125.2
-0.04131943,-365091.9
-0.04328702,-365582.5
-0.04328702,-366626.1
-0.04328702,-367207.4
-0.04328702,-367831.3
-0.04328702,-368490.0
-0.04328702,-369170.5
-0.04328702,-369856.9
-0.04525461,-370535.9
-0.04525461,-371201.3
-0.04525461,-371851.7
-0.04525461,-372486.9
-0.04525461,-373102.2
-0.04525461,-373685.5
-0.04525461,-374222.3
-0.0472222,-374706.1
-0.0472222,-375549.1
-0.0472222,-376291.4
-0.0472222,-376973.8
-0.04918979,-377630.3
-0.04918979,-378276.6
-0.04918979,-378947.2
-0.04918979,-379671.4
-0.05115739,-380432.1
-0.05115739,-381181.9
-0.05115739,-381922.8
-0.05115739,-382619.8
-0.05312498,-383294.4
-0.05312498,-384013.3
-0.05312498,-384755.7
-0.05312498,-385508.4
-0.05509257,-385896.2
-0.05509257,-386703.1
-0.05509257,-387576.7
-0.05509257,-388481.7
-0.05509257,-389250.8
-0.05706016,-389885.9
-0.05706016,-390551.3
-0.05706016,-391368.9
-0.05706016,-392293.4
-0.05902775,-392761.6
-0.05902775,-393655.6
-0.05902775,-394474.8
-0.05902775,-395250.4
-0.05902775,-395984.7
-0.06099534,-396328.0
-0.06099534,-396928.9
-0.06099534,-397658.5
-0.06099534,-398168.5
-0.06296293,-398713.3
-0.06296293,-399337.1
-0.06296293,-399995.3
-0.06296293,-400648.8
-0.06296293,-401308.0
-0.06493053,-401924.6
-0.06493053,-402536.4
-0.06493053,-403177.0
-0.06493053,-403877.9
-0.06689812,-404657.8
-0.06689812,-405510.8
-0.06689812,-406406.7
-0.06689812,-407324.2
-0.06689812,-408224.4
-0.06689812,-409067.0
-0.06886571,-409461.6
-0.06886571,-410197.1
-0.06886571,-410879.8
-0.06886571,-411482.0
-0.06886571,-411997.1
-0.0708333,-412223.9
-0.0708333,-412825.9
-0.0708333,-413595.6
-0.0708333,-414185.0
-0.07280089999999999,-414729.4
-0.07280089999999999,-415270.8
-0.07280089999999999,-415896.8
-0.07280089999999999,-416619.6
-0.07280089999999999,-417366.3
-0.07476849,-417727.9
-0.07476849,-418425.9
-0.07476849,-419103.3
-0.07476849,-419744.8
-0.07476849,-420320.3
-0.07673608,-421048.0
-0.07673608,-421716.3
-0.07673608,-422283.5
-0.07673608,-423003.3
-0.07673608,-423837.8
-0.07870367,-424298.5
-0.07870367,-425263.8
-0.07870367,-426213.1
-0.07870367,-427069.5
-0.07870367,-427727.5
-0.08067126,-428163.9
-0.08263886,-428814.2
-0.08263886,-429517.5
-0.08263886,-430215.3
-0.08263886,-431081.5
-0.08263886,-432024.2
-0.08263886,-432983.8
-0.08460645,-433475.0
-0.08460645,-434480.9
-0.08460645,-435441.9
-0.08460645,-436284.2
-0.08460645,-437006.4
-0.08460645,-437604.2
-0.08657404,-438039.2
-0.08657404,-438648.3
-0.08657404,-439287.3
-0.08657404,-440023.6
-0.08854163,-440295.2
-0.08854163,-440898.1
-0.08854163,-441580.7
-0.08854163,-442319.2
-0.08854163,-443036.2
-0.08854163,-443663.2
-0.09050922,-444183.6
-0.09050922,-444790.4
-0.09050922,-445426.2
-0.09050922,-446201.3
-0.09050922,-446811.1
-0.09247681,-447127.3
-0.09247681,-447777.0
-0.09247681,-448462.9
-0.09247681,-449148.9
-0.09247681,-449847.8
-0.09247681,-450527.7
-0.09444441,-450857.3
-0.09444441,-451510.8
-0.09444441,-452132.5
-0.09444441,-452686.3
-0.09444441,-453356.0
-0.096412,-453714.4
-0.096412,-454297.2
-0.096412,-455031.0
-0.096412,-455662.5
-0.096412,-456400.3
-0.09837959,-456827.1
-0.09837959,-457727.3
-0.09837959,-458623.3
-0.09837959,-459414.1
-0.09837959,-459984.5
-0.1003472,-460527.3
-0.1003472,-461057.1
-0.1003472,-461696.6
-0.1003472,-462325.6
-0.1023148,-462691.8
-0.1023148,-463467.3
-0.1023148,-464222.9
-0.1023148,-464886.0
-0.1023148,-465433.3
-0.1023148,-465981.6
-0.10428239999999998,-466588.5
-0.10428239999999998,-467260.0
-0.10428239999999998,-468033.9
-0.10428239999999998,-468853.2
-0.10428239999999998,-469652.5
-0.10428239999999998,-470435.1
-0.10625,-470797.5
-0.10625,-471444.9
-0.10625,-472027.2
-0.10625,-472594.1
-0.10625,-473194.5
-0.10625,-473838.9
-0.1082175,-474519.8
-0.1082175,-475228.5
-0.1082175,-475962.3
-0.1082175,-476694.0
-0.1082175,-477319.7
-0.11018510000000001,-477867.1
-0.11018510000000001,-478436.3
-0.11018510000000001,-478976.1
-0.11018510000000001,-479529.2
-0.11215270000000001,-479859.0
-0.11215270000000001,-480603.5
-0.11215270000000001,-481401.7
-0.11215270000000001,-482196.6
-0.11215270000000001,-482970.8
-0.11215270000000001,-483665.1
-0.11215270000000001,-484257.1
-0.1141203,-484543.7
-0.1141203,-485130.1
-0.1141203,-485750.3
-0.1141203,-486391.5
-0.1141203,-487034.8
-0.1141203,-487634.1
-0.1160879,-487904.3
-0.1160879,-488416.8
-0.1160879,-489170.8
-0.1160879,-489927.5
-0.1160879,-490522.1
-0.11805550000000001,-491191.3
-0.11805550000000001,-491909.2
-0.11805550000000001,-492628.1
-0.11805550000000001,-493286.6
-0.11805550000000001,-493856.6
-0.11805550000000001,-494473.6
-0.1200231,-494619.4
-0.1200231,-495223.8
-0.1200231,-495799.3
-0.1200231,-496552.6
-0.1219907,-496850.5
-0.1219907,-497540.7
-0.1219907,-498358.9
-0.1219907,-499266.5
-0.1219907,-500194.6
-0.1219907,-501045.0
-0.12395830000000001,-501831.3
-0.12395830000000001,-502576.1
-0.12395830000000001,-503267.3
-0.12395830000000001,-503872.0
-0.12395830000000001,-504617.2
-0.1259259,-505093.5
-0.1259259,-505826.8
-0.1259259,-506373.8
-0.1259259,-506965.4
-0.1259259,-507611.5
-0.1259259,-508284.6
-0.1278935,-508614.7
-0.1278935,-509278.5
-0.1278935,-509955.2
-0.1278935,-510636.8
-0.1278935,-511300.8
-0.1278935,-511953.9
-0.1298611,-512609.9
-0.1298611,-513274.3
-0.1298611,-513956.9
-0.1298611,-514648.8
-0.1298611,-515302.3
-0.1298611,-515892.9
-0.13182860000000002,-516465.7
-0.13182860000000002,-517015.3
-0.13182860000000002,-517717.8
-0.13182860000000002,-518289.9
-0.13379620000000003,-518585.5
-0.13379620000000003,-519208.6
-0.13379620000000003,-519921.2
-0.1357638,-520553.4
-0.1357638,-521328.9
-0.1357638,-522294.8
-0.1357638,-522841.3
-0.1357638,-523413.0
-0.1357638,-523992.8
-0.1357638,-524563.2
-0.1357638,-525107.3
-0.13773139999999998,-526084.1
-0.13773139999999998,-526903.0
-0.13773139999999998,-527567.3
-0.13773139999999998,-528181.5
-0.13773139999999998,-528767.4
-0.13773139999999998,-529296.3
-0.139699,-529768.0
-0.139699,-530527.1
-0.139699,-531137.6
-0.139699,-531879.0
-0.139699,-532674.6
-0.139699,-533404.9
-0.1416666,-533730.4
-0.1416666,-534351.4
-0.1416666,-534968.1
-0.1416666,-535497.7
-0.1416666,-536031.2
-0.14363420000000002,-536390.3
-0.14363420000000002,-537039.8
-0.14363420000000002,-537631.3
-0.14363420000000002,-538405.0
-0.14363420000000002,-539266.9
-0.14560179999999998,-539702.3
-0.14560179999999998,-540576.2
-0.14560179999999998,-541458.8
-0.14560179999999998,-542333.1
-0.14560179999999998,-543166.0
-0.14560179999999998,-543917.6
-0.1475694,-544582.1
-0.1475694,-545212.0
-0.1475694,-545816.8
-0.1475694,-546362.4
-0.1475694,-546995.8
-0.14953699999999998,-547158.6
-0.14953699999999998,-547696.7
-0.14953699999999998,-548345.6
-0.14953699999999998,-549091.5
-0.14953699999999998,-549700.7
-0.15150460000000002,-550050.6
-0.15150460000000002,-550825.7
-0.15150460000000002,-551703.1
-0.15150460000000002,-552634.3
-0.15150460000000002,-553532.6
-0.15150460000000002,-554369.3
-0.15347220000000003,-555111.6
-0.15347220000000003,-555730.1
-0.15347220000000003,-556440.4
-0.15347220000000003,-556989.6
-0.15347220000000003,-557587.8
-0.15543970000000001,-557828.8
-0.15543970000000001,-558402.3
-0.15543970000000001,-559093.2
-0.15543970000000001,-559762.9
-0.15543970000000001,-560435.6
-0.1574073,-560969.8
-0.1574073,-561671.4
-0.1574073,-562206.2
-0.1574073,-562774.6
-0.1574073,-563393.6
-0.1593749,-564094.6
-0.1593749,-564827.6
-0.1593749,-565524.6
-0.1593749,-566129.8
-0.1593749,-566683.0
-0.1593749,-567200.8
-0.1613425,-567711.5
-0.1613425,-568271.2
-0.1613425,-568908.1
-0.1613425,-569661.1
-0.1613425,-570511.8
-0.1613425,-571343.9
-0.1633101,-572078.6
-0.1633101,-572690.9
-0.1633101,-573201.1
-0.1633101,-573904.4
-0.1633101,-574526.4
-0.1652777,-574957.7
-0.1652777,-575743.9
-0.1652777,-576434.0
-0.1652777,-577169.2
-0.1652777,-577859.2
-0.1652777,-578482.4
-0.16724529999999999,-579022.3
-0.16724529999999999,-579747.8
-0.16724529999999999,-580306.8
-0.16724529999999999,-580971.4
-0.16724529999999999,-581639.5
-0.1692129,-582249.7
-0.1692129,-582889.2
-0.1692129,-583655.9
-0.1692129,-584593.1
-0.1692129,-585557.8
-0.1692129,-586422.0
-0.1692129,-587158.5
-0.1711805,-587477.8
-0.1711805,-588021.4
-0.1711805,-588624.5
-0.1711805,-589211.6
-0.1731481,-589342.4
-0.1731481,-589961.0
-0.1731481,-590511.6
-0.1731481,-591102.4
-0.1731481,-591708.8
-0.1751157,-592310.3
-0.1751157,-592821.4
-0.1751157,-593391.9
-0.1751157,-593975.9
-0.1770833,-594633.2
-0.1770833,-595240.9
-0.1770833,-595996.3
-0.1770833,-596914.5
-0.1770833,-597906.1
-0.1770833,-598887.5
-0.1790509,-599805.4
-0.1790509,-600596.7
-0.1790509,-601256.1
-0.1790509,-601825.9
-0.1790509,-602345.3
-0.1790509,-603094.8
-0.1810184,-603346.9
-0.1810184,-603867.4
-0.1810184,-604427.9
-0.1810184,-604978.7
-0.1810184,-605718.3
-0.1829861,-606361.5
-0.1829861,-607036.4
-0.1829861,-607570.9
-0.1829861,-608180.3
-0.1829861,-608851.6
-0.1849536,-609556.8
-0.1849536,-610272.6
-0.1849536,-610970.2
-0.1849536,-611624.7
-0.1849536,-612215.8
-0.1849536,-612949.5
-0.1869212,-613374.0
-0.1869212,-613994.3
-0.1869212,-614549.8
-0.1869212,-615207.9
-0.1869212,-615927.0
-0.1869212,-616693.8
-0.1888888,-617083.4
-0.1888888,-617862.3
-0.1888888,-618619.7
-0.1888888,-619304.2
-0.1888888,-619855.2
-0.1888888,-620497.8
-0.19085639999999998,-620688.3
-0.19085639999999998,-621255.3
-0.19085639999999998,-621975.8
-0.19085639999999998,-622519.0
-0.19085639999999998,-623060.1
-0.192824,-623339.5
-0.192824,-623907.8
-0.192824,-624485.1
-0.192824,-625027.2
-0.192824,-625646.8
-0.1947916,-626158.6
-0.1947916,-626833.8
-0.1947916,-627504.7
-0.1947916,-628322.8
-0.1947916,-629187.8
-0.1947916,-630087.0
-0.19675920000000002,-630551.5
-0.19675920000000002,-631468.5
-0.19675920000000002,-632272.4
-0.19675920000000002,-632869.0
-0.19675920000000002,-633411.8
-0.19872679999999998,-634066.6
-0.19872679999999998,-634627.1
-0.19872679999999998,-635233.0
-0.19872679999999998,-635839.8
-0.19872679999999998,-636433.7
-0.19872679999999998,-637014.1
-0.2006944,-637281.8
-0.2006944,-637938.1
-0.2006944,-638458.9
-0.2006944,-639186.5
-0.20266199999999998,-639824.9
-0.20266199999999998,-640563.5
-0.20266199999999998,-641370.4
-0.20266199999999998,-642254.9
-0.20266199999999998,-643171.3
-0.20266199999999998,-644013.3
-0.20462950000000002,-644371.7
-0.20462950000000002,-644983.6
-0.20462950000000002,-645542.5
-0.20462950000000002,-646073.8
-0.20462950000000002,-646599.3
-0.20462950000000002,-647175.6
-0.2065971,-647791.8
-0.2065971,-648443.4
-0.2065971,-649108.1
-0.2065971,-649765.2
-0.2065971,-650425.1
-0.2065971,-651044.1
-0.2085647,-651332.4
-0.2085647,-651874.4
-0.2085647,-652574.9
-0.2085647,-653275.8
-0.2085647,-654009.4
-0.21053229999999998,-654252.7
-0.21053229999999998,-655028.2
-0.21053229999999998,-655622.4
-0.21053229999999998,-656315.4
-0.21053229999999998,-657093.9
-0.21053229999999998,-657923.5
-0.2124999,-658333.4
-0.2124999,-659128.3
-0.2124999,-659912.0
-0.2124999,-660656.2
-0.2124999,-661297.9
-0.2124999,-661835.9
-0.2144675,-662076.3
-0.2144675,-662781.4
-0.2144675,-663537.8
-0.2144675,-664049.5
-0.21643510000000002,-664744.9
-0.21643510000000002,-665399.8
-0.21643510000000002,-666124.7
-0.21643510000000002,-666636.0
-0.21643510000000002,-667166.1
-0.2184027,-667762.6
-0.2184027,-668422.6
-0.2184027,-669174.6
-0.2184027,-669973.3
-0.2184027,-670731.4
-0.2184027,-671385.9
-0.2203703,-671910.1
-0.2203703,-672599.6
-0.2203703,-673320.5
-0.2203703,-673856.1
-0.2203703,-674488.4
-0.22233789999999998,-675227.4
-0.22233789999999998,-676053.3
-0.22233789999999998,-676959.1
-0.22233789999999998,-677836.7
-0.22233789999999998,-678603.0
-0.22233789999999998,-679260.1
-0.2243055,-679799.1
-0.2243055,-680309.9
-0.2243055,-680864.3
-0.2243055,-681440.4
-0.2243055,-682012.9
-0.2243055,-682649.1
-0.22627310000000003,-682974.8
-0.22627310000000003,-683621.5
-0.22627310000000003,-684238.4
-0.22627310000000003,-684806.6
-0.22627310000000003,-685342.3
-0.22824070000000002,-686064.1
-0.22824070000000002,-686692.9
-0.22824070000000002,-687343.5
-0.22824070000000002,-688089.4
-0.22824070000000002,-688611.9
-0.23020820000000003,-688896.8
-0.23020820000000003,-689551.4
-0.23020820000000003,-690299.3
-0.23020820000000003,-691047.3
-0.23020820000000003,-691750.9
-0.23020820000000003,-692414.2
-0.2321758,-693040.4
-0.2321758,-693651.7
-0.2321758,-694234.9
-0.2321758,-694818.7
-0.2321758,-695403.0
-0.2321758,-696030.3
-0.23414339999999997,-696371.7
-0.23414339999999997,-697096.1
-0.23414339999999997,-697792.1
-0.23414339999999997,-698456.5
-0.23414339999999997,-699123.4
-0.23414339999999997,-699790.6
-0.23611100000000002,-700119.3
-0.23611100000000002,-700737.3
-0.23611100000000002,-701300.9
-0.23611100000000002,-701818.6
-0.23611100000000002,-702345.7
-0.23611100000000002,-702857.4
-0.2380786,-703321.6
-0.2380786,-703994.4
-0.2380786,-704545.4
-0.2380786,-705214.6
-0.2380786,-705970.9
-0.2400462,-706358.0
-0.2400462,-707123.5
-0.2400462,-707953.2
-0.2400462,-708871.5
-0.2400462,-709838.7
-0.2400462,-710787.8
-0.2420138,-711661.8
-0.2420138,-712402.0
-0.2420138,-713005.6
-0.2420138,-713596.5
-0.2439814,-714047.4
-0.2439814,-714637.0
-0.2439814,-715160.4
-0.2439814,-715834.6
-0.2439814,-716570.9
-0.24594899999999997,-716951.2
-0.24594899999999997,-717721.2
-0.24594899999999997,-718491.7
-0.24594899999999997,-719216.9
-0.24594899999999997,-719844.4
-0.24594899999999997,-720382.5
-0.24791660000000001,-720914.4
-0.24791660000000001,-721516.1
-0.24791660000000001,-722214.9
-0.24791660000000001,-723011.8
-0.24791660000000001,-723856.9
-0.24791660000000001,-724676.4
-0.2498841,-725409.4
-0.2498841,-726068.2
-0.2498841,-726622.8
-0.2498841,-727259.7
-0.2498841,-727934.8
-0.2518517,-728558.3
-0.2518517,-729318.9
-0.2518517,-730154.6
-0.2518517,-731004.1
-0.2518517,-731793.1
-0.2518517,-732459.1
-0.25381929999999997,-732719.8
-0.25381929999999997,-733271.3
-0.25381929999999997,-733833.8
-0.25578690000000004,-734366.9
-0.25578690000000004,-735193.5
-0.25578690000000004,-735943.5
-0.25578690000000004,-736773.8
-0.25578690000000004,-737596.6
-0.2577545,-738372.4
-0.2577545,-739103.6
-0.2577545,-739820.5
-0.2577545,-740490.1
-0.2577545,-741050.6
-0.2577545,-741568.2
-0.2597221,-741844.9
-0.2597221,-742460.4
-0.2597221,-743185.6
-0.2597221,-743991.3
-0.2597221,-744803.7
-0.2597221,-745533.7
-0.26168969999999997,-746192.5
-0.26168969999999997,-746783.9
-0.26168969999999997,-747320.2
-0.26168969999999997,-747998.3
-0.26168969999999997,-748588.4
-0.2636573,-749071.6
-0.2636573,-749642.7
-0.2636573,-750271.2
-0.2636573,-750957.0
-0.2636573,-751715.1
-0.2636573,-752510.1
-0.26562490000000005,-753284.7
-0.26562490000000005,-753961.5
-0.26562490000000005,-754502.2
-0.26562490000000005,-755226.8
-0.26562490000000005,-755881.7
-0.2675925,-756350.9
-0.2675925,-756879.5
-0.2675925,-757487.2
-0.2675925,-758205.2
-0.2675925,-758940.4
-0.2675925,-759627.0
-0.2675925,-760301.8
-0.26956009999999997,-760623.9
-0.26956009999999997,-761214.4
-0.26956009999999997,-761774.3
-0.26956009999999997,-762357.3
-0.26956009999999997,-762945.8
-0.26956009999999997,-763506.9
-0.2715277,-764021.3
-0.2715277,-764691.4
-0.2715277,-765335.2
-0.2715277,-765974.1
-0.2734953,-766361.8
-0.2734953,-766968.6
-0.2734953,-767574.5
-0.2734953,-768287.8
-0.2734953,-769044.6
-0.27546279999999995,-769849.4
-0.27546279999999995,-770727.8
-0.27546279999999995,-771622.8
-0.27546279999999995,-772385.7
-0.27546279999999995,-772939.6
-0.27546279999999995,-773548.6
-0.2774304,-773974.1
-0.2774304,-774748.9
-0.2774304,-775354.6
-0.2774304,-776064.7
-0.2774304,-776836.3
-0.2793981,-777609.6
-0.2793981,-778348.0
-0.2793981,-779001.5
-0.2793981,-779525.3
-0.2793981,-780140.9
-0.2793981,-780719.1
-0.2813656,-780931.8
-0.2813656,-781676.3
-0.2813656,-782265.7
-0.2813656,-782946.2
-0.2813656,-783679.8
-0.2833332,-784418.4
-0.2833332,-785124.3
-0.2833332,-785807.3
-0.2833332,-786489.3
-0.2833332,-787177.5
-0.2833332,-787871.9
-0.28530079999999997,-788572.4
-0.28530079999999997,-789285.3
-0.28530079999999997,-790002.9
-0.28530079999999997,-790685.1
-0.28530079999999997,-791216.4
-0.28530079999999997,-791743.3
-0.28726840000000003,-791877.0
-0.28726840000000003,-792420.9
-0.28726840000000003,-792935.6
-0.28726840000000003,-793599.1
-0.289236,-794145.8
-0.289236,-794786.6
-0.289236,-795496.9
-0.289236,-796230.2
-0.289236,-796910.8
-0.289236,-797559.1
-0.29120359999999995,-798237.0
-0.29120359999999995,-798935.9
-0.29120359999999995,-799651.9
-0.29120359999999995,-800415.2
-0.29120359999999995,-801200.6
-0.29120359999999995,-801958.6
-0.2931712,-802679.5
-0.2931712,-803362.7
-0.2931712,-804072.6
-0.2931712,-804775.1
-0.2931712,-805362.1
-0.2931712,-805972.9
-0.2951388,-806130.8
-0.2951388,-806761.0
-0.2951388,-807357.5
-0.2951388,-807928.5
-0.29710640000000005,-808196.5
-0.29710640000000005,-808815.2
-0.29710640000000005,-809522.8
-0.29710640000000005,-810256.6
-0.29710640000000005,-810937.4
-0.29710640000000005,-811447.8
-0.29907399999999995,-811793.8
-0.29907399999999995,-812306.1
-0.29907399999999995,-812916.4
-0.29907399999999995,-813438.3
-0.29907399999999995,-814090.8
-0.29907399999999995,-814863.4
-0.3010415,-815289.4
-0.3010415,-816175.3
-0.3010415,-817055.7
-0.3010415,-817885.5
-0.3010415,-818665.8
-0.3010415,-819377.7
-0.3030091,-819700.9
-0.3030091,-820313.8
-0.3030091,-820888.7
-0.3030091,-821462.7
-0.3030091,-822082.9
-0.3030091,-822762.3
-0.30497670000000004,-823114.4
-0.30497670000000004,-823838.3
-0.30497670000000004,-824609.1
-0.30497670000000004,-825415.4
-0.30497670000000004,-826213.3
-0.30497670000000004,-826997.3
-0.3069443,-827375.8
-0.3069443,-828063.9
-0.3069443,-828649.9
-0.3069443,-829380.7
-0.3069443,-830032.1
-0.3089119,-830381.7
-0.3089119,-830920.3
-0.3089119,-831533.4
-0.3089119,-832202.8
-0.31087950000000003,-832672.4
-0.31087950000000003,-833378.3
-0.31087950000000003,-833988.3
-0.31087950000000003,-834750.2
-0.31087950000000003,-835623.5
-0.31087950000000003,-836553.3
-0.31284709999999993,-837038.8
-0.31284709999999993,-838033.4
-0.31284709999999993,-839025.9
-0.31284709999999993,-839952.2
-0.31284709999999993,-840696.3
-0.31284709999999993,-841240.6
-0.3148147,-841468.1
-0.3148147,-842047.3
-0.3148147,-842584.4
-0.3148147,-843205.0
-0.31678229999999996,-843853.3
-0.31678229999999996,-844536.2
-0.31678229999999996,-845075.7
-0.31678229999999996,-845662.1
-0.31678229999999996,-846256.2
-0.31678229999999996,-846850.4
-0.31874990000000003,-847151.6
-0.31874990000000003,-847783.4
-0.31874990000000003,-848471.4
-0.31874990000000003,-849208.6
-0.31874990000000003,-849933.8
-0.31874990000000003,-850628.6
-0.32071750000000004,-851285.3
-0.32071750000000004,-851920.4
-0.32071750000000004,-852554.7
-0.32071750000000004,-853178.8
-0.32071750000000004,-853804.4
-0.32071750000000004,-854454.6
-0.32071750000000004,-855120.3
-0.322685,-855450.6
-0.322685,-856082.3
-0.322685,-856676.9
-0.322685,-857224.1
-0.322685,-857870.4
-0.3246527,-858522.0
-0.3246527,-859214.9
-0.3246527,-859962.1
-0.3246527,-860497.7
-0.3246527,-861236.3
-0.3266203,-861469.5
-0.3266203,-862141.3
-0.3266203,-862868.6
-0.3266203,-863451.4
-0.3266203,-864134.5
-0.3285878,-864927.0
-0.3285878,-865774.9
-0.3285878,-866608.4
-0.3285878,-867438.6
-0.3285878,-868257.3
-0.3285878,-869018.4
-0.3285878,-869725.9
-0.3305554,-870059.6
-0.3305554,-870694.4
-0.3305554,-871296.6
-0.3305554,-871884.3
-0.3305554,-872395.8
-0.332523,-872940.7
-0.332523,-873507.8
-0.33449059999999997,-874053.2
-0.33449059999999997,-874584.4
-0.33449059999999997,-875379.8
-0.33449059999999997,-876291.7
-0.33449059999999997,-877258.1
-0.33449059999999997,-878209.1
-0.33645820000000004,-879058.8
-0.33645820000000004,-879828.4
-0.33645820000000004,-880595.1
-0.33645820000000004,-881330.8
-0.33645820000000004,-882021.3
-0.3384258,-882736.8
-0.3384258,-883497.5
-0.3384258,-884275.9
-0.3384258,-885037.8
-0.3384258,-885723.9
-0.3384258,-886266.3
-0.3403934,-886728.6
-0.3403934,-887426.7
-0.3403934,-887936.2
-0.3403934,-888694.1
-0.342361,-889437.8
-0.342361,-890192.1
-0.342361,-890757.1
-0.342361,-891364.6
-0.342361,-892016.6
-0.342361,-892715.1
-0.3443286,-893085.4
-0.3443286,-893883.9
-0.3443286,-894757.8
-0.3443286,-895654.4
-0.3443286,-896499.1
-0.3443286,-897341.4
-0.3462962,-897774.3
-0.3462962,-898625.7
-0.3462962,-899337.7
-0.3462962,-899853.6
-0.3462962,-900444.6
-0.3462962,-901031.3
-0.3482637,-901233.3
-0.3482637,-901853.2
-0.3482637,-902499.6
-0.3482637,-903243.2
-0.3482637,-903788.5
-0.3502313,-904078.2
-0.3502313,-904696.7
-0.3502313,-905411.0
-0.3502313,-906182.8
-0.3502313,-906932.4
-0.3502313,-907627.3
-0.3521989,-908230.1
-0.3521989,-908971.6
-0.3521989,-909709.5
-0.3521989,-910260.4
-0.3521989,-910871.8
-0.3541665,-911545.2
-0.3541665,-912278.5
-0.3541665,-913049.8
-0.3541665,-913784.4
-0.3541665,-914366.8
-0.3541665,-915007.4
-0.3561341,-915169.6
-0.3561341,-915770.8
-0.3561341,-916458.9
-0.3561341,-916970.0
-0.3581017,-917728.3
-0.3581017,-918290.0
-0.3581017,-918860.7
-0.3581017,-919390.6
-0.3581017,-920143.8
-0.3581017,-920674.1
-0.3600693,-920976.6
-0.3600693,-921687.4
-0.3600693,-922527.4
-0.3600693,-923445.8
-0.3600693,-924321.3
-0.3600693,-925045.6
-0.3620369,-925594.3
-0.3620369,-926242.4
-0.3620369,-927040.1
-0.3620369,-927720.6
-0.3620369,-928490.4
-0.3640045,-929378.8
-0.3640045,-930385.6
-0.3640045,-931361.0
-0.3640045,-932160.5
-0.3640045,-932793.3
-0.36597209999999997,-932917.3
-0.36597209999999997,-933571.3
-0.36597209999999997,-934140.7
-0.3679397,-934968.8
-0.3679397,-935926.7
-0.3679397,-936880.9
-0.3679397,-937717.6
-0.3679397,-938366.7
-0.3679397,-938919.1
-0.3699073,-939465.6
-0.3699073,-940178.3
-0.3699073,-940916.6
-0.3699073,-941588.3
-0.3699073,-942348.1
-0.3699073,-943101.1
-0.3718749,-943461.1
-0.3718749,-944144.3
-0.3718749,-944811.6
-0.3718749,-945492.9
-0.3718749,-946172.6
-0.3718749,-946799.3
-0.3738424,-947092.6
-0.3738424,-947680.6
-0.3738424,-948281.0
-0.3738424,-948907.1
-0.3738424,-949512.8
-0.3738424,-950121.0
-0.37581,-950728.8
-0.37581,-951329.2
-0.37581,-951961.6
-0.37581,-952646.1
-0.37581,-953327.4
-0.37581,-953956.8
-0.3777776,-954251.3
-0.3777776,-954799.0
-0.3777776,-955337.8
-0.3777776,-955946.3
-0.3777776,-956611.2
-0.3777776,-957280.6
-0.3797452,-957945.3
-0.3797452,-958615.3
-0.3797452,-959283.5
-0.3797452,-959911.3
-0.3797452,-960479.1
-0.38171279999999996,-961166.8
-0.38171279999999996,-961766.4
-0.38171279999999996,-962391.7
-0.38171279999999996,-963027.5
-0.38368040000000003,-963771.4
-0.38368040000000003,-964438.2
-0.38368040000000003,-965246.5
-0.38368040000000003,-966097.6
-0.38368040000000003,-966919.8
-0.38368040000000003,-967684.8
-0.385648,-968384.3
-0.385648,-969035.9
-0.385648,-969675.9
-0.385648,-970314.7
-0.385648,-970963.9
-0.385648,-971647.2
-0.3876156,-972008.1
-0.3876156,-972734.2
-0.3876156,-973482.2
-0.3876156,-974203.0
-0.3876156,-974839.5
-0.3876156,-975433.7
-0.38958309999999996,-975731.1
-0.38958309999999996,-976338.6
-0.38958309999999996,-976993.7
-0.38958309999999996,-977697.9
-0.38958309999999996,-978394.9
-0.38958309999999996,-979082.0
-0.3915508,-979743.4
-0.3915508,-980366.5
-0.3915508,-980925.1
-0.3915508,-981637.6
-0.3915508,-982258.3
-0.39351840000000005,-982383.2
-0.39351840000000005,-983047.6
-0.39351840000000005,-983598.1
-0.39351840000000005,-984285.3
-0.39351840000000005,-985085.9
-0.39548590000000006,-985501.6
-0.39548590000000006,-986308.2
-0.39548590000000006,-987072.3
-0.39548590000000006,-987793.4
-0.39548590000000006,-988473.1
-0.39548590000000006,-989160.4
-0.39745349999999996,-989858.4
-0.39745349999999996,-990567.3
-0.39745349999999996,-991300.7
-0.39745349999999996,-992028.9
-0.39745349999999996,-992706.6
-0.39745349999999996,-993288.8
-0.3994211,-993766.6
-0.3994211,-994346.8
-0.3994211,-994898.6
-0.3994211,-995580.8
-0.40138870000000004,-996158.2
-0.40138870000000004,-996814.4
-0.40138870000000004,-997515.6
-0.40138870000000004,-998219.3
-0.40138870000000004,-998945.3
-0.40138870000000004,-999717.6
-0.40138870000000004,-1000513.0
-0.4033563,-1000910.0
-0.4033563,-1001740.0
-0.4033563,-1002625.0
-0.4033563,-1003565.0
-0.4033563,-1004521.0
-0.4053239,-1005436.0
-0.4053239,-1006194.0
-0.4053239,-1006744.0
-0.4053239,-1007323.0
-0.4072915,-1007750.0
-0.4072915,-1008300.0
-0.4072915,-1008945.0
-0.4072915,-1009603.0
-0.4092591,-1010119.0
-0.4092591,-1010686.0
-0.4092591,-1011295.0
-0.4092591,-1011926.0
-0.4092591,-1012568.0
-0.4092591,-1013184.0
-0.4112267,-1013845.0
-0.4112267,-1014605.0
-0.4112267,-1015451.0
-0.4112267,-1016337.0
-0.4112267,-1017250.0
-0.4112267,-1018214.0
-0.4112267,-1019211.0
-0.4131942,-1019721.0
-0.4131942,-1020719.0
-0.4131942,-1021594.0
-0.4131942,-1022244.0
-0.4131942,-1022854.0
-0.41516179999999997,-1023001.0
-0.4171295,-1023624.0
-0.4171295,-1024135.0
-0.4171295,-1024798.0
-0.4171295,-1025563.0
-0.4171295,-1026379.0
-0.4171295,-1027251.0
-0.41909700000000005,-1028155.0
-0.41909700000000005,-1029097.0
-0.41909700000000005,-1030075.0
-0.41909700000000005,-1031044.0
-0.41909700000000005,-1031962.0
-0.41909700000000005,-1032779.0
-0.42106459999999996,-1033478.0
-0.42106459999999996,-1034074.0
-0.42106459999999996,-1034601.0
-0.42106459999999996,-1035117.0
-0.42106459999999996,-1035633.0
-0.42106459999999996,-1036206.0
-0.4230323,-1036863.0
-0.4230323,-1037609.0
-0.4230323,-1038441.0
-0.4230323,-1039267.0
-0.4230323,-1039922.0
-0.4249998,-1040504.0
-0.4249998,-1041095.0
-0.4269674,-1041792.0
-0.4269674,-1042551.0
-0.4269674,-1043476.0
-0.4269674,-1044479.0
-0.4269674,-1045478.0
-0.4269674,-1046381.0
-0.428935,-1046761.0
-0.428935,-1047398.0
-0.428935,-1048048.0
-0.428935,-1048760.0
-0.428935,-1049471.0
-0.428935,-1050150.0
-0.43090259999999997,-1050819.0
-0.43090259999999997,-1051472.0
-0.43090259999999997,-1052090.0
-0.43090259999999997,-1052618.0
-0.43090259999999997,-1053143.0
-0.43287020000000004,-1053517.0
-0.43287020000000004,-1054103.0
-0.43287020000000004,-1054673.0
-0.43287020000000004,-1055349.0
-0.43287020000000004,-1056108.0
-0.4348378,-1056908.0
-0.4348378,-1057706.0
-0.4348378,-1058473.0
-0.4348378,-1059157.0
-0.4348378,-1059714.0
-0.4348378,-1060244.0
-0.4368054,-1060788.0
-0.4368054,-1061372.0
-0.4368054,-1062070.0
-0.4368054,-1062866.0
-0.4368054,-1063702.0
-0.4368054,-1064592.0
-0.4387729,-1065038.0
-0.4387729,-1065865.0
-0.4387729,-1066585.0
-0.4387729,-1067214.0
-0.4387729,-1067871.0
-0.4407406,-1068302.0
-0.4407406,-1068925.0
-0.4407406,-1069482.0
-0.4407406,-1070146.0
-0.4407406,-1070941.0
-0.4407406,-1071850.0
-0.4427081,-1072329.0
-0.4427081,-1073272.0
-0.4427081,-1074126.0
-0.4427081,-1074825.0
-0.4427081,-1075340.0
-0.44467570000000006,-1075856.0
-0.44467570000000006,-1076536.0
-0.44467570000000006,-1077365.0
-0.44467570000000006,-1078141.0
-0.44467570000000006,-1079030.0
-0.4466433,-1079494.0
-0.4466433,-1080385.0
-0.4466433,-1081172.0
-0.4466433,-1081904.0
-0.4466433,-1082529.0
-0.4466433,-1083153.0
-0.44861090000000003,-1083283.0
-0.44861090000000003,-1083816.0
-0.44861090000000003,-1084525.0
-0.44861090000000003,-1085064.0
-0.44861090000000003,-1085581.0
-0.4505785,-1085818.0
-0.4505785,-1086536.0
-0.4505785,-1087086.0
-0.4505785,-1087676.0
-0.4505785,-1088310.0
-0.4505785,-1088957.0
-0.45254609999999995,-1089267.0
-0.45254609999999995,-1089876.0
-0.45254609999999995,-1090563.0
-0.45254609999999995,-1091312.0
-0.45254609999999995,-1092043.0
-0.45254609999999995,-1092700.0
-0.45451369999999996,-1093000.0
-0.45451369999999996,-1093588.0
-0.45451369999999996,-1094216.0
-0.45451369999999996,-1094920.0
-0.45451369999999996,-1095686.0
-0.45451369999999996,-1096486.0
-0.45648130000000003,-1096906.0
-0.45648130000000003,-1097782.0
-0.45648130000000003,-1098686.0
-0.45648130000000003,-1099601.0
-0.45648130000000003,-1100468.0
-0.45648130000000003,-1101222.0
-0.45844890000000005,-1101858.0
-0.45844890000000005,-1102391.0
-0.45844890000000005,-1102991.0
-0.4604165,-1103530.0
-0.4604165,-1104209.0
-0.4604165,-1104997.0
-0.4604165,-1105679.0
-0.46238409999999996,-1106058.0
-0.46238409999999996,-1106891.0
-0.46238409999999996,-1107792.0
-0.46238409999999996,-1108682.0
-0.46238409999999996,-1109508.0
-0.46238409999999996,-1110270.0
-0.4643517,-1110968.0
-0.4643517,-1111672.0
-0.4643517,-1112453.0
-0.4643517,-1113295.0
-0.4643517,-1114118.0
-0.4643517,-1114908.0
-0.4663192,-1115297.0
-0.4663192,-1116078.0
-0.4663192,-1116881.0
-0.4663192,-1117610.0
-0.4663192,-1118149.0
-0.46828679999999995,-1118509.0
-0.46828679999999995,-1119170.0
-0.46828679999999995,-1119774.0
-0.46828679999999995,-1120448.0
-0.47025439999999996,-1120962.0
-0.47025439999999996,-1121564.0
-0.47025439999999996,-1122324.0
-0.47025439999999996,-1123200.0
-0.47025439999999996,-1124041.0
-0.47025439999999996,-1124816.0
-0.47222200000000003,-1125204.0
-0.47222200000000003,-1125977.0
-0.47222200000000003,-1126743.0
-0.47222200000000003,-1127465.0
-0.47222200000000003,-1128119.0
-0.47222200000000003,-1128707.0
-0.4741896,-1129005.0
-0.4741896,-1129674.0
-0.4741896,-1130427.0
-0.4741896,-1131245.0
-0.4741896,-1132105.0
-0.4741896,-1132991.0
-0.4761572,-1133422.0
-0.4761572,-1134208.0
-0.4761572,-1134894.0
-0.4761572,-1135447.0
-0.4761572,-1136012.0
-0.47812479999999996,-1136276.0
-0.47812479999999996,-1136869.0
-0.47812479999999996,-1137563.0
-0.4800924,-1137803.0
-0.4800924,-1138425.0
-0.4800924,-1139222.0
-0.4800924,-1140132.0
-0.4800924,-1141116.0
-0.4800924,-1141638.0
-0.4800924,-1142180.0
-0.48206000000000004,-1142741.0
-0.48206000000000004,-1143316.0
-0.48206000000000004,-1143894.0
-0.48206000000000004,-1144461.0
-0.48206000000000004,-1145003.0
-0.48206000000000004,-1145979.0
-0.48206000000000004,-1146810.0
-0.4840276,-1147517.0
-0.4840276,-1148133.0
-0.4840276,-1148669.0
-0.4840276,-1149310.0
-0.4840276,-1149921.0
-0.4859952,-1150159.0
-0.4859952,-1150710.0
-0.4859952,-1151375.0
-0.4859952,-1152137.0
-0.4859952,-1152943.0
-0.4859952,-1153755.0
-0.4879628,-1154165.0
-0.4879628,-1154954.0
-0.4879628,-1155653.0
-0.4879628,-1156265.0
-0.4879628,-1156992.0
-0.4899304,-1157437.0
-0.4899304,-1158212.0
-0.4899304,-1158892.0
-0.4899304,-1159637.0
-0.4899304,-1160375.0
-0.49189790000000005,-1160735.0
-0.49189790000000005,-1161452.0
-0.49189790000000005,-1162195.0
-0.49189790000000005,-1162918.0
-0.49189790000000005,-1163574.0
-0.49189790000000005,-1164170.0
-0.49386549999999996,-1164751.0
-0.49386549999999996,-1165358.0
-0.49386549999999996,-1165991.0
-0.49386549999999996,-1166633.0
-0.49386549999999996,-1167254.0
-0.49386549999999996,-1167837.0
-0.4958331,-1168369.0
-0.4958331,-1168898.0
-0.4958331,-1169419.0
-0.4958331,-1169954.0
-0.4958331,-1170502.0
-0.4958331,-1171094.0
-0.4958331,-1171700.0
-0.49780070000000004,-1172000.0
-0.49780070000000004,-1172598.0
-0.49780070000000004,-1173166.0
-0.49780070000000004,-1173727.0
-0.49780070000000004,-1174279.0
-0.49780070000000004,-1174813.0
-0.4997683,-1175082.0
-0.4997683,-1175630.0
-0.4997683,-1176222.0
-0.4997683,-1176860.0
-0.4997683,-1177528.0
-0.4997683,-1178210.0
-0.4997683,-1178933.0
-0.5017359,-1179309.0
-0.5017359,-1180061.0
-0.5017359,-1180720.0
-0.5017359,-1181266.0
-0.5017359,-1181993.0
-0.5037035,-1182603.0
-0.5037035,-1183264.0
-0.5037035,-1183810.0
-0.5037035,-1184442.0
-0.5037035,-1185115.0
-0.5037035,-1185754.0
-0.5056710999999999,-1186040.0
-0.5056710999999999,-1186762.0
-0.5056710999999999,-1187441.0
-0.5056710999999999,-1188071.0
-0.5056710999999999,-1188723.0
-0.5076387,-1188965.0
-0.5076387,-1189546.0
-0.5076387,-1190364.0
-0.5076387,-1191373.0
-0.5076387,-1191883.0
-0.5076387,-1192836.0
-0.5076387,-1193745.0
-0.5096063,-1194185.0
-0.5096063,-1194966.0
-0.5096063,-1195594.0
-0.5096063,-1196257.0
-0.5115739,-1196924.0
-0.5115739,-1197629.0
-0.5115739,-1198212.0
-0.5115739,-1198864.0
-0.5115739,-1199520.0
-0.5115739,-1200201.0
-0.5135415,-1200550.0
-0.5135415,-1201225.0
-0.5135415,-1201851.0
-0.5135415,-1202458.0
-0.5135415,-1203023.0
-0.5135415,-1203555.0
-0.515509,-1204082.0
-0.515509,-1204817.0
-0.515509,-1205333.0
-0.515509,-1205858.0
-0.515509,-1206397.0
-0.515509,-1206971.0
-0.5174766,-1207273.0
-0.5174766,-1207877.0
-0.5174766,-1208461.0
-0.5174766,-1209047.0
-0.5174766,-1209588.0
-0.5174766,-1210110.0
-0.5194442,-1210691.0
-0.5194442,-1211326.0
-0.5194442,-1211989.0
-0.5194442,-1212682.0
-0.5194442,-1213379.0
-0.5194442,-1214026.0
-0.5214118,-1214331.0
-0.5214118,-1214875.0
-0.5214118,-1215557.0
-0.5214118,-1216276.0
-0.5214118,-1216792.0
-0.5233793999999999,-1217332.0
-0.5233793999999999,-1217932.0
-0.5233793999999999,-1218575.0
-0.5233793999999999,-1219244.0
-0.5233793999999999,-1219899.0
-0.5233793999999999,-1220524.0
-0.525347,-1220820.0
-0.525347,-1221406.0
-0.525347,-1222056.0
-0.525347,-1222813.0
-0.525347,-1223664.0
-0.525347,-1224560.0
-0.5273145,-1225013.0
-0.5273145,-1225903.0
-0.5273145,-1226757.0
-0.5273145,-1227555.0
-0.5273145,-1228212.0
-0.5273145,-1228918.0
-0.5292821999999999,-1229102.0
-0.5292821999999999,-1229778.0
-0.5292821999999999,-1230516.0
-0.5292821999999999,-1231140.0
-0.5312498000000001,-1231820.0
-0.5312498000000001,-1232554.0
-0.5312498000000001,-1233295.0
-0.5312498000000001,-1233984.0
-0.5312498000000001,-1234514.0
-0.5312498000000001,-1235166.0
-0.5332174,-1235311.0
-0.5332174,-1236011.0
-0.5332174,-1236738.0
-0.5332174,-1237296.0
-0.535185,-1237920.0
-0.535185,-1238596.0
-0.535185,-1239325.0
-0.535185,-1240094.0
-0.535185,-1240837.0
-0.535185,-1241526.0
-0.535185,-1242212.0
-0.5371524999999999,-1242557.0
-0.5371524999999999,-1243270.0
-0.5371524999999999,-1244019.0
-0.5371524999999999,-1244780.0
-0.5371524999999999,-1245511.0
-0.5371524999999999,-1246205.0
-0.5391201,-1246535.0
-0.5391201,-1247143.0
-0.5391201,-1247718.0
-0.5391201,-1248242.0
-0.5391201,-1248841.0
-0.5410877,-1249324.0
-0.5410877,-1250003.0
-0.5410877,-1250655.0
-0.5410877,-1251211.0
-0.5410877,-1251846.0
-0.5430554,-1252205.0
-0.5430554,-1252981.0
-0.5430554,-1253723.0
-0.5430554,-1254392.0
-0.5430554,-1254992.0
-0.5430554,-1255567.0
-0.5430554,-1256139.0
-0.5450229,-1256426.0
-0.5450229,-1257003.0
-0.5450229,-1257619.0
-0.5450229,-1258344.0
-0.5450229,-1259165.0
-0.5450229,-1260037.0
-0.5469904999999999,-1260460.0
-0.5469904999999999,-1261245.0
-0.5469904999999999,-1261895.0
-0.5469904999999999,-1262592.0
-0.5469904999999999,-1263103.0
-0.5489581,-1263227.0
-0.5489581,-1263750.0
-0.5489581,-1264299.0
-0.5489581,-1264982.0
-0.5489581,-1265668.0
-0.5509257,-1266308.0
-0.5509257,-1266909.0
-0.5509257,-1267505.0
-0.5509257,-1268100.0
-0.5509257,-1268721.0
-0.5509257,-1269356.0
-0.5528933000000001,-1270014.0
-0.5528933000000001,-1270746.0
-0.5528933000000001,-1271578.0
-0.5528933000000001,-1272437.0
-0.5528933000000001,-1273220.0
-0.5528933000000001,-1273847.0
-0.5548609,-1274343.0
-0.5548609,-1275044.0
-0.5548609,-1275609.0
-0.5548609,-1276225.0
-0.5548609,-1276878.0
-0.5548609,-1277563.0
-0.5568284,-1277922.0
-0.5568284,-1278678.0
-0.5568284,-1279451.0
-0.5568284,-1280134.0
-0.5568284,-1280819.0
-0.5587960999999999,-1281306.0
-0.5587960999999999,-1281872.0
-0.5587960999999999,-1282649.0
-0.5587960999999999,-1283266.0
-0.5587960999999999,-1283946.0
-0.5607637,-1284608.0
-0.5607637,-1285233.0
-0.5607637,-1285833.0
-0.5607637,-1286390.0
-0.5607637,-1287112.0
-0.5627312,-1287733.0
-0.5627312,-1288482.0
-0.5627312,-1289130.0
-0.5627312,-1289872.0
-0.5627312,-1290626.0
-0.5627312,-1291375.0
-0.5646988000000001,-1291737.0
-0.5646988000000001,-1292432.0
-0.5646988000000001,-1293082.0
-0.5646988000000001,-1293651.0
-0.5646988000000001,-1294350.0
-0.5666664,-1294943.0
-0.5666664,-1295526.0
-0.5666664,-1296284.0
-0.5666664,-1296961.0
-0.5666664,-1297741.0
-0.568634,-1298535.0
-0.568634,-1299338.0
-0.568634,-1300170.0
-0.568634,-1300978.0
-0.568634,-1301727.0
-0.568634,-1302367.0
-0.5706015999999999,-1302853.0
-0.5706015999999999,-1303435.0
-0.5706015999999999,-1304091.0
-0.5706015999999999,-1304606.0
-0.5706015999999999,-1305175.0
-0.5725691999999999,-1305735.0
-0.5725691999999999,-1306246.0
-0.5725691999999999,-1306972.0
-0.5725691999999999,-1307649.0
-0.5745368000000001,-1308265.0
-0.5745368000000001,-1308992.0
-0.5745368000000001,-1309544.0
-0.5745368000000001,-1310110.0
-0.5745368000000001,-1310701.0
-0.5745368000000001,-1311291.0
-0.5765043000000001,-1311583.0
-0.5765043000000001,-1312200.0
-0.5765043000000001,-1312854.0
-0.5765043000000001,-1313528.0
-0.5765043000000001,-1314194.0
-0.5765043000000001,-1314841.0
-0.578472,-1315491.0
-0.578472,-1316202.0
-0.578472,-1317024.0
-0.578472,-1317846.0
-0.578472,-1318565.0
-0.578472,-1319196.0
-0.5804395999999999,-1319493.0
-0.5804395999999999,-1320060.0
-0.5804395999999999,-1320614.0
-0.5804395999999999,-1321167.0
-0.5804395999999999,-1321701.0
-0.5804395999999999,-1322254.0
-0.5804395999999999,-1322866.0
-0.5824071999999999,-1323183.0
-0.5824071999999999,-1323803.0
-0.5824071999999999,-1324361.0
-0.5824071999999999,-1324902.0
-0.5843746999999999,-1325304.0
-0.5843746999999999,-1326000.0
-0.5843746999999999,-1326598.0
-0.5843746999999999,-1327400.0
-0.5843746999999999,-1328358.0
-0.5843746999999999,-1328876.0
-0.5863424,-1329408.0
-0.5863424,-1329940.0
-0.5863424,-1330460.0
-0.5863424,-1331440.0
-0.5863424,-1332306.0
-0.5863424,-1332995.0
-0.5863424,-1333611.0
-0.58831,-1333740.0
-0.58831,-1334262.0
-0.58831,-1334874.0
-0.58831,-1335399.0
-0.58831,-1335966.0
-0.5902776,-1336260.0
-0.5902776,-1336877.0
-0.5902776,-1337509.0
-0.5902776,-1338134.0
-0.5902776,-1338702.0
-0.5902776,-1339439.0
-0.5922451,-1339688.0
-0.5922451,-1340238.0
-0.5922451,-1340860.0
-0.5922451,-1341559.0
-0.5922451,-1342298.0
-0.5922451,-1343029.0
-0.5942126999999999,-1343762.0
-0.5942126999999999,-1344492.0
-0.5942126999999999,-1345232.0
-0.5942126999999999,-1345947.0
-0.5942126999999999,-1346620.0
-0.5942126999999999,-1347255.0
-0.5961803000000001,-1347822.0
-0.5961803000000001,-1348553.0
-0.5961803000000001,-1349071.0
-0.5961803000000001,-1349592.0
-0.5961803000000001,-1350336.0
-0.5981479000000001,-1350780.0
-0.5981479000000001,-1351392.0
-0.5981479000000001,-1352030.0
-0.5981479000000001,-1352732.0
-0.5981479000000001,-1353294.0
-0.6001155,-1353625.0
-0.6001155,-1354358.0
-0.6001155,-1355135.0
-0.6001155,-1355970.0
-0.6001155,-1356849.0
-0.6001155,-1357694.0
-0.6001155,-1358514.0
-0.6020831,-1358927.0
-0.6020831,-1359707.0
-0.6020831,-1360411.0
-0.6020831,-1361066.0
-0.6020831,-1361687.0
-0.6020831,-1362286.0
-0.6040506,-1362851.0
-0.6040506,-1363544.0
-0.6040506,-1364136.0
-0.6040506,-1364718.0
-0.6060182,-1364807.0
-0.6060182,-1365381.0
-0.6060182,-1366123.0
-0.6060182,-1366863.0
-0.6079859000000001,-1367804.0
-0.6079859000000001,-1368317.0
-0.6079859000000001,-1368833.0
-0.6079859000000001,-1369834.0
-0.6079859000000001,-1370783.0
-0.6079859000000001,-1371612.0
-0.6079859000000001,-1372296.0
-0.6099535,-1372600.0
-0.6099535,-1373149.0
-0.6099535,-1373659.0
-0.6099535,-1374184.0
-0.6099535,-1374744.0
-0.6099535,-1375383.0
-0.6099535,-1376067.0
-0.6119210999999999,-1376407.0
-0.6119210999999999,-1377085.0
-0.6119210999999999,-1377763.0
-0.6119210999999999,-1378394.0
-0.6119210999999999,-1378955.0
-0.6138886,-1379645.0
-0.6138886,-1380193.0
-0.6138886,-1380798.0
-0.6138886,-1381504.0
-0.6138886,-1382031.0
-0.6158562,-1382323.0
-0.6158562,-1382965.0
-0.6158562,-1383708.0
-0.6158562,-1384513.0
-0.6158562,-1385300.0
-0.6158562,-1386111.0
-0.6178238,-1386945.0
-0.6178238,-1387828.0
-0.6178238,-1388748.0
-0.6178238,-1389650.0
-0.6178238,-1390452.0
-0.6178238,-1391160.0
-0.6197914000000001,-1391855.0
-0.6197914000000001,-1392572.0
-0.6197914000000001,-1393246.0
-0.6197914000000001,-1393806.0
-0.6197914000000001,-1394454.0
-0.6217590000000001,-1394828.0
-0.6217590000000001,-1395495.0
-0.6217590000000001,-1396137.0
-0.6217590000000001,-1396794.0
-0.6237265999999999,-1397348.0
-0.6237265999999999,-1398006.0
-0.6237265999999999,-1398763.0
-0.6237265999999999,-1399576.0
-0.6237265999999999,-1400409.0
-0.6237265999999999,-1401256.0
-0.6256941999999999,-1401672.0
-0.6256941999999999,-1402470.0
-0.6256941999999999,-1403245.0
-0.6256941999999999,-1403969.0
-0.6256941999999999,-1404608.0
-0.6256941999999999,-1405203.0
-0.6256941999999999,-1405751.0
-0.6276618,-1406004.0
-0.6276618,-1406717.0
-0.6276618,-1407373.0
-0.6276618,-1407933.0
-0.6296294,-1408479.0
-0.6296294,-1409124.0
-0.6296294,-1409685.0
-0.6296294,-1410309.0
-0.6296294,-1410900.0
-0.6296294,-1411628.0
-0.6315969,-1411865.0
-0.6315969,-1412400.0
-0.6315969,-1413013.0
-0.6315969,-1413679.0
-0.6315969,-1414404.0
-0.6315969,-1415179.0
-0.6335645000000001,-1416019.0
-0.6335645000000001,-1416874.0
-0.6335645000000001,-1417708.0
-0.6335645000000001,-1418479.0
-0.6335645000000001,-1419134.0
-0.6335645000000001,-1419686.0
-0.6355321,-1420183.0
-0.6355321,-1420702.0
-0.6355321,-1421334.0
-0.6355321,-1422043.0
-0.6355321,-1422704.0
-0.6355321,-1423294.0
-0.6374996999999999,-1423565.0
-0.6374996999999999,-1424104.0
-0.6374996999999999,-1424668.0
-0.6374996999999999,-1425191.0
-0.6374996999999999,-1425814.0
-0.6374996999999999,-1426459.0
-0.6394674,-1426731.0
-0.6394674,-1427401.0
-0.6394674,-1428196.0
-0.6394674,-1429050.0
-0.6394674,-1429929.0
-0.6394674,-1430829.0
-0.6414349,-1431692.0
-0.6414349,-1432490.0
-0.6414349,-1433221.0
-0.6414349,-1433859.0
-0.6414349,-1434377.0
-0.6414349,-1435047.0
-0.6434025,-1435430.0
-0.6434025,-1435972.0
-0.6434025,-1436635.0
-0.6434025,-1437152.0
-0.6434025,-1437782.0
-0.6453701000000001,-1438461.0
-0.6453701000000001,-1439117.0
-0.6453701000000001,-1439796.0
-0.6453701000000001,-1440489.0
-0.6453701000000001,-1441085.0
-0.6453701000000001,-1441771.0
-0.6473376999999999,-1442152.0
-0.6473376999999999,-1442757.0
-0.6473376999999999,-1443320.0
-0.6473376999999999,-1444006.0
-0.6473376999999999,-1444762.0
-0.6473376999999999,-1445541.0
-0.6493053000000001,-1445938.0
-0.6493053000000001,-1446754.0
-0.6493053000000001,-1447568.0
-0.6493053000000001,-1448337.0
-0.6493053000000001,-1448967.0
-0.6493053000000001,-1449683.0
-0.651273,-1450151.0
-0.651273,-1450911.0
-0.651273,-1451438.0
-0.651273,-1451970.0
-0.651273,-1452515.0
-0.651273,-1453082.0
-0.6532405,-1453367.0
-0.6532405,-1453914.0
-0.6532405,-1454543.0
-0.6532405,-1455088.0
-0.6532405,-1455725.0
-0.655208,-1456155.0
-0.655208,-1456836.0
-0.655208,-1457368.0
-0.655208,-1458010.0
-0.655208,-1458706.0
-0.655208,-1459384.0
-0.6571756999999999,-1460031.0
-0.6571756999999999,-1460723.0
-0.6571756999999999,-1461507.0
-0.6571756999999999,-1462348.0
-0.6571756999999999,-1463144.0
-0.6571756999999999,-1463883.0
-0.6571756999999999,-1464543.0
-0.6591433000000001,-1464843.0
-0.6591433000000001,-1465408.0
-0.6591433000000001,-1465941.0
-0.6591433000000001,-1466456.0
-0.6591433000000001,-1467162.0
-0.6591433000000001,-1467853.0
-0.6611109000000001,-1468364.0
-0.6611109000000001,-1468937.0
-0.6611109000000001,-1469537.0
-0.6611109000000001,-1470104.0
-0.6611109000000001,-1470833.0
-0.6611109000000001,-1471375.0
-0.6630785,-1471663.0
-0.6630785,-1472240.0
-0.6630785,-1472898.0
-0.6630785,-1473409.0
-0.6630785,-1473989.0
-0.6630785,-1474632.0
-0.665046,-1474980.0
-0.665046,-1475683.0
-0.665046,-1476409.0
-0.665046,-1477145.0
-0.665046,-1477796.0
-0.665046,-1478382.0
-0.6670136,-1478653.0
-0.6670136,-1479169.0
-0.6670136,-1479682.0
-0.6670136,-1480204.0
-0.6670136,-1480951.0
-0.6689811999999999,-1481687.0
-0.6689811999999999,-1482453.0
-0.6689811999999999,-1483062.0
-0.6689811999999999,-1483802.0
-0.6689811999999999,-1484595.0
-0.6689811999999999,-1485397.0
-0.6709488,-1485792.0
-0.6709488,-1486561.0
-0.6709488,-1487348.0
-0.6709488,-1488141.0
-0.6709488,-1488913.0
-0.6709488,-1489667.0
-0.6729164000000001,-1490038.0
-0.6729164000000001,-1490779.0
-0.6729164000000001,-1491548.0
-0.6729164000000001,-1492319.0
-0.6729164000000001,-1493026.0
-0.674884,-1493697.0
-0.674884,-1494364.0
-0.674884,-1494995.0
-0.674884,-1495591.0
-0.674884,-1496179.0
-0.674884,-1496747.0
-0.6768516,-1497040.0
-0.6768516,-1497660.0
-0.6768516,-1498317.0
-0.6768516,-1498985.0
-0.6768516,-1499644.0
-0.6768516,-1500304.0
-0.6788192,-1500642.0
-0.6788192,-1501374.0
-0.6788192,-1502180.0
-0.6788192,-1502984.0
-0.6788192,-1503706.0
-0.6788192,-1504357.0
-0.6807867,-1504667.0
-0.6807867,-1505292.0
-0.6807867,-1505933.0
-0.6807867,-1506604.0
-0.6807867,-1507283.0
-0.6807867,-1507959.0
-0.6827543,-1508314.0
-0.6827543,-1509054.0
-0.6827543,-1509833.0
-0.6827543,-1510637.0
-0.6827543,-1511451.0
-0.6827543,-1512230.0
-0.6847219,-1512933.0
-0.6847219,-1513579.0
-0.6847219,-1514116.0
-0.6847219,-1514725.0
-0.6866896,-1515198.0
-0.6866896,-1515883.0
-0.6866896,-1516426.0
-0.6866896,-1517086.0
-0.6866896,-1517826.0
-0.6886571,-1518657.0
-0.6886571,-1519548.0
-0.6886571,-1520459.0
-0.6886571,-1521362.0
-0.6886571,-1522203.0
-0.6886571,-1522968.0
-0.6906247,-1523331.0
-0.6906247,-1524039.0
-0.6906247,-1524760.0
-0.6906247,-1525481.0
-0.6906247,-1526201.0
-0.6906247,-1526902.0
-0.6925923,-1527246.0
-0.6925923,-1527933.0
-0.6925923,-1528612.0
-0.6925923,-1529264.0
-0.6925923,-1529815.0
-0.6925923,-1530563.0
-0.6945599,-1530838.0
-0.6945599,-1531436.0
-0.6945599,-1532065.0
-0.6945599,-1532743.0
-0.6945599,-1533427.0
-0.6945599,-1534092.0
-0.6965275,-1534420.0
-0.6965275,-1535064.0
-0.6965275,-1535682.0
-0.6965275,-1536281.0
-0.6965275,-1536878.0
-0.6965275,-1537471.0
-0.6984951,-1538067.0
-0.6984951,-1538673.0
-0.6984951,-1539320.0
-0.6984951,-1539994.0
-0.6984951,-1540696.0
-0.6984951,-1541403.0
-0.7004626,-1542108.0
-0.7004626,-1542819.0
-0.7004626,-1543527.0
-0.7004626,-1544166.0
-0.7004626,-1544753.0
-0.7004626,-1545305.0
-0.7024302,-1545992.0
-0.7024302,-1546648.0
-0.7024302,-1547385.0
-0.7024302,-1547948.0
-0.7024302,-1548529.0
-0.7024302,-1549094.0
-0.7043979,-1549684.0
-0.7043979,-1550326.0
-0.7043979,-1551006.0
-0.7043979,-1551699.0
-0.7043979,-1552360.0
-0.7043979,-1552944.0
-0.7043979,-1553455.0
-0.7063655,-1553697.0
-0.7063655,-1554439.0
-0.7063655,-1554962.0
-0.7063655,-1555479.0
-0.7063655,-1556133.0
-0.708333,-1556552.0
-0.708333,-1557286.0
-0.708333,-1557828.0
-0.708333,-1558431.0
-0.708333,-1559130.0
-0.708333,-1559921.0
-0.7103007,-1560770.0
-0.7103007,-1561602.0
-0.7103007,-1562296.0
-0.7103007,-1562861.0
-0.7103007,-1563415.0
-0.7103007,-1564002.0
-0.7122682,-1564555.0
-0.7122682,-1565295.0
-0.7122682,-1565831.0
-0.7122682,-1566471.0
-0.7122682,-1567148.0
-0.7122682,-1567745.0
-0.7142358,-1567996.0
-0.7142358,-1568611.0
-0.7142358,-1569248.0
-0.7142358,-1569770.0
-0.7142358,-1570330.0
-0.7162035,-1570630.0
-0.7162035,-1571324.0
-0.7162035,-1572165.0
-0.7162035,-1573113.0
-0.7162035,-1574104.0
-0.7162035,-1575078.0
-0.7181711,-1575892.0
-0.7181711,-1576552.0
-0.7181711,-1577117.0
-0.7181711,-1577628.0
-0.7181711,-1578366.0
-0.7201386,-1578878.0
-0.7201386,-1579474.0
-0.7201386,-1580206.0
-0.7201386,-1581053.0
-0.7201386,-1581900.0
-0.7201386,-1582710.0
-0.7221062,-1583475.0
-0.7221062,-1584202.0
-0.7221062,-1584931.0
-0.7221062,-1585592.0
-0.7221062,-1586190.0
-0.7240738,-1586361.0
-0.7240738,-1586934.0
-0.7240738,-1587605.0
-0.7240738,-1588172.0
-0.7260414000000001,-1588865.0
-0.7260414000000001,-1589694.0
-0.7260414000000001,-1590581.0
-0.7260414000000001,-1591480.0
-0.7260414000000001,-1592348.0
-0.728009,-1593192.0
-0.728009,-1594025.0
-0.728009,-1594859.0
-0.728009,-1595672.0
-0.728009,-1596479.0
-0.728009,-1597267.0
-0.7299766,-1598017.0
-0.7299766,-1598710.0
-0.7299766,-1599389.0
-0.7299766,-1600038.0
-0.7299766,-1600615.0
-0.7299766,-1601142.0
-0.7319441999999999,-1601645.0
-0.7319441999999999,-1602388.0
-0.7319441999999999,-1602961.0
-0.7319441999999999,-1603592.0
-0.7319441999999999,-1604212.0
-0.7319441999999999,-1604804.0
-0.7339118,-1605082.0
-0.7339118,-1605830.0
-0.7339118,-1606342.0
-0.7339118,-1606889.0
-0.7339118,-1607481.0
-0.7358793,-1608128.0
-0.7358793,-1608858.0
-0.7358793,-1609650.0
-0.7358793,-1610433.0
-0.7358793,-1611191.0
-0.7358793,-1611953.0
-0.7378469,-1612731.0
-0.7378469,-1613497.0
-0.7378469,-1614243.0
-0.7378469,-1614942.0
-0.7378469,-1615605.0
-0.7378469,-1616279.0
-0.7378469,-1616913.0
-0.7398145,-1617186.0
-0.7398145,-1617853.0
-0.7398145,-1618399.0
-0.7398145,-1619020.0
-0.7417821,-1619322.0
-0.7417821,-1619921.0
-0.7417821,-1620463.0
-0.7417821,-1621144.0
-0.7417821,-1621932.0
-0.7417821,-1622755.0
-0.7437497,-1623184.0
-0.7437497,-1624083.0
-0.7437497,-1625008.0
-0.7437497,-1625902.0
-0.7437497,-1626692.0
-0.7437497,-1627321.0
-0.7457173,-1627875.0
-0.7457173,-1628452.0
-0.7457173,-1629065.0
-0.7457173,-1629704.0
-0.7457173,-1630351.0
-0.7457173,-1630943.0
-0.7476848,-1631430.0
-0.7476848,-1632063.0
-0.7476848,-1632589.0
-0.7476848,-1633118.0
-0.7496524,-1633561.0
-0.7496524,-1634265.0
-0.7496524,-1634886.0
-0.7496524,-1635582.0
-0.7496524,-1636325.0
-0.7516201,-1637154.0
-0.7516201,-1638027.0
-0.7516201,-1638878.0
-0.7516201,-1639708.0
-0.7516201,-1640520.0
-0.7516201,-1641388.0
-0.7535877,-1641865.0
-0.7535877,-1642855.0
-0.7535877,-1643800.0
-0.7535877,-1644700.0
-0.7535877,-1645543.0
-0.7535877,-1646326.0
-0.7555553,-1646685.0
-0.7555553,-1647311.0
-0.7555553,-1647841.0
-0.7555553,-1648566.0
-0.7555553,-1649089.0
-0.7555553,-1649607.0
-0.7575228,-1649841.0
-0.7575228,-1650441.0
-0.7575228,-1651031.0
-0.7575228,-1651643.0
-0.7575228,-1652164.0
-0.7594904,-1652470.0
-0.7594904,-1653159.0
-0.7594904,-1653933.0
-0.7594904,-1654771.0
-0.7594904,-1655650.0
-0.7594904,-1656539.0
-0.761458,-1656976.0
-0.761458,-1657837.0
-0.761458,-1658683.0
-0.761458,-1659485.0
-0.761458,-1660221.0
-0.761458,-1660895.0
-0.7634255999999999,-1661520.0
-0.7634255999999999,-1662115.0
-0.7634255999999999,-1662711.0
-0.7634255999999999,-1663339.0
-0.7634255999999999,-1663988.0
-0.7634255999999999,-1664638.0
-0.7653932,-1665273.0
-0.7653932,-1665905.0
-0.7653932,-1666537.0
-0.7653932,-1667131.0
-0.7653932,-1667654.0
-0.7653932,-1668274.0
-0.7673607,-1668453.0
-0.7673607,-1669134.0
-0.7673607,-1669708.0
-0.7673607,-1670414.0
-0.7693284,-1670708.0
-0.7693284,-1671383.0
-0.7693284,-1672161.0
-0.7693284,-1673003.0
-0.7693284,-1673847.0
-0.7693284,-1674708.0
-0.771296,-1675110.0
-0.771296,-1675762.0
-0.771296,-1676531.0
-0.771296,-1677178.0
-0.771296,-1677936.0
-0.771296,-1678738.0
-0.7732635,-1679136.0
-0.7732635,-1679901.0
-0.7732635,-1680640.0
-0.7732635,-1681322.0
-0.7732635,-1681898.0
-0.7752311,-1682517.0
-0.7752311,-1683128.0
-0.7752311,-1683926.0
-0.7752311,-1684578.0
-0.7752311,-1685324.0
-0.7771988000000001,-1685736.0
-0.7771988000000001,-1686589.0
-0.7771988000000001,-1687426.0
-0.7771988000000001,-1688211.0
-0.7771988000000001,-1688891.0
-0.7771988000000001,-1689494.0
-0.7791663000000001,-1690081.0
-0.7791663000000001,-1690687.0
-0.7791663000000001,-1691361.0
-0.7791663000000001,-1692127.0
-0.7791663000000001,-1692939.0
-0.7791663000000001,-1693803.0
-0.7811339,-1694702.0
-0.7811339,-1695520.0
-0.7811339,-1696219.0
-0.7811339,-1696815.0
-0.7811339,-1697506.0
-0.7831016,-1698166.0
-0.7831016,-1698724.0
-0.7831016,-1699301.0
-0.7831016,-1699862.0
-0.7831016,-1700543.0
-0.7831016,-1701132.0
-0.7850691,-1701338.0
-0.7850691,-1701996.0
-0.7850691,-1702747.0
-0.7850691,-1703337.0
-0.7850691,-1704013.0
-0.7870366999999999,-1704757.0
-0.7870366999999999,-1705567.0
-0.7870366999999999,-1706440.0
-0.7870366999999999,-1707387.0
-0.7870366999999999,-1708391.0
-0.7870366999999999,-1709356.0
-0.7890043000000001,-1710112.0
-0.7890043000000001,-1710659.0
-0.7890043000000001,-1711307.0
-0.7890043000000001,-1711820.0
-0.7909719,-1712076.0
-0.7909719,-1712615.0
-0.7909719,-1713139.0
-0.7909719,-1713791.0
-0.7909719,-1714505.0
-0.7909719,-1715210.0
-0.7929395,-1715561.0
-0.7929395,-1716262.0
-0.7929395,-1716938.0
-0.7929395,-1717620.0
-0.7929395,-1718284.0
-0.7929395,-1718931.0
-0.7949071,-1719254.0
-0.7949071,-1719906.0
-0.7949071,-1720612.0
-0.7949071,-1721403.0
-0.7949071,-1722217.0
-0.7949071,-1722965.0
-0.7968746999999999,-1723628.0
-0.7968746999999999,-1724243.0
-0.7968746999999999,-1724854.0
-0.7968746999999999,-1725509.0
-0.7968746999999999,-1726205.0
-0.7968746999999999,-1726931.0
-0.7988423000000001,-1727316.0
-0.7988423000000001,-1728129.0
-0.7988423000000001,-1729011.0
-0.7988423000000001,-1729907.0
-0.7988423000000001,-1730708.0
-0.7988423000000001,-1731382.0
-0.8008099,-1731668.0
-0.8008099,-1732401.0
-0.8008099,-1733047.0
-0.8008099,-1733691.0
-0.8027774000000001,-1734444.0
-0.8027774000000001,-1734991.0
-0.8027774000000001,-1735599.0
-0.8027774000000001,-1736260.0
-0.8027774000000001,-1736951.0
-0.8027774000000001,-1737644.0
-0.8047449999999999,-1738307.0
-0.8047449999999999,-1738934.0
-0.8047449999999999,-1739528.0
-0.8047449999999999,-1740105.0
-0.8047449999999999,-1740657.0
-0.8047449999999999,-1741225.0
-0.8067126,-1741537.0
-0.8067126,-1742204.0
-0.8067126,-1742919.0
-0.8067126,-1743686.0
-0.8067126,-1744447.0
-0.8067126,-1745197.0
-0.8086802,-1745955.0
-0.8086802,-1746696.0
-0.8086802,-1747377.0
-0.8086802,-1747936.0
-0.8086802,-1748533.0
-0.8106478,-1749034.0
-0.8106478,-1749677.0
-0.8106478,-1750205.0
-0.8106478,-1750806.0
-0.8106478,-1751486.0
-0.8106478,-1752216.0
-0.8126154000000001,-1752925.0
-0.8126154000000001,-1753605.0
-0.8126154000000001,-1754196.0
-0.8126154000000001,-1754773.0
-0.8126154000000001,-1755459.0
-0.8126154000000001,-1756211.0
-0.8145829000000001,-1756590.0
-0.8145829000000001,-1757376.0
-0.8145829000000001,-1758198.0
-0.8145829000000001,-1759031.0
-0.8145829000000001,-1759835.0
-0.8145829000000001,-1760605.0
-0.8165505999999999,-1761281.0
-0.8165505999999999,-1761878.0
-0.8165505999999999,-1762470.0
-0.8165505999999999,-1763061.0
-0.8165505999999999,-1763612.0
-0.8165505999999999,-1764249.0
-0.8185182,-1764435.0
-0.8185182,-1764967.0
-0.8185182,-1765546.0
-0.8185182,-1766147.0
-0.8204858,-1766907.0
-0.8204858,-1767635.0
-0.8204858,-1768509.0
-0.8204858,-1769522.0
-0.8204858,-1770066.0
-0.8204858,-1770614.0
-0.8204858,-1771152.0
-0.8204858,-1771676.0
-0.8224534,-1772183.0
-0.8224534,-1773116.0
-0.8224534,-1773932.0
-0.8224534,-1774597.0
-0.8224534,-1775322.0
-0.8224534,-1775873.0
-0.8244209000000001,-1776059.0
-0.8244209000000001,-1776828.0
-0.8244209000000001,-1777512.0
-0.8244209000000001,-1778221.0
-0.8244209000000001,-1778932.0
-0.8263885,-1779644.0
-0.8263885,-1780363.0
-0.8263885,-1781050.0
-0.8263885,-1781605.0
-0.8263885,-1782143.0
-0.8283560999999999,-1782492.0
-0.8283560999999999,-1783108.0
-0.8283560999999999,-1783900.0
-0.8283560999999999,-1784618.0
-0.8303236999999999,-1785436.0
-0.8303236999999999,-1786291.0
-0.8303236999999999,-1787133.0
-0.8303236999999999,-1787932.0
-0.8303236999999999,-1788679.0
-0.8303236999999999,-1789387.0
-0.8322913000000001,-1789738.0
-0.8322913000000001,-1790452.0
-0.8322913000000001,-1791176.0
-0.8322913000000001,-1791926.0
-0.8322913000000001,-1792677.0
-0.8322913000000001,-1793411.0
-0.834259,-1794105.0
